---,ANPC_Label,Action_Label,Valence
Plum2Gossip,Plum,Gossip,0.9861839165
Plum2Aid,Plum,Aid,0.8037752007
Plum2Accuse,Plum,Accuse,0.5382877326
Plum2Murder,Plum,Murder,0.4511719543
White2Gossip,White,Gossip,0.2283030901
White2Aid,White,Aid,0.9713578840
White2Accuse,White,Accuse,0.0396191858
White2Murder,White,Murder,0.7550317119
Scarlet2Gossip,Scarlet,Gossip,0.0271476597
Scarlet2Aid,Scarlet,Aid,0.0924466617
Scarlet2Accuse,Scarlet,Accuse,0.4575725383
Scarlet2Murder,Scarlet,Murder,0.2981862353
Green2Gossip,Green,Gossip,0.6758634343
Green2Aid,Green,Aid,0.3317532980
Green2Accuse,Green,Accuse,0.6162982613
Green2Murder,Green,Murder,0.2383677622
Mustard2Gossip,Mustard,Gossip,0.0311676041
Mustard2Aid,Mustard,Aid,0.7876384380
Mustard2Accuse,Mustard,Accuse,0.0625458233
Mustard2Murder,Mustard,Murder,0.2487385690
Peacock2Gossip,Peacock,Gossip,0.7669790572
Peacock2Aid,Peacock,Aid,0.6042853365
Peacock2Accuse,Peacock,Accuse,0.8373416226
Peacock2Murder,Peacock,Murder,0.9974067984
