---,Label
Plum,Plum
White,White
Scarlet,Scarlet
Green,Green
Mustard,Mustard
Peacock,Peacock
Rope,Rope
Dagger,Dagger
Wrench,Wrench
Pistol,Pistol
Candlestick,Candlestick
Lead Pipe,Lead Pipe
Courtyard,Courtyard
Game Room,Game Room
Study,Study
Dining Room,Dining Room
Garage,Garage
Living Room,Living Room
Kitchen,Kitchen
Bedroom,Bedroom
Bathroom,Bathroom
