idx,Sign,Key,Facet,Item
1,1,P,Positive,Interested
2,1,N,Negative,Distressed
3,1,P,Positive,Excited
4,1,N,Negative,Upset
5,1,P,Positive,Strong
6,1,N,Negative,Guilty
7,1,N,Negative,Scared
8,1,N,Negative,Hostile
9,1,P,Positive,Enthusiastic
10,1,P,Positive,Proud
11,1,N,Negative,Irritable
12,1,P,Positive,Alert
13,1,N,Negative,Ashamed
14,1,P,Positive,Inspired
15,1,N,Negative,Nervous
16,1,P,Positive,Determined
17,1,P,Positive,Attentive
18,1,N,Negative,Jittery
19,1,P,Positive,Active
20,1,N,Negative,Afraid
