^D:\GIT\THESIS\ARTIFICIAL-PSYCHOSOCIAL-FRAMEWORK\STATIC LIB\CODE\APF_LIB.CPP
/c /ZI /JMC /nologo /W4 /WX- /diagnostics:classic /Od /D _DEBUG /D _LIB /D _UNICODE /D UNICODE /Gm- /EHsc /RTC1 /MD /GS /fp:precise /permissive- /Zc:wchar_t /Zc:forScope /Zc:inline /Fo"X64\DEBUG\\" /Fd"X64\DEBUG\APF_LIB.PDB" /Gd /TP /FC D:\GIT\THESIS\ARTIFICIAL-PSYCHOSOCIAL-FRAMEWORK\STATIC LIB\CODE\APF_LIB.CPP
^D:\GIT\THESIS\ARTIFICIAL-PSYCHOSOCIAL-FRAMEWORK\STATIC LIB\CODE\EVENT.CPP
/c /ZI /JMC /nologo /W4 /WX- /diagnostics:classic /Od /D _DEBUG /D _LIB /D _UNICODE /D UNICODE /Gm- /EHsc /RTC1 /MD /GS /fp:precise /permissive- /Zc:wchar_t /Zc:forScope /Zc:inline /Fo"X64\DEBUG\\" /Fd"X64\DEBUG\APF_LIB.PDB" /Gd /TP /FC D:\GIT\THESIS\ARTIFICIAL-PSYCHOSOCIAL-FRAMEWORK\STATIC LIB\CODE\EVENT.CPP
^D:\GIT\THESIS\ARTIFICIAL-PSYCHOSOCIAL-FRAMEWORK\STATIC LIB\CODE\MENTALSTATE.CPP
/c /ZI /JMC /nologo /W4 /WX- /diagnostics:classic /Od /D _DEBUG /D _LIB /D _UNICODE /D UNICODE /Gm- /EHsc /RTC1 /MD /GS /fp:precise /permissive- /Zc:wchar_t /Zc:forScope /Zc:inline /Fo"X64\DEBUG\\" /Fd"X64\DEBUG\APF_LIB.PDB" /Gd /TP /FC D:\GIT\THESIS\ARTIFICIAL-PSYCHOSOCIAL-FRAMEWORK\STATIC LIB\CODE\MENTALSTATE.CPP
^D:\GIT\THESIS\ARTIFICIAL-PSYCHOSOCIAL-FRAMEWORK\STATIC LIB\CODE\RELATIONS.CPP
/c /ZI /JMC /nologo /W4 /WX- /diagnostics:classic /Od /D _DEBUG /D _LIB /D _UNICODE /D UNICODE /Gm- /EHsc /RTC1 /MD /GS /fp:precise /permissive- /Zc:wchar_t /Zc:forScope /Zc:inline /Fo"X64\DEBUG\\" /Fd"X64\DEBUG\APF_LIB.PDB" /Gd /TP /FC D:\GIT\THESIS\ARTIFICIAL-PSYCHOSOCIAL-FRAMEWORK\STATIC LIB\CODE\RELATIONS.CPP
^D:\GIT\THESIS\ARTIFICIAL-PSYCHOSOCIAL-FRAMEWORK\STATIC LIB\CODE\TRAIT.CPP
/c /ZI /JMC /nologo /W4 /WX- /diagnostics:classic /Od /D _DEBUG /D _LIB /D _UNICODE /D UNICODE /Gm- /EHsc /RTC1 /MD /GS /fp:precise /permissive- /Zc:wchar_t /Zc:forScope /Zc:inline /Fo"X64\DEBUG\\" /Fd"X64\DEBUG\APF_LIB.PDB" /Gd /TP /FC D:\GIT\THESIS\ARTIFICIAL-PSYCHOSOCIAL-FRAMEWORK\STATIC LIB\CODE\TRAIT.CPP
^D:\GIT\THESIS\ARTIFICIAL-PSYCHOSOCIAL-FRAMEWORK\STATIC LIB\CODE\VOCABULARY.CPP
/c /ZI /JMC /nologo /W4 /WX- /diagnostics:classic /Od /D _DEBUG /D _LIB /D _UNICODE /D UNICODE /Gm- /EHsc /RTC1 /MD /GS /fp:precise /permissive- /Zc:wchar_t /Zc:forScope /Zc:inline /Fo"X64\DEBUG\\" /Fd"X64\DEBUG\APF_LIB.PDB" /Gd /TP /FC D:\GIT\THESIS\ARTIFICIAL-PSYCHOSOCIAL-FRAMEWORK\STATIC LIB\CODE\VOCABULARY.CPP
