---,ANPC_Label,Obj_Label,Valence
Plum2Plum,Plum,Plum,0.0397496134
Plum2White,Plum,White,0.3948497962
Plum2Scarlet,Plum,Scarlet,0.5730457940
Plum2Green,Plum,Green,0.3417091640
Plum2Mustard,Plum,Mustard,0.3426466696
Plum2Peacock,Plum,Peacock,0.2920651164
Plum2Rope,Plum,Rope,0.1950325249
Plum2Dagger,Plum,Dagger,0.9095089120
Plum2Wrench,Plum,Wrench,0.3724900734
Plum2Pistol,Plum,Pistol,0.7248654878
Plum2Candlestick,Plum,Candlestick,0.6654205057
Plum2Lead Pipe,Plum,Lead Pipe,0.8170995219
Plum2Courtyard,Plum,Courtyard,0.3590004134
Plum2Game Room,Plum,Game Room,0.3504814327
Plum2Study,Plum,Study,0.3418788750
Plum2Dining Room,Plum,Dining Room,0.1245782133
Plum2Garage,Plum,Garage,0.5805330096
Plum2Living Room,Plum,Living Room,0.9889371293
Plum2Kitchen,Plum,Kitchen,0.2335224261
Plum2Bedroom,Plum,Bedroom,0.8806338398
Plum2Bathroom,Plum,Bathroom,0.5601744076
White2Plum,White,Plum,0.6522088568
White2White,White,White,0.5275006433
White2Scarlet,White,Scarlet,0.9146699153
White2Green,White,Green,0.1870587651
White2Mustard,White,Mustard,0.2441461732
White2Peacock,White,Peacock,0.2559626266
White2Rope,White,Rope,0.7152647179
White2Dagger,White,Dagger,0.5476408546
White2Wrench,White,Wrench,0.9642266101
White2Pistol,White,Pistol,0.6167872075
White2Candlestick,White,Candlestick,0.1994778504
White2Lead Pipe,White,Lead Pipe,0.3838818770
White2Courtyard,White,Courtyard,0.2997516376
White2Game Room,White,Game Room,0.5834263495
White2Study,White,Study,0.7277468169
White2Dining Room,White,Dining Room,0.3937898994
White2Garage,White,Garage,0.6168483700
White2Living Room,White,Living Room,0.7703136461
White2Kitchen,White,Kitchen,0.0492442567
White2Bedroom,White,Bedroom,0.0597756538
White2Bathroom,White,Bathroom,0.0450529245
Scarlet2Plum,Scarlet,Plum,0.1229182893
Scarlet2White,Scarlet,White,0.4661480890
Scarlet2Scarlet,Scarlet,Scarlet,0.6775170153
Scarlet2Green,Scarlet,Green,0.3094936651
Scarlet2Mustard,Scarlet,Mustard,0.6618494442
Scarlet2Peacock,Scarlet,Peacock,0.0353241711
Scarlet2Rope,Scarlet,Rope,0.4415904902
Scarlet2Dagger,Scarlet,Dagger,0.0833191717
Scarlet2Wrench,Scarlet,Wrench,0.1996770922
Scarlet2Pistol,Scarlet,Pistol,0.2567689785
Scarlet2Candlestick,Scarlet,Candlestick,0.1016968111
Scarlet2Lead Pipe,Scarlet,Lead Pipe,0.3515327100
Scarlet2Courtyard,Scarlet,Courtyard,0.8248848761
Scarlet2Game Room,Scarlet,Game Room,0.9347808096
Scarlet2Study,Scarlet,Study,0.5525775487
Scarlet2Dining Room,Scarlet,Dining Room,0.5553326630
Scarlet2Garage,Scarlet,Garage,0.5479799144
Scarlet2Living Room,Scarlet,Living Room,0.7560755929
Scarlet2Kitchen,Scarlet,Kitchen,0.6695603134
Scarlet2Bedroom,Scarlet,Bedroom,0.2300493997
Scarlet2Bathroom,Scarlet,Bathroom,0.3411908353
Green2Plum,Green,Plum,0.3728791377
Green2White,Green,White,0.6741741916
Green2Scarlet,Green,Scarlet,0.7577347529
Green2Green,Green,Green,0.681402978
Green2Mustard,Green,Mustard,0.608179852
Green2Peacock,Green,Peacock,0.913882106
Green2Rope,Green,Rope,0.15338867
Green2Dagger,Green,Dagger,0.452646396
Green2Wrench,Green,Wrench,0.738708994
Green2Pistol,Green,Pistol,0.913422235
Green2Candlestick,Green,Candlestick,0.829274353
Green2Lead Pipe,Green,Lead Pipe,0.579187193
Green2Courtyard,Green,Courtyard,0.938799951
Green2Game Room,Green,Game Room,0.784071671
Green2Study,Green,Study,0.285082002
Green2Dining Room,Green,Dining Room,0.875968945
Green2Garage,Green,Garage,0.073176479
Green2Living Room,Green,Living Room,0.642681001
Green2Kitchen,Green,Kitchen,0.500625527
Green2Bedroom,Green,Bedroom,0.512361231
Green2Bathroom,Green,Bathroom,0.306535121
Mustard2Plum,Mustard,Plum,0.31679221
Mustard2White,Mustard,White,0.440219357
Mustard2Scarlet,Mustard,Scarlet,0.346211989
Mustard2Green,Mustard,Green,0.812966077
Mustard2Mustard,Mustard,Mustard,0.131508393
Mustard2Peacock,Mustard,Peacock,0.117373739
Mustard2Rope,Mustard,Rope,0.358016976
Mustard2Dagger,Mustard,Dagger,0.65315401
Mustard2Wrench,Mustard,Wrench,0.850124516
Mustard2Pistol,Mustard,Pistol,0.248844887
Mustard2Candlestick,Mustard,Candlestick,0.809731926
Mustard2Lead Pipe,Mustard,Lead Pipe,0.74956632
Mustard2Courtyard,Mustard,Courtyard,0.083759238
Mustard2Game Room,Mustard,Game Room,0.643207654
Mustard2Study,Mustard,Study,0.504353602
Mustard2Dining Room,Mustard,Dining Room,0.293447525
Mustard2Garage,Mustard,Garage,0.12040301
Mustard2Living Room,Mustard,Living Room,0.544898641
Mustard2Kitchen,Mustard,Kitchen,0.640202949
Mustard2Bedroom,Mustard,Bedroom,0.810966965
Mustard2Bathroom,Mustard,Bathroom,0.268509178
Peacock2Plum,Peacock,Plum,0.306922115
Peacock2White,Peacock,White,0.322885091
Peacock2Scarlet,Peacock,Scarlet,0.119335496
Peacock2Green,Peacock,Green,0.947215513
Peacock2Mustard,Peacock,Mustard,0.191049864
Peacock2Peacock,Peacock,Peacock,0.658991088
Peacock2Rope,Peacock,Rope,0.09254885
Peacock2Dagger,Peacock,Dagger,0.376703263
Peacock2Wrench,Peacock,Wrench,0.868270538
Peacock2Pistol,Peacock,Pistol,0.118169626
Peacock2Candlestick,Peacock,Candlestick,0.101175679
Peacock2Lead Pipe,Peacock,Lead Pipe,0.135686666
Peacock2Courtyard,Peacock,Courtyard,0.828333551
Peacock2Game Room,Peacock,Game Room,0.091845859
Peacock2Study,Peacock,Study,0.7137355
Peacock2Dining Room,Peacock,Dining Room,0.293069426
Peacock2Garage,Peacock,Garage,0.855139359
Peacock2Living Room,Peacock,Living Room,0.706006231
Peacock2Kitchen,Peacock,Kitchen,0.265622499
Peacock2Bedroom,Peacock,Bedroom,0.642045269
Peacock2Bathroom,Peacock,Bathroom,0.872613239
