---,Label,Openness,Conscientiousness,Extraversion,Agreeableness,Neuoticism
Plum,Plum,0.1878128640,0.5951873666,0.2757189814,0.0698513884,0.5826440306
White,White,0.4565539556,0.5719882003,0.2293438572,0.0360560368,0.6702699272
Scarlet,Scarlet,0.0015700063,0.7655623190,0.7012783195,0.3679614986,0.0916202185
Green,Green,0.0356384738,0.7186944276,0.1580057226,0.6432189943,0.2978776503
Mustard,Mustard,0.4219195043,0.6253565014,0.3101093646,0.8712354117,0.5834779036
Peacock,Peacock,0.9574288342,0.9128084616,0.6594511678,0.0025602407,0.8445002074
