Action,Defense,Heal,Long attack,Move backward,Move forward,Range attack,Short attack,,Positive,Negative,Pleased,Displeased,Liking,Disliking,Approving,Disapproving,Hope,Fear,Joy,Distress,Love,Hate,Interest,Pride,Shame,Admiration,Reproach,Satisfaction,Frears_confirmed,Relief,Disappointment,Happy_For,Resentment,Gloating,Pity,Gratification,Remorse,Gratitude,Anger
Long attack,80.000 0.000088,100.000 0.499399,100.000 0.199970,54.000 0.399953,100.000 0.500131,100.000 0.500140,80.000 1.000890,60.000 0.400019,Ranger458758
Long attack,80.000 1.000977,100.000 0.499311,100.000 0.199882,54.000 0.399865,100.000 0.500043,94.000 0.500052,80.000 1.000802,60.000 0.399931,Ranger65536
Long attack (ANPC) 3,80.000 0.801095,100.000 0.299429,100.000 1.200859,54.000 0.199983,93.000 0.300161,94.000 0.300170,80.000 0.800920,60.000 0.200049,ANPC196610
Long attack,80.000 0.601112,100.000 0.099446,100.000 1.000876,54.000 1.400842,93.000 0.100178,89.000 0.100187,80.000 0.600937,60.000 0.000066,Healer262147
Long attack,80.000 0.601046,100.000 0.099380,95.000 1.000810,54.000 1.400776,93.000 0.100112,89.000 0.100121,80.000 0.600871,60.000 1.400908,Healer524295
Short attack,80.000 0.501666,100.000 1.500288,95.000 0.901430,54.000 1.301396,85.500 0.000732,89.000 0.000741,80.000 0.501491,60.000 1.301529,Tank131073
Short attack,80.000 0.500934,92.500 1.499556,95.000 0.900699,54.000 1.300665,85.500 1.501020,89.000 0.000009,80.000 0.500759,60.000 1.300797,Tank327684
Short attack,80.000 0.500925,92.500 1.499547,87.500 0.900689,54.000 1.300655,85.500 1.501011,89.000 1.501029,80.000 0.500750,60.000 1.300788,Tank393221
Long attack,80.000 0.000175,92.500 0.998797,81.500 0.399940,54.000 0.799906,85.500 1.000261,89.000 1.000279,80.000 1.000890,60.000 0.800038,Ranger458758
Long attack,80.000 1.000977,92.500 0.998622,81.500 0.399764,54.000 0.799730,79.500 1.000086,89.000 1.000104,80.000 1.000714,60.000 0.799862,Ranger65536
Long attack (ANPC) 11,80.000 0.601213,92.500 0.598858,81.500 1.200859,54.000 0.399966,72.500 0.600322,89.000 0.600340,80.000 0.600950,60.000 0.400098,ANPC196610
Long attack,80.000 0.201247,92.500 0.198892,81.500 0.800893,54.000 1.400842,67.500 0.200356,89.000 0.200374,80.000 0.200984,60.000 0.000132,Healer262147
Heal,80.000 0.201115,92.500 0.198760,81.500 0.800761,54.000 1.400710,73.000 0.200223,89.000 0.200242,80.000 0.200852,60.000 1.400908,Healer524295
Short attack,80.000 0.002355,92.500 1.500288,81.500 0.602002,54.000 1.201951,73.000 0.001464,81.500 0.001482,80.000 0.002092,60.000 1.202149,Tank131073
Short attack,80.000 0.000891,92.500 1.498824,74.000 0.600538,54.000 1.200487,73.000 1.501020,81.500 0.000018,80.000 0.000628,60.000 1.200685,Tank327684
Short attack,80.000 0.000873,85.000 1.498806,74.000 0.600520,54.000 1.200469,73.000 1.501002,81.500 1.501029,80.000 0.000610,60.000 1.200667,Tank393221
Long attack,80.000 0.000263,79.000 1.498196,74.000 0.599909,54.000 1.199858,73.000 1.500392,81.500 1.500419,80.000 1.000890,60.000 1.200056,Ranger458758
Long attack,80.000 1.000977,79.000 1.497933,74.000 0.599646,54.000 1.199595,67.000 1.500129,81.500 1.500156,80.000 1.000627,60.000 1.199794,Ranger65536
Range attack (ANPC) 19,80.000 0.401331,79.000 0.898286,74.000 1.200859,54.000 0.599949,63.000 0.900482,81.500 0.900509,80.000 0.400980,60.000 0.600147,ANPC196610
Range attack (ANPC) 19,80.000 0.401331,79.000 0.898286,74.000 1.200859,54.000 0.599949,63.000 0.900482,77.500 0.900509,80.000 0.400980,60.000 0.600147,ANPC196610
Long attack,80.000 0.000350,73.000 0.497306,74.000 0.799879,54.000 0.198969,63.000 0.499502,77.500 0.499529,80.000 1.000890,60.000 0.199167,Ranger458758
Long attack,80.000 1.000977,73.000 0.496956,74.000 0.799529,54.000 0.198618,57.000 0.499152,77.500 0.499179,80.000 1.000539,60.000 0.198816,Ranger65536
Long attack,80.000 0.802359,73.000 0.298337,74.000 0.600910,54.000 1.400842,52.000 0.300533,77.500 0.300560,80.000 0.801921,60.000 0.000198,Healer262147
Heal,80.000 0.802161,73.000 0.298139,74.000 0.600712,54.000 1.400644,57.500 0.300335,77.500 0.300362,80.000 0.801723,60.000 1.400908,Healer524295
Short attack,80.000 0.504021,73.000 1.500288,74.000 0.302573,54.000 1.102505,57.500 0.002196,70.000 0.002223,80.000 0.503583,60.000 1.102769,Tank131073
Short attack,80.000 0.501826,73.000 1.498092,66.500 0.300377,54.000 1.100309,57.500 1.501020,70.000 0.000027,80.000 0.501387,60.000 1.100573,Tank327684
Short attack,80.000 0.501798,65.500 1.498065,66.500 0.300350,54.000 1.100282,57.500 1.500993,70.000 1.501029,80.000 0.501360,60.000 1.100546,Tank393221
Move backward (ANPC) 27,80.000 0.201449,65.500 1.197715,66.500 1.200859,54.000 0.799932,57.500 1.200643,70.000 1.200679,80.000 0.201010,60.000 0.800196,ANPC196610
Range attack,80.000 0.000438,65.500 0.996705,64.000 0.999849,54.000 0.598922,57.500 0.999633,70.000 0.999669,80.000 1.000890,60.000 0.599186,Ranger458758
Range attack,77.500 0.000438,65.500 0.996705,64.000 0.999849,54.000 0.598922,57.500 0.999633,70.000 0.999669,80.000 1.000890,60.000 0.599186,Ranger458758
Range attack,77.500 0.000438,65.500 0.996705,64.000 0.999849,51.500 0.598922,57.500 0.999633,70.000 0.999669,80.000 1.000890,60.000 0.599186,Ranger458758
Long attack,77.500 1.000977,65.500 0.996267,64.000 0.999411,51.500 0.598483,57.500 0.999195,64.000 0.999231,80.000 1.000451,60.000 0.598748,Ranger65536
Heal,77.500 0.402494,65.500 0.397783,69.500 0.400927,51.500 1.400842,57.500 0.400711,64.000 0.400747,80.000 0.401968,60.000 0.000264,Healer262147
Heal,77.500 0.402230,65.500 0.397519,69.500 0.400663,51.500 1.400578,63.000 0.400447,64.000 0.400483,80.000 0.401704,60.000 1.400908,Healer524295
Short attack,77.500 0.004710,65.500 1.500288,69.500 0.003144,51.500 1.003059,55.500 0.002928,64.000 0.002964,80.000 0.004185,60.000 1.003389,Tank131073
Short attack,77.500 0.001783,58.000 1.497360,69.500 0.000216,51.500 1.000131,55.500 1.501020,64.000 0.000036,80.000 0.001257,60.000 1.000461,Tank327684
Short attack,77.500 0.001746,50.500 1.497324,69.500 0.000180,51.500 1.000095,55.500 1.500984,64.000 1.501029,80.000 0.001221,60.000 1.000425,Tank393221
Range attack (ANPC) 35,77.500 0.001566,50.500 1.497144,69.500 1.200859,51.500 0.999915,51.500 1.500804,64.000 1.500849,80.000 0.001041,60.000 1.000245,ANPC196610
Range attack (ANPC) 35,77.500 0.001566,50.500 1.497144,69.500 1.200859,51.500 0.999915,51.500 1.500804,60.000 1.500849,80.000 0.001041,60.000 1.000245,ANPC196610
Long attack,77.500 0.000526,44.500 1.496103,69.500 1.199819,51.500 0.998874,51.500 1.499763,60.000 1.499808,80.000 1.000890,60.000 0.999205,Ranger458758
Long attack,77.500 1.000977,44.500 1.495578,69.500 1.199293,51.500 0.998349,51.500 1.499237,54.000 1.499283,80.000 1.000364,60.000 0.998679,Ranger65536
Heal,77.500 0.002629,50.000 0.497229,69.500 0.200944,51.500 1.400842,51.500 0.500889,54.000 0.500934,80.000 0.002015,60.000 0.000330,Healer262147
Heal,77.500 0.002298,50.000 0.496899,69.500 0.200614,51.500 1.400512,57.000 0.500559,54.000 0.500604,80.000 0.001685,60.000 1.400908,Healer524295
Long attack,77.500 0.000613,44.000 0.495214,69.500 0.198929,51.500 1.398827,57.000 0.498874,54.000 0.498919,80.000 1.000890,60.000 1.399223,Ranger458758
Long attack,77.500 1.000977,44.000 0.494601,69.500 0.198316,51.500 1.398214,51.000 0.498260,54.000 0.498306,80.000 1.000276,60.000 1.398610,Ranger65536
Range attack (ANPC) 42,77.500 0.802661,44.000 0.296285,69.500 1.200859,51.500 1.199898,47.000 0.299945,54.000 0.299990,80.000 0.801960,60.000 1.200294,ANPC196610
Range attack (ANPC) 42,77.500 0.802661,44.000 0.296285,69.500 1.200859,51.500 1.199898,47.000 0.299945,50.000 0.299990,80.000 0.801960,60.000 1.200294,ANPC196610
Defense,77.500 0.506377,44.000 1.500288,69.500 0.904575,51.500 0.903613,47.000 0.003660,50.000 0.003705,80.000 0.505676,60.000 0.904009,Tank131073
Defense,77.500 0.502717,44.000 1.496628,69.500 0.900915,51.500 0.899953,47.000 1.501020,50.000 0.000045,80.000 0.502016,60.000 0.900350,Tank327684
Short attack,77.500 0.502672,40.250 1.496583,69.500 0.900869,51.500 0.899908,47.000 1.500975,50.000 1.501029,80.000 0.501971,60.000 0.900304,Tank393221
Long attack,77.500 0.000701,34.250 0.994612,69.500 0.398899,51.500 0.397938,47.000 0.999004,50.000 0.999058,80.000 1.000890,60.000 0.398334,Ranger458758
Long attack,77.500 1.000977,34.250 0.993912,69.500 0.398198,51.500 0.397237,44.000 0.998303,50.000 0.998358,80.000 1.000189,60.000 0.397633,Ranger65536
Heal,77.500 0.603741,39.750 0.596675,69.500 0.000961,51.500 1.400842,44.000 0.601067,50.000 0.601121,80.000 0.602952,60.000 0.000396,Healer262147
Heal,77.500 0.603344,39.750 0.596279,69.500 0.000565,51.500 1.400446,49.500 0.600670,50.000 0.600725,80.000 0.602556,60.000 1.400908,Healer524295
Range attack (ANPC) 50,77.500 0.602779,39.750 0.595714,69.500 1.200859,51.500 1.399881,45.500 0.600105,50.000 0.600160,80.000 0.601991,60.000 1.400343,ANPC196610
Range attack (ANPC) 50,77.500 0.602779,39.750 0.595714,69.500 1.200859,51.500 1.399881,45.500 0.600105,46.000 0.600160,80.000 0.601991,60.000 1.400343,ANPC196610
Defense,77.500 0.007066,39.750 1.500288,69.500 0.605146,51.500 0.804167,45.500 0.004392,46.000 0.004446,80.000 0.006277,60.000 0.804630,Tank131073
Defense,77.500 0.002674,39.750 1.495896,69.500 0.600754,51.500 0.799776,45.500 1.501020,46.000 0.000054,80.000 0.001885,60.000 0.800238,Tank327684
Defense,77.500 0.002620,39.750 1.495842,69.500 0.600700,51.500 0.799721,45.500 1.500966,46.000 1.501029,80.000 0.001831,60.000 0.800184,Tank393221
Long attack,77.500 0.000789,36.750 1.494011,69.500 0.598869,51.500 0.797890,45.500 1.499135,46.000 1.499198,80.000 1.000890,60.000 0.798353,Ranger458758
Range attack (ANPC) 56,77.500 0.402897,36.750 0.895142,69.500 1.200859,51.500 0.199022,43.500 0.900266,46.000 0.900329,80.000 0.402021,60.000 0.199484,ANPC196610
Range attack (ANPC) 56,77.500 0.402897,36.750 0.895142,69.500 1.200859,51.500 0.199022,43.500 0.900266,44.000 0.900329,80.000 0.402021,60.000 0.199484,ANPC196610
Heal,77.500 0.203875,42.250 0.696121,69.500 1.001838,51.500 1.400842,43.500 0.701244,44.000 0.701308,80.000 0.202999,60.000 0.000462,Healer262147
Heal,77.500 0.203413,42.250 0.695658,69.500 1.001375,51.500 1.400380,49.000 0.700782,44.000 0.700845,80.000 0.202537,60.000 1.400908,Healer524295
Long attack,77.500 0.000876,36.250 0.493122,69.500 0.798838,51.500 1.197843,49.000 0.498245,44.000 0.498309,80.000 1.000890,60.000 1.198371,Ranger458758
Long attack,77.500 1.000977,36.250 0.492245,69.500 0.797962,51.500 1.196967,43.000 0.497369,44.000 0.497432,80.000 1.000013,60.000 1.197495,Ranger65536
Defense,77.500 0.508732,36.250 1.500288,69.500 0.305717,51.500 0.704722,43.000 0.005124,44.000 0.005187,80.000 0.507768,60.000 0.705250,Tank131073
Defense,77.500 0.503608,36.250 1.495165,69.500 0.300593,51.500 0.699598,43.000 1.501020,44.000 0.000063,80.000 0.502644,60.000 0.700126,Tank327684
Defense,77.500 0.503545,36.250 1.495101,69.500 0.300530,51.500 0.699535,43.000 1.500957,44.000 1.501029,80.000 0.502581,60.000 0.700063,Tank393221
Range attack (ANPC) 64,77.500 0.203015,36.250 1.194571,69.500 1.200859,51.500 0.399005,41.000 1.200427,44.000 1.200499,80.000 0.202051,60.000 0.399533,ANPC196610
Range attack (ANPC) 64,77.500 0.203015,36.250 1.194571,69.500 1.200859,51.500 0.399005,41.000 1.200427,42.000 1.200499,80.000 0.202051,60.000 0.399533,ANPC196610
Long attack,77.500 0.000964,36.250 0.992520,69.500 0.998808,48.500 0.196954,41.000 0.998376,42.000 0.998448,80.000 1.000890,60.000 0.197482,Ranger458758
Long attack,77.500 1.000977,36.250 0.991556,69.500 0.997844,48.500 0.195990,35.000 0.997412,42.000 0.997484,80.000 0.999926,60.000 0.196518,Ranger65536
Heal,77.500 0.804987,41.750 0.795567,69.500 0.801855,48.500 1.400842,35.000 0.801422,42.000 0.801495,80.000 0.803936,60.000 0.000528,Healer262147
Heal,77.500 0.804459,41.750 0.795038,69.500 0.801326,48.500 1.400314,40.500 0.800894,42.000 0.800966,80.000 0.803408,60.000 1.400908,Healer524295
Defense,77.500 0.009421,41.750 1.500288,69.500 0.006288,48.500 0.605276,40.500 0.005856,42.000 0.005928,80.000 0.008369,60.000 0.605870,Tank131073
Defense,77.500 0.003565,41.750 1.494433,69.500 0.000432,48.500 0.599420,40.500 1.501020,42.000 0.000072,80.000 0.002514,60.000 0.600015,Tank327684
Defense,77.500 0.003493,41.750 1.494360,69.500 0.000360,48.500 0.599348,40.500 1.500948,42.000 1.501029,80.000 0.002441,60.000 0.599942,Tank393221
Range attack (ANPC) 72,77.500 0.003133,41.750 1.494000,69.500 1.200859,48.500 0.598988,40.500 1.500588,42.000 1.500669,76.000 0.002081,60.000 0.599582,ANPC196610
Range attack (ANPC) 72,77.500 0.003133,41.750 1.494000,69.500 1.200859,48.500 0.598988,40.500 1.500588,42.000 1.500669,76.000 0.002081,58.000 0.599582,ANPC196610
Long attack,77.500 0.001051,38.750 1.491919,69.500 1.198778,48.500 0.596906,40.500 1.498506,42.000 1.498588,76.000 1.000890,58.000 0.597501,Ranger458758
Long attack,77.500 1.000977,38.750 1.490867,69.500 1.197726,48.500 0.595855,37.500 1.497455,42.000 1.497536,76.000 0.999838,58.000 0.596449,Ranger65536
Heal,77.500 0.405122,44.250 0.895012,69.500 0.601872,48.500 1.400842,37.500 0.901600,42.000 0.901681,76.000 0.403983,58.000 0.000594,Healer262147
Heal,77.500 0.404528,44.250 0.894418,69.500 0.601277,48.500 1.400248,43.000 0.901006,42.000 0.901087,76.000 0.403389,58.000 1.400908,Healer524295
Long attack,77.500 0.001139,41.250 0.491029,69.500 0.197888,48.500 0.996859,43.000 0.497617,42.000 0.497698,76.000 1.000890,58.000 0.997519,Ranger458758
Long attack,77.500 1.000977,41.250 0.489890,69.500 0.196749,48.500 0.995720,43.000 0.496478,39.000 0.496559,76.000 0.999750,58.000 0.996380,Ranger65536
Move backward (ANPC) 79,77.500 0.804228,41.250 0.293141,69.500 1.200859,48.500 0.798971,43.000 0.299728,39.000 0.299810,76.000 0.803001,58.000 0.799631,ANPC196610
Defense,77.500 0.511087,41.250 1.500288,69.500 0.907719,48.500 0.505830,43.000 0.006588,39.000 0.006669,76.000 0.509860,58.000 0.506490,Tank131073
Defense,77.500 0.504500,41.250 1.493701,69.500 0.901131,48.500 0.499242,43.000 1.501020,39.000 0.000082,76.000 0.503273,58.000 0.499903,Tank327684
Defense,77.500 0.504418,41.250 1.493619,69.500 0.901049,48.500 0.499161,43.000 1.500939,39.000 1.501029,76.000 0.503191,58.000 0.499821,Tank393221
Heal,77.500 0.005257,46.750 0.994458,69.500 0.401889,48.500 1.400842,43.000 1.001778,39.000 1.001868,76.000 0.004030,58.000 0.000660,Healer262147
Heal,77.500 0.004597,46.750 0.993798,69.500 0.401228,48.500 1.400182,43.000 1.001117,44.500 1.001208,76.000 0.003370,58.000 1.400908,Healer524295
Long attack,77.500 0.001227,43.750 0.990428,69.500 0.397858,48.500 1.396812,43.000 0.997747,44.500 0.997838,76.000 1.000890,58.000 1.397538,Ranger458758
Long attack,77.500 1.000977,43.750 0.989201,69.500 0.396631,48.500 1.395585,43.000 0.996521,41.500 0.996611,76.000 0.999663,58.000 1.396312,Ranger65536
Range attack (ANPC) 87,77.500 0.604346,43.750 0.592570,69.500 1.200859,48.500 0.998954,43.000 0.599889,41.500 0.599980,72.000 0.603031,58.000 0.999680,ANPC196610
Range attack (ANPC) 87,77.500 0.604346,43.750 0.592570,69.500 1.200859,48.500 0.998954,43.000 0.599889,41.500 0.599980,72.000 0.603031,56.000 0.999680,ANPC196610
Defense,77.500 0.011776,43.750 1.500288,69.500 0.608290,48.500 0.406384,43.000 0.007319,41.500 0.007410,72.000 0.010462,56.000 0.407111,Tank131073
Defense,77.500 0.004457,43.750 1.492969,69.500 0.600970,48.500 0.399065,43.000 1.501020,41.500 0.000091,72.000 0.003142,56.000 0.399791,Tank327684
Defense,77.500 0.004366,43.750 1.492878,69.500 0.600880,48.500 0.398974,43.000 1.500929,41.500 1.501029,72.000 0.003052,56.000 0.399701,Tank393221
Long attack,77.500 0.001314,40.750 1.489826,69.500 0.597828,48.500 0.395922,43.000 1.497878,41.500 1.497977,72.000 1.000890,56.000 0.396649,Ranger458758
Long attack,77.500 1.000977,40.750 1.488512,69.500 0.596514,48.500 0.394608,40.000 1.496563,41.500 1.496663,72.000 0.999575,56.000 0.395334,Ranger65536
Heal,77.500 0.606369,46.250 1.093904,69.500 0.201906,48.500 1.400842,40.000 1.101955,41.500 1.102055,72.000 0.604967,56.000 0.000726,Healer262147
Heal,77.500 0.605643,46.250 1.093178,69.500 0.201179,48.500 1.400116,45.500 1.101229,41.500 1.101329,72.000 0.604241,56.000 1.400908,Healer524295
Defense (ANPC) 95,77.500 0.404464,46.250 0.891998,69.500 1.200859,48.500 1.198937,45.500 0.900050,41.500 0.900149,72.000 0.403062,56.000 1.199729,ANPC196610
Long attack,77.500 0.001402,40.250 0.488937,69.500 0.797798,48.500 0.795875,45.500 0.496988,41.500 0.497088,72.000 1.000890,56.000 0.796668,Ranger458758
Long attack,77.500 1.000977,40.250 0.487535,69.500 0.796396,48.500 0.794473,42.500 0.495586,41.500 0.495686,72.000 0.999488,56.000 0.795266,Ranger65536
Defense,77.500 0.513442,40.250 1.500288,69.500 0.308861,48.500 0.306938,42.500 0.008051,41.500 0.008151,72.000 0.511953,56.000 0.307731,Tank131073
Defense,77.500 0.505391,40.250 1.492237,69.500 0.300810,48.500 0.298887,42.500 1.501020,41.500 0.000100,72.000 0.503901,56.000 0.299679,Tank327684
Defense,77.500 0.505291,40.250 1.492137,69.500 0.300710,48.500 0.298787,42.500 1.500920,41.500 1.501029,72.000 0.503802,56.000 0.299580,Tank393221
Heal,77.500 0.206504,45.750 1.193350,69.500 0.001923,48.500 1.400842,42.500 1.202133,41.500 1.202242,72.000 0.205014,56.000 0.000793,Healer262147
Heal,77.500 0.205711,45.750 1.192557,69.500 0.001130,48.500 1.400050,42.500 1.201341,47.000 1.201449,72.000 0.204222,56.000 1.400908,Healer524295
Move backward (ANPC) 103,77.500 0.204581,45.750 1.191427,69.500 1.200859,48.500 1.398920,42.500 1.200211,47.000 1.200319,72.000 0.203092,56.000 1.399778,ANPC196610
Long attack,77.500 0.001490,42.750 0.988335,69.500 0.997767,48.500 1.195828,42.500 0.997119,47.000 0.997227,72.000 1.000890,56.000 1.196686,Ranger458758
Long attack,77.500 1.000977,42.750 0.986846,69.500 0.996278,48.500 1.194338,39.500 0.995629,47.000 0.995738,72.000 0.999400,56.000 1.195197,Ranger65536
Defense,77.500 0.014131,42.750 1.500288,69.500 0.009432,48.500 0.207492,39.500 0.008783,47.000 0.008892,72.000 0.012554,56.000 0.208351,Tank131073
Defense,77.500 0.005348,42.750 1.491505,69.500 0.000649,48.500 0.198709,39.500 1.501020,47.000 0.000109,72.000 0.003771,56.000 0.199568,Tank327684
Defense,77.500 0.005239,42.750 1.491396,69.500 0.000540,48.500 0.198600,39.500 1.500911,47.000 1.501029,72.000 0.003662,56.000 0.199459,Tank393221
Long attack,77.500 0.001577,39.750 1.487734,69.500 1.197737,48.500 0.194938,39.500 1.497249,47.000 1.497367,72.000 1.000890,56.000 0.195797,Ranger458758
Long attack,77.500 1.000977,39.750 1.486157,69.500 1.196160,48.500 0.193361,39.500 1.495672,44.000 1.495790,72.000 0.999312,56.000 0.194220,Ranger65536
Heal,77.500 0.807616,45.250 1.292796,69.500 1.002799,48.500 1.400842,39.500 1.302311,44.000 1.302429,72.000 0.805951,56.000 0.000859,Healer262147
Heal,77.500 0.806757,45.250 1.291937,69.500 1.001940,48.500 1.399984,45.000 1.301452,44.000 1.301570,72.000 0.805093,56.000 1.400908,Healer524295
Long attack,77.500 0.001665,39.250 0.486844,69.500 0.196848,48.500 0.594891,45.000 0.496360,44.000 0.496477,72.000 1.000890,56.000 0.595816,Ranger458758
Long attack,77.500 1.000977,39.250 0.485180,69.500 0.195183,48.500 0.593226,42.000 0.494695,44.000 0.494813,72.000 0.999225,56.000 0.594151,Ranger65536
Move forward (ANPC) 116,77.500 0.805794,39.250 0.289997,69.500 1.200859,48.500 0.398043,42.000 0.299512,44.000 0.299630,72.000 0.804042,56.000 0.398968,ANPC196610
Defense,77.500 0.515797,39.250 1.500288,69.500 0.910863,48.500 0.108047,42.000 0.009515,44.000 0.009633,72.000 0.514045,56.000 0.108971,Tank131073
Defense,77.500 0.506282,39.250 1.490773,69.500 0.901347,48.500 0.098531,42.000 1.501020,44.000 0.000118,72.000 0.504530,56.000 0.099456,Tank327684
Defense,77.500 0.506164,39.250 1.490655,69.500 0.901230,48.500 0.098414,42.000 1.500902,44.000 1.501029,72.000 0.504412,56.000 0.099338,Tank393221
Heal,77.500 0.407751,44.750 1.392241,69.500 0.802816,48.500 1.400842,42.000 1.402489,44.000 1.402616,72.000 0.405998,56.000 0.000925,Healer262147
Heal,77.500 0.406826,44.750 1.391317,69.500 0.801891,48.500 1.399918,47.500 1.401564,44.000 1.401691,72.000 0.405074,56.000 1.400908,Healer524295
Long attack,77.500 0.001752,41.750 0.986243,69.500 0.396817,48.500 0.994844,47.500 0.996490,44.000 0.996617,72.000 1.000890,56.000 0.995834,Ranger458758
Long attack,77.500 1.000977,41.750 0.984491,69.500 0.395065,48.500 0.993091,47.500 0.994738,41.000 0.994865,72.000 0.999137,56.000 0.994082,Ranger65536
Defense (ANPC) 124,77.500 0.605912,41.750 0.589426,69.500 1.200859,48.500 0.598026,47.500 0.599673,41.000 0.599800,72.000 0.604072,56.000 0.599017,ANPC196610
Defense,77.500 0.016487,41.750 1.500288,69.500 0.6114