Action,Defense,Heal,Long attack,Move backward,Move forward,Range attack,Short attack,,Positive,Negative,Pleased,Displeased,Liking,Disliking,Approving,Disapproving,Hope,Fear,Joy,Distress,Love,Hate,Interest,Pride,Shame,Admiration,Reproach,Satisfaction,Frears_confirmed,Relief,Disappointment,Happy_For,Resentment,Gloating,Pity,Gratification,Remorse,Gratitude,Anger
Long attack,80.000 0.000088,100.000 0.499399,100.000 0.199970,54.000 0.399953,100.000 0.500131,100.000 0.500140,80.000 1.000890,60.000 0.400019,Ranger458758
Long attack,80.000 1.000977,100.000 0.499311,100.000 0.199882,54.000 0.399865,100.000 0.500043,94.000 0.500052,80.000 1.000802,60.000 0.399931,Ranger65536
Range attack (ANPC) 3,80.000 0.801095,100.000 0.299429,100.000 1.200859,54.000 0.199983,96.000 0.300161,94.000 0.300170,80.000 0.800920,60.000 0.200049,ANPC196610
Range attack (ANPC) 3,80.000 0.801095,100.000 0.299429,100.000 1.200859,54.000 0.199983,96.000 0.300161,90.000 0.300170,80.000 0.800920,60.000 0.200049,ANPC196610
Long attack,80.000 0.601112,100.000 0.099446,100.000 1.000876,54.000 1.400842,96.000 0.100178,85.000 0.100187,80.000 0.600937,60.000 0.000066,Healer262147
Long attack,80.000 0.601046,100.000 0.099380,95.000 1.000810,54.000 1.400776,96.000 0.100112,85.000 0.100121,80.000 0.600871,60.000 1.400908,Healer524295
Short attack,80.000 0.501666,100.000 1.500288,95.000 0.901430,54.000 1.301396,88.500 0.000732,85.000 0.000741,80.000 0.501491,60.000 1.301529,Tank131073
Short attack,80.000 0.500934,92.500 1.499556,95.000 0.900699,54.000 1.300665,88.500 1.501020,85.000 0.000009,80.000 0.500759,60.000 1.300797,Tank327684
Short attack,80.000 0.500925,92.500 1.499547,87.500 0.900689,54.000 1.300655,88.500 1.501011,85.000 1.501029,80.000 0.500750,60.000 1.300788,Tank393221
Long attack,80.000 0.000175,92.500 0.998797,81.500 0.399940,54.000 0.799906,88.500 1.000261,85.000 1.000279,80.000 1.000890,60.000 0.800038,Ranger458758
Long attack,80.000 1.000977,92.500 0.998622,81.500 0.399764,54.000 0.799730,82.500 1.000086,85.000 1.000104,80.000 1.000714,60.000 0.799862,Ranger65536
Range attack (ANPC) 11,80.000 0.601213,92.500 0.598858,81.500 1.200859,54.000 0.399966,78.500 0.600322,85.000 0.600340,80.000 0.600950,60.000 0.400098,ANPC196610
Range attack (ANPC) 11,80.000 0.601213,92.500 0.598858,81.500 1.200859,54.000 0.399966,78.500 0.600322,81.000 0.600340,80.000 0.600950,60.000 0.400098,ANPC196610
Long attack,80.000 0.201247,92.500 0.198892,81.500 0.800893,54.000 1.400842,73.500 0.200356,81.000 0.200374,80.000 0.200984,60.000 0.000132,Healer262147
Long attack,80.000 0.201115,92.500 0.198760,76.500 0.800761,54.000 1.400710,73.500 0.200223,81.000 0.200242,80.000 0.200852,60.000 1.400908,Healer524295
Short attack,80.000 0.002355,92.500 1.500288,76.500 0.602002,54.000 1.201951,73.500 0.001464,73.500 0.001482,80.000 0.002092,60.000 1.202149,Tank131073
Short attack,80.000 0.000891,92.500 1.498824,69.000 0.600538,54.000 1.200487,73.500 1.501020,73.500 0.000018,80.000 0.000628,60.000 1.200685,Tank327684
Short attack,80.000 0.000873,85.000 1.498806,69.000 0.600520,54.000 1.200469,73.500 1.501002,73.500 1.501029,80.000 0.000610,60.000 1.200667,Tank393221
Long attack,80.000 0.000263,79.000 1.498196,69.000 0.599909,54.000 1.199858,73.500 1.500392,73.500 1.500419,80.000 1.000890,60.000 1.200056,Ranger458758
Long attack,80.000 1.000977,79.000 1.497933,69.000 0.599646,54.000 1.199595,67.500 1.500129,73.500 1.500156,80.000 1.000627,60.000 1.199794,Ranger65536
Range attack (ANPC) 19,80.000 0.401331,79.000 0.898286,69.000 1.200859,54.000 0.599949,63.500 0.900482,73.500 0.900509,80.000 0.400980,60.000 0.600147,ANPC196610
Range attack (ANPC) 19,80.000 0.401331,79.000 0.898286,69.000 1.200859,54.000 0.599949,63.500 0.900482,69.500 0.900509,80.000 0.400980,60.000 0.600147,ANPC196610
Long attack,80.000 0.000350,73.000 0.497306,69.000 0.799879,54.000 0.198969,63.500 0.499502,69.500 0.499529,80.000 1.000890,60.000 0.199167,Ranger458758
Long attack,80.000 1.000977,73.000 0.496956,69.000 0.799529,54.000 0.198618,57.500 0.499152,69.500 0.499179,80.000 1.000539,60.000 0.198816,Ranger65536
Heal,80.000 0.802359,73.000 0.298337,74.500 0.600910,54.000 1.400842,57.500 0.300533,69.500 0.300560,80.000 0.801921,60.000 0.000198,Healer262147
Heal,80.000 0.802161,73.000 0.298139,74.500 0.600712,54.000 1.400644,63.000 0.300335,69.500 0.300362,80.000 0.801723,60.000 1.400908,Healer524295
Short attack,80.000 0.504021,73.000 1.500288,74.500 0.302573,54.000 1.102505,63.000 0.002196,62.000 0.002223,80.000 0.503583,60.000 1.102769,Tank131073
Short attack,80.000 0.501826,73.000 1.498092,67.000 0.300377,54.000 1.100309,63.000 1.501020,62.000 0.000027,80.000 0.501387,60.000 1.100573,Tank327684
Short attack,80.000 0.501798,65.500 1.498065,67.000 0.300350,54.000 1.100282,63.000 1.500993,62.000 1.501029,80.000 0.501360,60.000 1.100546,Tank393221
Move backward (ANPC) 27,80.000 0.201449,65.500 1.197715,67.000 1.200859,54.000 0.799932,63.000 1.200643,62.000 1.200679,80.000 0.201010,60.000 0.800196,ANPC196610
Range attack,80.000 0.000438,65.500 0.996705,64.500 0.999849,54.000 0.598922,63.000 0.999633,62.000 0.999669,80.000 1.000890,60.000 0.599186,Ranger458758
Range attack,77.500 0.000438,65.500 0.996705,64.500 0.999849,54.000 0.598922,63.000 0.999633,62.000 0.999669,80.000 1.000890,60.000 0.599186,Ranger458758
Range attack,77.500 0.000438,65.500 0.996705,64.500 0.999849,52.750 0.598922,63.000 0.999633,62.000 0.999669,80.000 1.000890,60.000 0.599186,Ranger458758
Long attack,77.500 1.000977,65.500 0.996267,64.500 0.999411,52.750 0.598483,63.000 0.999195,56.000 0.999231,80.000 1.000451,60.000 0.598748,Ranger65536
Heal,77.500 0.402494,65.500 0.397783,70.000 0.400927,52.750 1.400842,63.000 0.400711,56.000 0.400747,80.000 0.401968,60.000 0.000264,Healer262147
Heal,77.500 0.402230,65.500 0.397519,70.000 0.400663,52.750 1.400578,63.000 0.400447,61.500 0.400483,80.000 0.401704,60.000 1.400908,Healer524295
Short attack,77.500 0.004710,65.500 1.500288,70.000 0.003144,52.750 1.003059,55.500 0.002928,61.500 0.002964,80.000 0.004185,60.000 1.003389,Tank131073
Short attack,77.500 0.001783,58.000 1.497360,70.000 0.000216,52.750 1.000131,55.500 1.501020,61.500 0.000036,80.000 0.001257,60.000 1.000461,Tank327684
