Action,Defense,Heal,Long attack,Move backward,Move forward,Range attack,Short attack,,Positive,Negative,Pleased,Displeased,Liking,Disliking,Approving,Disapproving,Hope,Fear,Joy,Distress,Love,Hate,Interest,Pride,Shame,Admiration,Reproach,Satisfaction,Frears_confirmed,Relief,Disappointment,Happy_For,Resentment,Gloating,Pity,Gratification,Remorse,Gratitude,Anger
Long attack,80.000 0.000088,100.000 0.499399,100.000 0.199970,54.000 0.399953,100.000 0.500131,100.000 0.500140,80.000 1.000890,60.000 0.400019,Ranger458758
Long attack,80.000 1.000977,100.000 0.499311,100.000 0.199882,54.000 0.399865,100.000 0.500043,94.000 0.500052,80.000 1.000802,60.000 0.399931,Ranger65536
Short attack (ANPC) 3,80.000 0.801095,100.000 0.299429,100.000 1.200859,54.000 0.199983,92.000 0.300161,94.000 0.300170,80.000 0.800920,60.000 0.200049,ANPC196610
Long attack,80.000 0.601112,100.000 0.099446,100.000 1.000876,54.000 1.400842,92.000 0.100178,89.000 0.100187,80.000 0.600937,60.000 0.000066,Healer262147
Long attack,80.000 0.601046,100.000 0.099380,95.000 1.000810,54.000 1.400776,92.000 0.100112,89.000 0.100121,80.000 0.600871,60.000 1.400908,Healer524295
Short attack,80.000 0.501666,100.000 1.500288,95.000 0.901430,54.000 1.301396,84.500 0.000732,89.000 0.000741,80.000 0.501491,60.000 1.301529,Tank131073
