Action,Defense,Heal,Long attack,Move backward,Move forward,Range attack,Short attack,,Positive,Negative,Pleased,Displeased,Liking,Disliking,Approving,Disapproving,Hope,Fear,Joy,Distress,Love,Hate,Interest,Pride,Shame,Admiration,Reproach,Satisfaction,Frears_confirmed,Relief,Disappointment,Happy_For,Resentment,Gloating,Pity,Gratification,Remorse,Gratitude,Anger
Long attack,0.581,0.248,0.318,0.774,0.100,0.561,0.174,Ranger458758
Long attack,0.581,0.248,0.318,0.774,0.100,0.561,0.174,Ranger524295
Long attack,0.581,0.248,0.318,0.774,0.100,0.561,0.174,Ranger65536
Defense (ANPC),0.581,0.248,0.318,0.774,0.100,0.561,0.174,ANPC196610
Long attack,0.581,0.248,0.318,0.774,0.100,0.561,0.174,Healer262147
Short attack,0.581,0.248,0.318,0.774,0.100,0.561,0.174,Tank131073
Short attack,0.581,0.248,0.318,0.774,0.100,0.561,0.174,Tank327684
Short attack,0.581,0.248,0.318,0.774,0.100,0.561,0.174,Tank393221
Long attack,0.581,0.248,0.318,0.774,0.100,0.561,0.174,Ranger458758
Long attack,0.581,0.248,0.318,0.774,0.100,0.561,0.174,Ranger524295
Long attack,0.581,0.248,0.318,0.774,0.100,0.561,0.174,Ranger65536
Move backward (ANPC),0.581,0.248,0.318,0.774,0.100,0.561,0.174,ANPC196610
Long attack,0.581,0.248,0.318,0.774,0.100,0.561,0.174,Healer262147
Short attack,0.581,0.248,0.318,0.774,0.100,0.561,0.174,Tank131073
Short attack,0.581,0.248,0.318,0.774,0.100,0.561,0.174,Tank327684
Short attack,0.581,0.248,0.318,0.774,0.100,0.561,0.174,Tank393221
Long attack,0.581,0.248,0.318,0.774,0.100,0.561,0.174,Ranger458758
Long attack,0.581,0.248,0.318,0.774,0.100,0.561,0.174,Ranger524295
Long attack,0.581,0.248,0.318,0.774,0.100,0.561,0.174,Ranger65536
Range attack (ANPC),0.581,0.248,0.318,0.774,0.100,0.561,0.174,ANPC196610
Range attack (ANPC),0.581,0.248,0.318,0.774,0.100,0.561,0.174,ANPC196610
Long attack,0.581,0.248,0.318,0.774,0.100,0.561,0.174,Ranger458758
Long attack,0.581,0.248,0.318,0.774,0.100,0.561,0.174,Ranger524295
Long attack,0.581,0.248,0.318,0.774,0.100,0.561,0.174,Ranger65536
Heal,0.581,0.248,0.318,0.774,0.100,0.561,0.174,Healer262147
Short attack,0.581,0.248,0.318,0.774,0.100,0.561,0.174,Tank131073
Short attack,0.581,0.248,0.318,0.774,0.100,0.561,0.174,Tank327684
Short attack,0.581,0.248,0.318,0.774,0.100,0.561,0.174,Tank393221
Heal (ANPC),0.581,0.292,0.318,0.774,0.100,0.561,0.174,ANPC196610
Long attack,0.581,0.292,0.318,0.774,0.100,0.561,0.174,Ranger458758
Long attack,0.581,0.292,0.318,0.774,0.100,0.561,0.174,Ranger524295
Long attack,0.581,0.292,0.318,0.774,0.100,0.561,0.174,Ranger65536
Heal,0.581,0.292,0.318,0.774,0.100,0.561,0.174,Healer262147
Short attack,0.581,0.292,0.318,0.774,0.100,0.561,0.174,Tank131073
Short attack,0.581,0.292,0.318,0.774,0.100,0.561,0.174,Tank327684
Short attack,0.581,0.292,0.318,0.774,0.100,0.561,0.174,Tank393221
Move backward (ANPC),0.581,0.292,0.318,0.774,0.100,0.561,0.174,ANPC196610
Long attack,0.581,0.292,0.318,0.774,0.100,0.561,0.174,Ranger458758
Long attack,0.581,0.292,0.318,0.774,0.100,0.561,0.174,Ranger524295
Long attack,0.581,0.292,0.318,0.774,0.100,0.561,0.174,Ranger65536
Heal,0.581,0.292,0.318,0.774,0.100,0.561,0.174,Healer262147
Long attack,0.581,0.292,0.318,0.774,0.100,0.561,0.174,Ranger458758
Long attack,0.581,0.292,0.318,0.774,0.100,0.561,0.174,Ranger524295
Long attack,0.581,0.292,0.318,0.774,0.100,0.561,0.174,Ranger65536
Range attack (ANPC),0.581,0.292,0.318,0.774,0.100,0.561,0.174,ANPC196610
Range attack (ANPC),0.581,0.292,0.318,0.774,0.100,0.561,0.174,ANPC196610
Defense,0.581,0.292,0.318,0.774,0.100,0.561,0.174,Tank131073
Short attack,0.581,0.292,0.318,0.774,0.100,0.561,0.174,Tank327684
Short attack,0.581,0.292,0.318,0.774,0.100,0.561,0.174,Tank393221
Long attack,0.581,0.292,0.318,0.774,0.100,0.561,0.174,Ranger458758
Long attack,0.581,0.292,0.318,0.774,0.100,0.561,0.174,Ranger524295
Long attack,0.581,0.292,0.318,0.774,0.100,0.561,0.174,Ranger65536
Heal,0.581,0.292,0.318,0.774,0.100,0.561,0.174,Healer262147
Range attack (ANPC),0.581,0.292,0.318,0.774,0.100,0.561,0.174,ANPC196610
Range attack (ANPC),0.581,0.292,0.318,0.774,0.100,0.561,0.174,ANPC196610
Defense,0.581,0.292,0.318,0.774,0.100,0.561,0.174,Tank131073
Short attack,0.581,0.292,0.318,0.774,0.100,0.561,0.174,Tank327684
Short attack,0.581,0.292,0.318,0.774,0.100,0.561,0.174,Tank393221
Long attack,0.581,0.292,0.318,0.774,0.100,0.561,0.174,Ranger458758
Long attack,0.581,0.292,0.318,0.774,0.100,0.561,0.174,Ranger524295
Long attack,0.581,0.292,0.318,0.774,0.100,0.561,0.174,Ranger65536
Move backward (ANPC),0.581,0.292,0.318,0.774,0.100,0.561,0.174,ANPC196610
Heal,0.581,0.292,0.318,0.774,0.100,0.561,0.174,Healer262147
Long attack,0.581,0.292,0.318,0.774,0.100,0.561,0.174,Ranger458758
Long attack,0.581,0.292,0.318,0.774,0.100,0.561,0.174,Ranger524295
Long attack,0.581,0.292,0.318,0.774,0.100,0.561,0.174,Ranger65536
Defense,0.581,0.292,0.318,0.774,0.100,0.561,0.174,Tank131073
Short attack,0.581,0.292,0.318,0.774,0.100,0.561,0.174,Tank327684
Short attack,0.581,0.292,0.318,0.774,0.100,0.561,0.174,Tank393221
Range attack (ANPC),0.581,0.292,0.318,0.774,0.100,0.561,0.174,ANPC196610
Range attack (ANPC),0.581,0.292,0.318,0.774,0.100,0.561,0.174,ANPC196610
Long attack,0.581,0.292,0.318,0.774,0.100,0.561,0.174,Ranger458758
Long attack,0.581,0.292,0.318,0.774,0.100,0.561,0.174,Ranger524295
Long attack,0.581,0.292,0.318,0.774,0.100,0.561,0.174,Ranger65536
Heal,0.581,0.292,0.318,0.774,0.100,0.561,0.174,Healer262147
Defense,0.581,0.292,0.318,0.774,0.100,0.561,0.174,Tank131073
Short attack,0.581,0.292,0.318,0.774,0.100,0.561,0.174,Tank327684
Short attack,0.581,0.292,0.318,0.774,0.100,0.561,0.174,Tank393221
Range attack (ANPC),0.581,0.292,0.318,0.774,0.100,0.561,0.174,ANPC196610
Range attack (ANPC),0.581,0.292,0.318,0.774,0.100,0.561,0.174,ANPC196610
Long attack,0.581,0.292,0.318,0.774,0.100,0.561,0.174,Ranger458758
Long attack,0.581,0.292,0.318,0.774,0.100,0.561,0.174,Ranger524295
Long attack,0.581,0.292,0.318,0.774,0.100,0.561,0.174,Ranger65536
Heal,0.581,0.292,0.318,0.774,0.100,0.561,0.174,Healer262147
Long attack,0.581,0.292,0.318,0.774,0.100,0.561,0.174,Ranger458758
Long attack,0.581,0.292,0.318,0.774,0.100,0.561,0.174,Ranger524295
Long attack,0.581,0.292,0.318,0.774,0.100,0.561,0.174,Ranger65536
Heal (ANPC),0.581,0.292,0.318,0.774,0.100,0.561,0.174,ANPC196610
Defense,0.581,0.292,0.318,0.774,0.100,0.561,0.174,Tank131073
Short attack,0.581,0.292,0.318,0.774,0.100,0.561,0.174,Tank327684
Short attack,0.581,0.292,0.318,0.774,0.100,0.561,0.174,Tank393221
Heal,0.581,0.292,0.318,0.774,0.100,0.561,0.174,Healer262147
Long attack,0.581,0.292,0.318,0.774,0.100,0.561,0.174,Ranger458758
Long attack,0.581,0.292,0.318,0.774,0.100,0.561,0.174,Ranger524295
Long attack,0.581,0.292,0.318,0.774,0.100,0.561,0.174,Ranger65536
Range attack (ANPC),0.581,0.292,0.318,0.774,0.100,0.561,0.174,ANPC196610
Range attack (ANPC),0.581,0.292,0.318,0.774,0.100,0.561,0.174,ANPC196610
Defense,0.581,0.292,0.318,0.774,0.100,0.561,0.174,Tank131073
Short attack,0.581,0.292,0.318,0.774,0.100,0.561,0.174,Tank327684
Short attack,0.581,0.292,0.318,0.774,0.100,0.561,0.174,Tank393221
Long attack,0.581,0.292,0.318,0.774,0.100,0.561,0.174,Ranger458758
Long attack,0.581,0.292,0.318,0.774,0.100,0.561,0.174,Ranger524295
Long attack,0.581,0.292,0.318,0.774,0.100,0.561,0.174,Ranger65536
Heal,0.581,0.292,0.318,0.774,0.100,0.561,0.174,Healer262147
Defense (ANPC),0.581,0.292,0.318,0.774,0.100,0.561,0.174,ANPC196610
Long attack,0.581,0.292,0.318,0.774,0.100,0.561,0.174,Ranger458758
Long attack,0.581,0.292,0.318,0.774,0.100,0.561,0.174,Ranger524295
Long attack,0.581,0.292,0.318,0.774,0.100,0.561,0.174,Ranger65536
Defense,0.581,0.292,0.318,0.774,0.100,0.561,0.174,Tank131073
Short attack,0.581,0.292,0.318,0.774,0.100,0.561,0.174,Tank327684
Short attack,0.581,0.292,0.318,0.774,0.100,0.561,0.174,Tank393221
Heal,0.581,0.292,0.318,0.774,0.100,0.561,0.174,Healer262147
Long attack (ANPC),0.581,0.292,0.290,0.774,0.100,0.561,0.174,ANPC196610
Long attack,0.581,0.292,0.290,0.774,0.100,0.561,0.174,Ranger458758
Long attack,0.581,0.292,0.290,0.774,0.100,0.561,0.174,Ranger524295
Long attack,0.581,0.292,0.290,0.774,0.100,0.561,0.174,Ranger65536
Defense,0.581,0.292,0.290,0.774,0.100,0.561,0.174,Tank131073
Short attack,0.581,0.292,0.290,0.774,0.100,0.561,0.174,Tank327684
Short attack,0.581,0.292,0.290,0.774,0.100,0.561,0.174,Tank393221
Heal (ANPC),0.581,0.292,0.290,0.774,0.100,0.561,0.174,ANPC196610
Long attack,0.581,0.292,0.290,0.774,0.100,0.561,0.174,Ranger458758
Long attack,0.581,0.292,0.290,0.774,0.100,0.561,0.174,Ranger524295
Long attack,0.581,0.292,0.290,0.774,0.100,0.561,0.174,Ranger65536
Heal,0.581,0.292,0.290,0.774,0.100,0.561,0.174,Healer262147
Long attack,0.581,0.292,0.290,0.774,0.100,0.561,0.174,Ranger458758
Long attack,0.581,0.292,0.290,0.774,0.100,0.561,0.174,Ranger524295
Long attack,0.581,0.292,0.290,0.774,0.100,0.561,0.174,Ranger65536
Range attack (ANPC),0.581,0.292,0.290,0.774,0.100,0.561,0.174,ANPC196610
Range attack (ANPC),0.581,0.292,0.290,0.774,0.100,0.561,0.174,ANPC196610
Defense,0.581,0.292,0.290,0.774,0.100,0.561,0.174,Tank131073
Short attack,0.581,0.292,0.290,0.774,0.100,0.561,0.174,Tank327684
Short attack,0.581,0.292,0.290,0.774,0.100,0.561,0.174,Tank393221
Heal,0.581,0.292,0.290,0.774,0.100,0.561,0.174,Healer262147
Long attack,0.581,0.292,0.290,0.774,0.100,0.561,0.174,Ranger458758
Long attack,0.581,0.292,0.290,0.774,0.100,0.561,0.174,Ranger524295
Long attack,0.581,0.292,0.290,0.774,0.100,0.561,0.174,Ranger65536
Defense (ANPC),0.581,0.292,0.290,0.774,0.100,0.561,0.174,ANPC196610
Defense,0.581,0.292,0.290,0.774,0.100,0.561,0.174,Tank131073
Heal,0.581,0.292,0.290,0.774,0.100,0.561,0.174,Healer262147
Short attack,0.581,0.292,0.290,0.774,0.100,0.561,0.174,Tank327684
Short attack,0.581,0.292,0.290,0.774,0.100,0.561,0.174,Tank393221
Long attack,0.581,0.292,0.290,0.774,0.100,0.561,0.174,Ranger458758
Long attack,0.581,0.292,0.290,0.774,0.100,0.561,0.174,Ranger524295
Long attack,0.581,0.292,0.290,0.774,0.100,0.561,0.174,Ranger65536
Long attack (ANPC),0.581,0.292,0.261,0.774,0.100,0.561,0.174,ANPC196610
Long attack,0.581,0.292,0.261,0.774,0.100,0.561,0.174,Ranger458758
Long attack,0.581,0.292,0.261,0.774,0.100,0.561,0.174,Ranger524295
Long attack,0.581,0.292,0.261,0.774,0.100,0.561,0.174,Ranger65536
Heal,0.581,0.292,0.261,0.774,0.100,0.561,0.174,Healer262147
Defense,0.581,0.292,0.261,0.774,0.100,0.561,0.174,Tank131073
Short attack,0.581,0.292,0.261,0.774,0.100,0.561,0.174,Tank327684
Short attack,0.581,0.292,0.261,0.774,0.100,0.561,0.174,Tank393221
Range attack (ANPC),0.581,0.292,0.261,0.774,0.100,0.561,0.174,ANPC196610
Range attack (ANPC),0.581,0.292,0.261,0.774,0.100,0.561,0.174,ANPC196610
Long attack,0.581,0.292,0.261,0.774,0.100,0.561,0.174,Ranger458758
Long attack,0.581,0.292,0.261,0.774,0.100,0.561,0.174,Ranger524295
Long attack,0.581,0.292,0.261,0.774,0.100,0.561,0.174,Ranger65536
Long attack,0.581,0.292,0.261,0.774,0.100,0.561,0.174,Healer262147
Short attack,0.581,0.292,0.261,0.774,0.100,0.561,0.174,Tank327684
Short attack,0.581,0.292,0.261,0.774,0.100,0.561,0.174,Tank393221
Short attack,0.581,0.292,0.261,0.774,0.100,0.561,0.174,Tank393221
Defense (ANPC),0.581,0.292,0.261,0.774,0.100,0.561,0.174,ANPC196610
Long attack,0.581,0.292,0.261,0.774,0.100,0.561,0.174,Ranger458758
Long attack,0.581,0.292,0.261,0.774,0.100,0.561,0.174,Ranger524295
Long attack,0.581,0.292,0.261,0.774,0.100,0.561,0.174,Ranger65536
Long attack,0.581,0.292,0.261,0.774,0.100,0.561,0.174,Ranger458758
Long attack,0.581,0.292,0.261,0.774,0.100,0.561,0.174,Ranger524295
Long attack,0.581,0.292,0.261,0.774,0.100,0.561,0.174,Ranger65536
Long attack,0.581,0.292,0.261,0.774,0.100,0.561,0.174,Healer262147
Range attack (ANPC),0.581,0.292,0.261,0.774,0.100,0.561,0.174,ANPC196610
Range attack (ANPC),0.581,0.292,0.261,0.774,0.100,0.561,0.174,ANPC196610
Short attack,0.581,0.292,0.261,0.774,0.100,0.561,0.174,Tank327684
Short attack,0.581,0.292,0.261,0.774,0.100,0.561,0.174,Tank393221
Long attack,0.581,0.292,0.261,0.774,0.100,0.561,0.174,Ranger458758
Long attack,0.581,0.292,0.261,0.774,0.100,0.561,0.174,Ranger524295
Long attack,0.581,0.292,0.261,0.774,0.100,0.561,0.174,Ranger65536
Range attack (ANPC),0.581,0.292,0.261,0.774,0.100,0.561,0.174,ANPC196610
Range attack (ANPC),0.581,0.292,0.261,0.774,0.100,0.561,0.174,ANPC196610
Heal,0.581,0.292,0.261,0.774,0.100,0.561,0.174,Healer262147
Short attack,0.581,0.292,0.261,0.774,0.100,0.561,0.174,Tank327684
Short attack,0.581,0.292,0.261,0.774,0.100,0.561,0.174,Tank393221
Long attack,0.581,0.292,0.261,0.774,0.100,0.561,0.174,Ranger458758
Long attack,0.581,0.292,0.261,0.774,0.100,0.561,0.174,Ranger524295
Long attack,0.581,0.292,0.261,0.774,0.100,0.561,0.174,Ranger65536
Range attack (ANPC),0.581,0.292,0.261,0.774,0.100,0.561,0.174,ANPC196610
Range attack (ANPC),0.581,0.292,0.261,0.774,0.100,0.561,0.174,ANPC196610
Heal,0.581,0.292,0.261,0.774,0.100,0.561,0.174,Healer262147
Long attack,0.581,0.292,0.261,0.774,0.100,0.561,0.174,Ranger458758
Long attack,0.581,0.292,0.261,0.774,0.100,0.561,0.174,Ranger524295
Long attack,0.581,0.292,0.261,0.774,0.100,0.561,0.174,Ranger65536
Short attack,0.581,0.292,0.261,0.774,0.100,0.561,0.174,Tank327684
Short attack,0.581,0.292,0.261,0.774,0.100,0.561,0.174,Tank393221
Defense (ANPC),0.581,0.292,0.261,0.774,0.100,0.561,0.174,ANPC196610
Long attack,0.581,0.292,0.261,0.774,0.100,0.561,0.174,Ranger458758
Long attack,0.581,0.292,0.261,0.774,0.100,0.561,0.174,Ranger524295
Long attack,0.581,0.292,0.261,0.774,0.100,0.561,0.174,Ranger65536
Heal,0.581,0.292,0.261,0.774,0.100,0.561,0.174,Healer262147
Short attack,0.581,0.292,0.261,0.774,0.100,0.561,0.174,Tank327684
Short attack,0.581,0.292,0.261,0.774,0.100,0.561,0.174,Tank393221
Heal (ANPC),0.581,0.292,0.261,0.774,0.100,0.561,0.174,ANPC196610
Long attack,0.581,0.292,0.261,0.774,0.100,0.561,0.174,Ranger458758
Long attack,0.581,0.292,0.261,0.774,0.100,0.561,0.174,Ranger524295
Long attack,0.581,0.292,0.261,0.774,0.100,0.561,0.174,Ranger65536
Heal,0.581,0.292,0.261,0.774,0.100,0.561,0.174,Healer262147
Long attack,0.581,0.292,0.261,0.774,0.100,0.561,0.174,Ranger458758
Long attack,0.581,0.292,0.261,0.774,0.100,0.561,0.174,Ranger524295
Long attack,0.581,0.292,0.261,0.774,0.100,0.561,0.174,Ranger65536
Move forward (ANPC),0.581,0.292,0.261,0.774,0.100,0.561,0.174,ANPC196610
Short attack,0.581,0.292,0.261,0.774,0.100,0.561,0.174,Tank327684
Short attack,0.581,0.292,0.261,0.774,0.100,0.561,0.174,Tank393221
Long attack,0.581,0.292,0.261,0.774,0.100,0.561,0.174,Ranger458758
Long attack,0.581,0.292,0.261,0.774,0.100,0.561,0.174,Ranger524295
Long attack,0.581,0.292,0.261,0.774,0.100,0.561,0.174,Ranger65536
Heal,0.581,0.292,0.261,0.774,0.100,0.561,0.174,Healer262147
Range attack (ANPC),0.581,0.292,0.261,0.774,0.100,0.561,0.174,ANPC196610
Range attack (ANPC),0.581,0.292,0.261,0.774,0.100,0.561,0.174,ANPC196610
Short attack,0.581,0.292,0.261,0.774,0.100,0.561,0.174,Tank327684
Short attack,0.581,0.292,0.261,0.774,0.100,0.561,0.174,Tank393221
Long attack,0.581,0.292,0.261,0.774,0.100,0.561,0.174,Ranger458758
Long attack,0.581,0.292,0.261,0.774,0.100,0.561,0.174,Ranger524295
Long attack,0.581,0.292,0.261,0.774,0.100,0.561,0.174,Ranger65536
Heal,0.581,0.292,0.261,0.774,0.100,0.561,0.174,Healer262147
Long attack (ANPC),0.581,0.292,0.232,0.774,0.100,0.561,0.174,ANPC196610
Long attack,0.581,0.292,0.232,0.774,0.100,0.561,0.174,Ranger458758
Long attack,0.581,0.292,0.232,0.774,0.100,0.561,0.174,Ranger524295
Long attack,0.581,0.292,0.232,0.774,0.100,0.561,0.174,Ranger65536
Short attack,0.581,0.292,0.232,0.774,0.100,0.561,0.174,Tank327684
Short attack,0.581,0.292,0.232,0.774,0.100,0.561,0.174,Tank393221
Move forward (ANPC),0.581,0.292,0.232,0.774,0.100,0.561,0.174,ANPC196610
Long attack,0.581,0.292,0.232,0.774,0.100,0.561,0.174,Healer262147
Long attack,0.581,0.292,0.232,0.774,0.100,0.561,0.174,Ranger458758
Long attack,0.581,0.292,0.232,0.774,0.100,0.561,0.174,Ranger524295
Short attack,0.581,0.292,0.232,0.774,0.100,0.561,0.174,Tank327684
Short attack,0.581,0.292,0.232,0.774,0.100,0.561,0.174,Tank393221
Defense (ANPC),0.581,0.292,0.232,0.774,0.100,0.561,0.174,ANPC196610
Long attack,0.581,0.292,0.232,0.774,0.100,0.561,0.174,Ranger458758
Long attack,0.581,0.292,0.232,0.774,0.100,0.561,0.174,Ranger524295
Long attack,0.581,0.292,0.232,0.774,0.100,0.561,0.174,Healer262147
Long attack,0.581,0.292,0.232,0.774,0.100,0.561,0.174,Ranger458758
Long attack,0.581,0.292,0.232,0.774,0.100,0.561,0.174,Ranger524295
Heal (ANPC),0.581,0.292,0.232,0.774,0.100,0.561,0.174,ANPC196610
Short attack,0.581,0.292,0.232,0.774,0.100,0.561,0.174,Tank327684
Short attack,0.581,0.292,0.232,0.774,0.100,0.561,0.174,Tank393221
Heal,0.581,0.292,0.232,0.774,0.100,0.561,0.174,Healer262147
Long attack,0.581,0.292,0.232,0.774,0.100,0.561,0.174,Ranger458758
Long attack,0.581,0.292,0.232,0.774,0.100,0.561,0.174,Ranger524295
Range attack (ANPC),0.581,0.292,0.232,0.774,0.100,0.561,0.174,ANPC196610
Range attack (ANPC),0.581,0.292,0.232,0.774,0.100,0.561,0.174,ANPC196610
Short attack,0.581,0.292,0.232,0.774,0.100,0.561,0.174,Tank327684
Short attack,0.581,0.292,0.232,0.774,0.100,0.561,0.174,Tank393221
Long attack,0.581,0.292,0.232,0.774,0.100,0.561,0.174,Ranger458758
Long attack,0.581,0.292,0.232,0.774,0.100,0.561,0.174,Ranger524295
Move backward (ANPC),0.581,0.292,0.232,0.774,0.100,0.561,0.174,ANPC196610
Long attack,0.581,0.292,0.232,0.774,0.100,0.561,0.174,Ranger458758
Long attack,0.581,0.292,0.232,0.774,0.100,0.561,0.174,Ranger524295
Defense (ANPC),0.581,0.292,0.232,0.774,0.100,0.561,0.174,ANPC196610
Long attack,0.581,0.292,0.232,0.774,0.100,0.561,0.174,Ranger458758
Long attack,0.581,0.292,0.232,0.774,0.100,0.561,0.174,Ranger524295
Move backward (ANPC),0.581,0.292,0.232,0.774,0.100,0.561,0.174,ANPC196610
Long attack,0.581,0.292,0.232,0.774,0.100,0.561,0.174,Ranger458758
Long attack,0.581,0.292,0.232,0.774,0.100,0.561,0.174,Ranger524295
Long attack,0.581,0.292,0.232,0.774,0.100,0.561,0.174,Ranger458758
Long attack,0.581,0.292,0.232,0.774,0.100,0.561,0.174,Ranger524295
Long attack (ANPC),0.581,0.292,0.204,0.774,0.100,0.561,0.174,ANPC196610
Long attack,0.581,0.292,0.204,0.774,0.100,0.561,0.174,Ranger458758
Long attack,0.581,0.292,0.204,0.774,0.100,0.561,0.174,Ranger524295
Defense (ANPC),0.581,0.292,0.204,0.774,0.100,0.561,0.174,ANPC196610
Long attack,0.581,0.292,0.204,0.774,0.100,0.561,0.174,Ranger458758
Long attack,0.581,0.292,0.204,0.774,0.100,0.561,0.174,Ranger524295
Heal (ANPC),0.581,0.292,0.204,0.774,0.100,0.561,0.174,ANPC196610
Long attack,0.581,0.292,0.204,0.774,0.100,0.561,0.174,Ranger458758
Long attack,0.581,0.292,0.204,0.774,0.100,0.561,0.174,Ranger524295
Defense (ANPC),0.581,0.292,0.204,0.774,0.100,0.561,0.174,ANPC196610
Long attack,0.581,0.292,0.204,0.774,0.100,0.561,0.174,Ranger458758
Long attack,0.581,0.292,0.204,0.774,0.100,0.561,0.174,Ranger524295
Long attack (ANPC),0.581,0.292,0.175,0.774,0.100,0.561,0.174,ANPC196610
Long attack,0.581,0.292,0.175,0.774,0.100,0.561,0.174,Ranger458758
Long attack,0.581,0.292,0.175,0.774,0.100,0.561,0.174,Ranger524295
Long attack,0.581,0.292,0.175,0.774,0.100,0.561,0.174,Ranger458758
Long attack,0.581,0.292,0.175,0.774,0.100,0.561,0.174,Ranger524295
Defense (ANPC),0.581,0.292,0.175,0.774,0.100,0.561,0.174,ANPC196610
Long attack,0.581,0.292,0.175,0.774,0.100,0.561,0.174,Ranger458758
Long attack,0.581,0.292,0.175,0.774,0.100,0.561,0.174,Ranger524295
Range attack (ANPC),0.581,0.292,0.175,0.774,0.100,0.561,0.174,ANPC196610
Range attack (ANPC),0.581,0.292,0.175,0.774,0.100,0.561,0.174,ANPC196610
Long attack,0.581,0.292,0.175,0.774,0.100,0.561,0.174,Ranger458758
Long attack,0.581,0.292,0.175,0.774,0.100,0.561,0.174,Ranger524295
Defense (ANPC),0.581,0.292,0.175,0.774,0.100,0.561,0.174,ANPC196610
Long attack,0.581,0.292,0.175,0.774,0.100,0.561,0.174,Ranger458758
Long attack,0.581,0.292,0.175,0.774,0.100,0.561,0.174,Ranger524295
Range attack (ANPC),0.581,0.292,0.175,0.774,0.100,0.561,0.174,ANPC196610
Range attack (ANPC),0.581,0.292,0.175,0.774,0.100,0.561,0.174,ANPC196610
Long attack,0.581,0.292,0.175,0.774,0.100,0.561,0.174,Ranger458758
Long attack,0.581,0.292,0.175,0.774,0.100,0.561,0.174,Ranger524295
Range attack (ANPC),0.581,0.292,0.175,0.774,0.100,0.561,0.174,ANPC196610
Range attack (ANPC),0.581,0.292,0.175,0.774,0.100,0.561,0.174,ANPC196610
Long attack,0.581,0.292,0.175,0.774,0.100,0.561,0.174,Ranger458758
Long attack,0.581,0.292,0.175,0.774,0.100,0.561,0.174,Ranger524295
Long attack,0.581,0.292,0.175,0.774,0.100,0.561,0.174,Ranger458758
Long attack,0.581,0.292,0.175,0.774,0.100,0.561,0.174,Ranger524295
Defense (ANPC),0.581,0.292,0.175,0.774,0.100,0.561,0.174,ANPC196610
Long attack,0.581,0.292,0.175,0.774,0.100,0.561,0.174,Ranger458758
Long attack,0.581,0.292,0.175,0.774,0.100,0.561,0.174,Ranger524295
Defense (ANPC),0.581,0.292,0.175,0.774,0.100,0.561,0.174,ANPC196610
Long attack,0.581,0.292,0.175,0.774,0.100,0.561,0.174,Ranger458758
Long attack,0.581,0.292,0.175,0.774,0.100,0.561,0.174,Ranger524295
Range attack (ANPC),0.581,0.292,0.175,0.774,0.100,0.561,0.174,ANPC196610
Range attack (ANPC),0.581,0.292,0.175,0.774,0.100,0.561,0.174,ANPC196610
Long attack,0.581,0.292,0.175,0.774,0.100,0.561,0.174,Ranger458758
Long attack,0.581,0.292,0.175,0.774,0.100,0.561,0.174,Ranger524295
Heal (ANPC),0.581,0.292,0.175,0.774,0.100,0.561,0.174,ANPC196610
Long attack,0.581,0.292,0.175,0.774,0.100,0.561,0.174,Ranger458758
Long attack,0.581,0.292,0.175,0.774,0.100,0.561,0.174,Ranger524295
Defense (ANPC),0.581,0.292,0.175,0.774,0.100,0.561,0.174,ANPC196610
Long attack,0.581,0.292,0.175,0.774,0.100,0.561,0.174,Ranger458758
Long attack,0.581,0.292,0.175,0.774,0.100,0.561,0.174,Ranger524295
Long attack,0.581,0.292,0.175,0.774,0.100,0.561,0.174,Ranger458758
Long attack,0.581,0.292,0.175,0.774,0.100,0.561,0.174,Ranger524295
Defense (ANPC),0.581,0.292,0.175,0.774,0.100,0.561,0.174,ANPC196610
Long attack,0.581,0.292,0.175,0.774,0.100,0.561,0.174,Ranger458758
Long attack,0.581,0.292,0.175,0.774,0.100,0.561,0.174,Ranger524295
Defense (ANPC),0.581,0.292,0.175,0.774,0.100,0.561,0.174,ANPC196610
Long attack,0.581,0.292,0.175,0.774,0.100,0.561,0.174,Ranger458758
Long attack,0.581,0.292,0.175,0.774,0.100,0.561,0.174,Ranger524295
Range attack (ANPC),0.581,0.292,0.175,0.774,0.100,0.561,0.174,ANPC196610
Range attack (ANPC),0.581,0.292,0.175,0.774,0.100,0.561,0.174,ANPC196610
Long attack,0.581,0.292,0.175,0.774,0.100,0.561,0.174,Ranger458758
Long attack,0.581,0.292,0.175,0.774,0.100,0.561,0.174,Ranger524295
Range attack (ANPC),0.581,0.292,0.175,0.774,0.100,0.561,0.174,ANPC196610
Range attack (ANPC),0.581,0.292,0.175,0.774,0.100,0.561,0.174,ANPC196610
Long attack,0.581,0.292,0.175,0.774,0.100,0.561,0.174,Ranger458758
Long attack,0.581,0.292,0.175,0.774,0.100,0.561,0.174,Ranger524295
Long attack (ANPC),0.581,0.292,0.146,0.774,0.100,0.561,0.174,ANPC196610
Long attack,0.581,0.292,0.146,0.774,0.100,0.561,0.174,Ranger458758
Long attack,0.581,0.292,0.146,0.774,0.100,0.561,0.174,Ranger524295
Long attack,0.581,0.292,0.146,0.774,0.100,0.561,0.174,Ranger458758
Long attack,0.581,0.292,0.146,0.774,0.100,0.561,0.174,Ranger524295
Defense (ANPC),0.581,0.292,0.146,0.774,0.100,0.561,0.174,ANPC196610
Long attack,0.581,0.292,0.146,0.774,0.100,0.561,0.174,Ranger458758
Long attack,0.581,0.292,0.146,0.774,0.100,0.561,0.174,Ranger524295
Heal (ANPC),0.581,0.292,0.146,0.774,0.100,0.561,0.174,ANPC196610
Long attack,0.581,0.292,0.146,0.774,0.100,0.561,0.174,Ranger458758
Long attack,0.581,0.292,0.146,0.774,0.100,0.561,0.174,Ranger524295
Heal (ANPC),0.581,0.292,0.146,0.774,0.100,0.561,0.174,ANPC196610
Long attack,0.581,0.292,0.146,0.774,0.100,0.561,0.174,Ranger458758
Long attack,0.581,0.292,0.146,0.774,0.100,0.561,0.174,Ranger524295
Range attack (ANPC),0.581,0.292,0.146,0.774,0.100,0.561,0.174,ANPC196610
Range attack (ANPC),0.581,0.292,0.146,0.774,0.100,0.561,0.174,ANPC196610
Long attack,0.581,0.292,0.146,0.774,0.100,0.561,0.174,Ranger458758
Long attack,0.581,0.292,0.146,0.774,0.100,0.561,0.174,Ranger524295
Range attack (ANPC),0.581,0.292,0.146,0.774,0.100,0.561,0.174,ANPC196610
Range attack (ANPC),0.581,0.292,0.146,0.774,0.100,0.561,0.174,ANPC196610
Long attack,0.581,0.292,0.146,0.774,0.100,0.561,0.174,Ranger458758
Long attack,0.581,0.292,0.146,0.774,0.100,0.561,0.174,Ranger524295
Long attack,0.581,0.292,0.146,0.774,0.100,0.561,0.174,Ranger458758
Long attack,0.581,0.292,0.146,0.774,0.100,0.561,0.174,Ranger524295
Defense (ANPC),0.581,0.292,0.146,0.774,0.100,0.561,0.174,ANPC196610
Long attack,0.581,0.292,0.146,0.774,0.100,0.561,0.174,Ranger458758
Long attack,0.581,0.292,0.146,0.774,0.100,0.561,0.174,Ranger524295
Defense (ANPC),0.581,0.292,0.146,0.774,0.100,0.561,0.174,ANPC196610
Long attack,0.581,0.292,0.146,0.774,0.100,0.561,0.174,Ranger458758
Long attack,0.581,0.292,0.146,0.774,0.100,0.561,0.174,Ranger524295
Range attack (ANPC),0.581,0.292,0.146,0.774,0.100,0.561,0.174,ANPC196610
Range attack (ANPC),0.581,0.292,0.146,0.774,0.100,0.561,0.174,ANPC196610
Long attack,0.581,0.292,0.146,0.774,0.100,0.561,0.174,Ranger458758
Long attack,0.581,0.292,0.146,0.774,0.100,0.561,0.174,Ranger524295
Heal (ANPC),0.581,0.292,0.146,0.774,0.100,0.561,0.174,ANPC196610
Long attack,0.581,0.292,0.146,0.774,0.100,0.561,0.174,Ranger458758
Long attack,0.581,0.292,0.146,0.774,0.100,0.561,0.174,Ranger524295
Defense (ANPC),0.581,0.292,0.146,0.774,0.100,0.561,0.174,ANPC196610
Long attack,0.581,0.292,0.146,0.774,0.100,0.561,0.174,Ranger458758
Long attack,0.581,0.292,0.146,0.774,0.100,0.561,0.174,Ranger524295
Long attack,0.581,0.292,0.146,0.774,0.100,0.561,0.174,Ranger458758
Long attack,0.581,0.292,0.146,0.774,0.100,0.561,0.174,Ranger524295
Range attack (ANPC),0.581,0.292,0.146,0.774,0.100,0.561,0.174,ANPC196610
Range attack (ANPC),0.581,0.292,0.146,0.774,0.100,0.561,0.174,ANPC196610
Long attack,0.581,0.292,0.146,0.774,0.100,0.561,0.174,Ranger458758
Long attack,0.581,0.292,0.146,0.774,0.100,0.561,0.174,Ranger524295
Defense (ANPC),0.581,0.292,0.146,0.774,0.100,0.561,0.174,ANPC196610
Long attack,0.581,0.292,0.146,0.774,0.100,0.561,0.174,Ranger458758
Long attack,0.581,0.292,0.146,0.774,0.100,0.561,0.174,Ranger524295
Range attack (ANPC),0.581,0.292,0.146,0.774,0.100,0.561,0.174,ANPC196610
Range attack (ANPC),0.581,0.292,0.146,0.774,0.100,0.561,0.174,ANPC196610
Long attack,0.581,0.292,0.146,0.774,0.100,0.561,0.174,Ranger458758
Long attack,0.581,0.292,0.146,0.774,0.100,0.561,0.174,Ranger524295
Heal (ANPC),0.581,0.292,0.146,0.774,0.100,0.561,0.174,ANPC196610
Long attack,0.581,0.292,0.146,0.774,0.100,0.561,0.174,Ranger458758
Long attack,0.581,0.292,0.146,0.774,0.100,0.561,0.174,Ranger524295
Range attack (ANPC),0.581,0.292,0.146,0.774,0.100,0.561,0.174,ANPC196610
Range attack (ANPC),0.581,0.292,0.146,0.774,0.100,0.561,0.174,ANPC196610
Long attack,0.581,0.292,0.146,0.774,0.100,0.561,0.174,Ranger458758
Long attack,0.581,0.292,0.146,0.774,0.100,0.561,0.174,Ranger524295
Long attack,0.581,0.292,0.146,0.774,0.100,0.561,0.174,Ranger458758
Long attack,0.581,0.292,0.146,0.774,0.100,0.561,0.174,Ranger524295
Defense (ANPC),0.581,0.292,0.146,0.774,0.100,0.561,0.174,ANPC196610
Long attack,0.581,0.292,0.146,0.774,0.100,0.561,0.174,Ranger458758
Long attack,0.581,0.292,0.146,0.774,0.100,0.561,0.174,Ranger524295
Range attack (ANPC),0.581,0.292,0.146,0.774,0.100,0.561,0.174,ANPC196610
Range attack (ANPC),0.581,0.292,0.146,0.774,0.100,0.561,0.174,ANPC196610
Long attack,0.581,0.292,0.146,0.774,0.100,0.561,0.174,Ranger458758
Long attack,0.581,0.292,0.146,0.774,0.100,0.561,0.174,Ranger524295
Range attack (ANPC),0.581,0.292,0.146,0.774,0.100,0.561,0.174,ANPC196610
Range attack (ANPC),0.581,0.292,0.146,0.774,0.100,0.561,0.174,ANPC196610
Long attack,0.581,0.292,0.146,0.774,0.100,0.561,0.174,Ranger458758
Long attack,0.581,0.292,0.146,0.774,0.100,0.561,0.174,Ranger524295
Range attack (ANPC),0.581,0.292,0.146,0.774,0.100,0.561,0.174,ANPC196610
Range attack (ANPC),0.581,0.292,0.146,0.774,0.100,0.561,0.174,ANPC196610
Long attack,0.581,0.292,0.146,0.774,0.100,0.561,0.174,Ranger458758
Long attack,0.581,0.292,0.146,0.774,0.100,0.561,0.174,Ranger524295
Range attack (ANPC),0.581,0.292,0.146,0.774,0.100,0.561,0.174,ANPC196610
Range attack (ANPC),0.581,0.292,0.146,0.774,0.100,0.561,0.174,ANPC196610
Long attack,0.581,0.292,0.146,0.774,0.100,0.561,0.174,Ranger458758
Long attack,0.581,0.292,0.146,0.774,0.100,0.561,0.174,Ranger524295
Long attack,0.581,0.292,0.146,0.774,0.100,0.561,0.174,Ranger458758
Long attack,0.581,0.292,0.146,0.774,0.100,0.561,0.174,Ranger524295
Defense (ANPC),0.581,0.292,0.146,0.774,0.100,0.561,0.174,ANPC196610
Long attack,0.581,0.292,0.146,0.774,0.100,0.561,0.174,Ranger458758
Long attack,0.581,0.292,0.146,0.774,0.100,0.561,0.174,Ranger524295
Range attack (ANPC),0.581,0.292,0.146,0.774,0.100,0.561,0.174,ANPC196610
Range attack (ANPC),0.581,0.292,0.146,0.774,0.100,0.561,0.174,ANPC196610
Long attack,0.581,0.292,0.146,0.774,0.100,0.561,0.174,Ranger458758
Long attack,0.581,0.292,0.146,0.774,0.100,0.561,0.174,Ranger524295
Defense (ANPC),0.581,0.292,0.146,0.774,0.100,0.561,0.174,ANPC196610
Long attack,0.581,0.292,0.146,0.774,0.100,0.561,0.174,Ranger458758
Long attack,0.581,0.292,0.146,0.774,0.100,0.561,0.174,Ranger524295
Heal (ANPC),0.581,0.292,0.146,0.774,0.100,0.561,0.174,ANPC196610
Long attack,0.581,0.292,0.146,0.774,0.100,0.561,0.174,Ranger458758
Long attack,0.581,0.292,0.146,0.774,0.100,0.561,0.174,Ranger524295
Defense (ANPC),0.581,0.292,0.146,0.774,0.100,0.561,0.174,ANPC196610
Long attack,0.581,0.292,0.146,0.774,0.100,0.561,0.174,Ranger458758
Long attack,0.581,0.292,0.146,0.774,0.100,0.561,0.174,Ranger524295
Long attack,0.581,0.292,0.146,0.774,0.100,0.561,0.174,Ranger458758
Long attack,0.581,0.292,0.146,0.774,0.100,0.561,0.174,Ranger524295
Range attack (ANPC),0.581,0.292,0.146,0.774,0.100,0.561,0.174,ANPC196610
Range attack (ANPC),0.581,0.292,0.146,0.774,0.100,0.561,0.174,ANPC196610
Long attack,0.581,0.292,0.146,0.774,0.100,0.561,0.174,Ranger458758
Long attack,0.581,0.292,0.146,0.774,0.100,0.561,0.174,Ranger524295
Range attack (ANPC),0.581,0.292,0.146,0.774,0.100,0.561,0.174,ANPC196610
Range attack (ANPC),0.581,0.292,0.146,0.774,0.100,0.561,0.174,ANPC196610
Long attack,0.581,0.292,0.146,0.774,0.100,0.561,0.174,Ranger458758
Long attack,0.581,0.292,0.146,0.774,0.100,0.561,0.174,Ranger524295
Range attack (ANPC),0.581,0.292,0.146,0.774,0.100,0.561,0.174,ANPC196610
Range attack (ANPC),0.581,0.292,0.146,0.774,0.100,0.561,0.174,ANPC196610
Long attack,0.581,0.292,0.146,0.774,0.100,0.561,0.174,Ranger458758
Long attack,0.581,0.292,0.146,0.774,0.100,0.561,0.174,Ranger524295
Defense (ANPC),0.581,0.292,0.146,0.774,0.100,0.561,0.174,ANPC196610
Long attack,0.581,0.292,0.146,0.774,0.100,0.561,0.174,Ranger458758
Long attack,0.581,0.292,0.146,0.774,0.100,0.561,0.174,Ranger524295
Heal (ANPC),0.581,0.292,0.146,0.774,0.100,0.561,0.174,ANPC196610
Long attack,0.581,0.292,0.146,0.774,0.100,0.561,0.174,Ranger458758
Long attack,0.581,0.292,0.146,0.774,0.100,0.561,0.174,Ranger524295
Long attack,0.581,0.292,0.146,0.774,0.100,0.561,0.174,Ranger458758
Long attack,0.581,0.292,0.146,0.774,0.100,0.561,0.174,Ranger524295
Range attack (ANPC),0.581,0.292,0.146,0.774,0.100,0.561,0.174,ANPC196610
Range attack (ANPC),0.581,0.292,0.146,0.774,0.100,0.561,0.174,ANPC196610
Long attack,0.581,0.292,0.146,0.774,0.100,0.561,0.174,Ranger458758
Long attack,0.581,0.292,0.146,0.774,0.100,0.561,0.174,Ranger524295
Range attack (ANPC),0.581,0.292,0.146,0.774,0.100,0.561,0.174,ANPC196610
Range attack (ANPC),0.581,0.292,0.146,0.774,0.100,0.561,0.174,ANPC196610
Long attack,0.581,0.292,0.146,0.774,0.100,0.561,0.174,Ranger458758
Long attack,0.581,0.292,0.146,0.774,0.100,0.561,0.174,Ranger524295
Range attack (ANPC),0.581,0.292,0.146,0.774,0.100,0.561,0.174,ANPC196610
Range attack (ANPC),0.581,0.292,0.146,0.774,0.100,0.561,0.174,ANPC196610
Long attack,0.581,0.292,0.146,0.774,0.100,0.561,0.174,Ranger458758
Long attack,0.581,0.292,0.146,0.774,0.100,0.561,0.174,Ranger524295
Move forward (ANPC),0.581,0.292,0.146,0.774,0.100,0.561,0.174,ANPC196610
Long attack,0.581,0.292,0.146,0.774,0.100,0.561,0.174,Ranger458758
Long attack,0.581,0.292,0.146,0.774,0.100,0.561,0.174,Ranger524295
Move backward (ANPC),0.581,0.292,0.146,0.774,0.100,0.561,0.174,ANPC196610
Long attack,0.581,0.292,0.146,0.774,0.100,0.561,0.174,Ranger458758
Long attack,0.581,0.292,0.146,0.774,0.100,0.561,0.174,Ranger524295
Long attack,0.581,0.292,0.146,0.774,0.100,0.561,0.174,Ranger458758
Long attack,0.581,0.292,0.146,0.774,0.100,0.561,0.174,Ranger524295
Heal (ANPC),0.581,0.292,0.146,0.774,0.100,0.561,0.174,ANPC196610
Long attack,0.581,0.292,0.146,0.774,0.100,0.561,0.174,Ranger458758
Long attack,0.581,0.292,0.146,0.774,0.100,0.561,0.174,Ranger524295
Range attack (ANPC),0.581,0.292,0.146,0.774,0.100,0.561,0.174,ANPC196610
Range attack (ANPC),0.581,0.292,0.146,0.774,0.100,0.561,0.174,ANPC196610
Long attack,0.581,0.292,0.146,0.774,0.100,0.561,0.174,Ranger458758
Long attack,0.581,0.292,0.146,0.774,0.100,0.561,0.174,Ranger524295
Defense (ANPC),0.581,0.292,0.146,0.774,0.100,0.561,0.174,ANPC196610
Long attack,0.581,0.292,0.146,0.774,0.100,0.561,0.174,Ranger458758
Long attack,0.581,0.292,0.146,0.774,0.100,0.561,0.174,Ranger524295
Defense (ANPC),0.581,0.292,0.146,0.774,0.100,0.561,0.174,ANPC196610
Long attack,0.581,0.292,0.146,0.774,0.100,0.561,0.174,Ranger458758
Long attack,0.581,0.292,0.146,0.774,0.100,0.561,0.174,Ranger524295
Long attack (ANPC),0.581,0.292,0.118,0.774,0.100,0.561,0.174,ANPC196610
Long attack,0.581,0.292,0.118,0.774,0.100,0.561,0.174,Ranger458758
Long attack,0.581,0.292,0.118,0.774,0.100,0.561,0.174,Ranger524295
Long attack,0.581,0.292,0.118,0.774,0.100,0.561,0.174,Ranger458758
Long attack,0.581,0.292,0.118,0.774,0.100,0.561,0.174,Ranger524295
Defense (ANPC),0.581,0.292,0.118,0.774,0.100,0.561,0.174,ANPC196610
Long attack,0.581,0.292,0.118,0.774,0.100,0.561,0.174,Ranger458758
Long attack,0.581,0.292,0.118,0.774,0.100,0.561,0.174,Ranger524295
Range attack (ANPC),0.581,0.292,0.118,0.774,0.100,0.561,0.174,ANPC196610
Range attack (ANPC),0.581,0.292,0.118,0.774,0.100,0.561,0.174,ANPC196610
Long attack,0.581,0.292,0.118,0.774,0.100,0.561,0.174,Ranger458758
Long attack,0.581,0.292,0.118,0.774,0.100,0.561,0.174,Ranger524295
Heal (ANPC),0.581,0.292,0.118,0.774,0.100,0.561,0.174,ANPC196610
Long attack,0.581,0.292,0.118,0.774,0.100,0.561,0.174,Ranger458758
Long attack,0.581,0.292,0.118,0.774,0.100,0.561,0.174,Ranger524295
Range attack (ANPC),0.581,0.292,0.118,0.774,0.100,0.561,0.174,ANPC196610
Range attack (ANPC),0.581,0.292,0.118,0.774,0.100,0.561,0.174,ANPC196610
Long attack,0.581,0.292,0.118,0.774,0.100,0.561,0.174,Ranger458758
Long attack,0.581,0.292,0.118,0.774,0.100,0.561,0.174,Ranger524295
Defense (ANPC),0.581,0.292,0.118,0.774,0.100,0.561,0.174,ANPC196610
Long attack,0.581,0.292,0.118,0.774,0.100,0.561,0.174,Ranger458758
Long attack,0.581,0.292,0.118,0.774,0.100,0.561,0.174,Ranger524295
Long attack,0.581,0.292,0.118,0.774,0.100,0.561,0.174,Ranger458758
Long attack,0.581,0.292,0.118,0.774,0.100,0.561,0.174,Ranger524295
Defense (ANPC),0.581,0.292,0.118,0.774,0.100,0.561,0.174,ANPC196610
Long attack,0.581,0.292,0.118,0.774,0.100,0.561,0.174,Ranger458758
Long attack,0.581,0.292,0.118,0.774,0.100,0.561,0.174,Ranger524295
Move forward (ANPC),0.581,0.292,0.118,0.774,0.100,0.561,0.174,ANPC196610
Long attack,0.581,0.292,0.118,0.774,0.100,0.561,0.174,Ranger458758
Long attack,0.581,0.292,0.118,0.774,0.100,0.561,0.174,Ranger524295
Range attack (ANPC),0.581,0.292,0.118,0.774,0.100,0.561,0.174,ANPC196610
Range attack (ANPC),0.581,0.292,0.118,0.774,0.100,0.561,0.174,ANPC196610
Long attack,0.581,0.292,0.118,0.774,0.100,0.561,0.174,Ranger458758
Long attack,0.581,0.292,0.118,0.774,0.100,0.561,0.174,Ranger524295
Move backward (ANPC),0.581,0.292,0.118,0.774,0.100,0.561,0.174,ANPC196610
Long attack,0.581,0.292,0.118,0.774,0.100,0.561,0.174,Ranger458758
Long attack,0.581,0.292,0.118,0.774,0.100,0.561,0.174,Ranger524295
Defense (ANPC),0.581,0.292,0.118,0.774,0.100,0.561,0.174,ANPC196610
Long attack,0.581,0.292,0.118,0.774,0.100,0.561,0.174,Ranger458758
Long attack,0.581,0.292,0.118,0.774,0.100,0.561,0.174,Ranger524295
Long attack,0.581,0.292,0.118,0.774,0.100,0.561,0.174,Ranger458758
Long attack,0.581,0.292,0.118,0.774,0.100,0.561,0.174,Ranger524295
Move forward (ANPC),0.581,0.292,0.118,0.774,0.100,0.561,0.174,ANPC196610
Long attack,0.581,0.292,0.118,0.774,0.100,0.561,0.174,Ranger458758
Long attack,0.581,0.292,0.118,0.774,0.100,0.561,0.174,Ranger524295
Heal (ANPC),0.581,0.292,0.118,0.774,0.100,0.561,0.174,ANPC196610
Long attack,0.581,0.292,0.118,0.774,0.100,0.561,0.174,Ranger458758
Long attack,0.581,0.292,0.118,0.774,0.100,0.561,0.174,Ranger524295
Range attack (ANPC),0.581,0.292,0.118,0.774,0.100,0.561,0.174,ANPC196610
Range attack (ANPC),0.581,0.292,0.118,0.774,0.100,0.561,0.174,ANPC196610
Long attack,0.581,0.292,0.118,0.774,0.100,0.561,0.174,Ranger458758
Long attack,0.581,0.292,0.118,0.774,0.100,0.561,0.174,Ranger524295
Move backward (ANPC),0.581,0.292,0.118,0.774,0.100,0.561,0.174,ANPC196610
Long attack,0.581,0.292,0.118,0.774,0.100,0.561,0.174,Ranger458758
Long attack,0.581,0.292,0.118,0.774,0.100,0.561,0.174,Ranger524295
Defense (ANPC),0.581,0.292,0.118,0.774,0.100,0.561,0.174,ANPC196610
Long attack,0.581,0.292,0.118,0.774,0.100,0.561,0.174,Ranger458758
Long attack,0.581,0.292,0.118,0.774,0.100,0.561,0.174,Ranger524295
Long attack,0.581,0.292,0.118,0.774,0.100,0.561,0.174,Ranger458758
Long attack,0.581,0.292,0.118,0.774,0.100,0.561,0.174,Ranger524295
Heal (ANPC),0.581,0.292,0.118,0.774,0.100,0.561,0.174,ANPC196610
Long attack,0.581,0.292,0.118,0.774,0.100,0.561,0.174,Ranger458758
Long attack,0.581,0.292,0.118,0.774,0.100,0.561,0.174,Ranger524295
Range attack (ANPC),0.581,0.292,0.118,0.774,0.100,0.561,0.174,ANPC196610
Range attack (ANPC),0.581,0.292,0.118,0.774,0.100,0.561,0.174,ANPC196610
Long attack,0.581,0.292,0.118,0.774,0.100,0.561,0.174,Ranger458758
Long attack,0.581,0.292,0.118,0.774,0.100,0.561,0.174,Ranger524295
Defense (ANPC),0.581,0.292,0.118,0.774,0.100,0.561,0.174,ANPC196610
Long attack,0.581,0.292,0.118,0.774,0.100,0.561,0.174,Ranger458758
Long attack,0.581,0.292,0.118,0.774,0.100,0.561,0.174,Ranger524295
Defense (ANPC),0.581,0.292,0.118,0.774,0.100,0.561,0.174,ANPC196610
Long attack,0.581,0.292,0.118,0.774,0.100,0.561,0.174,Ranger458758
Long attack,0.581,0.292,0.118,0.774,0.100,0.561,0.174,Ranger524295
Range attack (ANPC),0.581,0.292,0.118,0.774,0.100,0.561,0.174,ANPC196610
Range attack (ANPC),0.581,0.292,0.118,0.774,0.100,0.561,0.174,ANPC196610
Long attack,0.581,0.292,0.118,0.774,0.100,0.561,0.174,Ranger458758
Long attack,0.581,0.292,0.118,0.774,0.100,0.561,0.174,Ranger524295
Long attack,0.581,0.292,0.118,0.774,0.100,0.561,0.174,Ranger458758
Long attack,0.581,0.292,0.118,0.774,0.100,0.561,0.174,Ranger524295
Long attack (ANPC),0.581,0.292,0.089,0.774,0.100,0.561,0.174,ANPC196610
Long attack,0.581,0.292,0.089,0.774,0.100,0.561,0.174,Ranger458758
Long attack,0.581,0.292,0.089,0.774,0.100,0.561,0.174,Ranger524295
Defense (ANPC),0.581,0.292,0.089,0.774,0.100,0.561,0.174,ANPC196610
Long attack,0.581,0.292,0.089,0.774,0.100,0.561,0.174,Ranger458758
Long attack,0.581,0.292,0.089,0.774,0.100,0.561,0.174,Ranger524295
Defense (ANPC),0.581,0.292,0.089,0.774,0.100,0.561,0.174,ANPC196610
Long attack,0.581,0.292,0.089,0.774,0.100,0.561,0.174,Ranger458758
Long attack,0.581,0.292,0.089,0.774,0.100,0.561,0.174,Ranger524295
Defense (ANPC),0.581,0.292,0.089,0.774,0.100,0.561,0.174,ANPC196610
Long attack,0.581,0.292,0.089,0.774,0.100,0.561,0.174,Ranger458758
Long attack,0.581,0.292,0.089,0.774,0.100,0.561,0.174,Ranger524295
Heal (ANPC),0.581,0.292,0.089,0.774,0.100,0.561,0.174,ANPC196610
Long attack,0.581,0.292,0.089,0.774,0.100,0.561,0.174,Ranger458758
Long attack,0.581,0.292,0.089,0.774,0.100,0.561,0.174,Ranger524295
Long attack,0.581,0.292,0.089,0.774,0.100,0.561,0.174,Ranger458758
Long attack,0.581,0.292,0.089,0.774,0.100,0.561,0.174,Ranger524295
Heal (ANPC),0.581,0.292,0.089,0.774,0.100,0.561,0.174,ANPC196610
Long attack,0.581,0.292,0.089,0.774,0.100,0.561,0.174,Ranger458758
Long attack,0.581,0.292,0.089,0.774,0.100,0.561,0.174,Ranger524295
Range attack (ANPC),0.581,0.292,0.089,0.774,0.100,0.561,0.174,ANPC196610
Range attack (ANPC),0.581,0.292,0.089,0.774,0.100,0.561,0.174,ANPC196610
Long attack,0.581,0.292,0.089,0.774,0.100,0.561,0.174,Ranger458758
Long attack,0.581,0.292,0.089,0.774,0.100,0.561,0.174,Ranger524295
Range attack (ANPC),0.581,0.292,0.089,0.774,0.100,0.561,0.174,ANPC196610
Range attack (ANPC),0.581,0.292,0.089,0.774,0.100,0.561,0.174,ANPC196610
Long attack,0.581,0.292,0.089,0.774,0.100,0.561,0.174,Ranger458758
Long attack,0.581,0.292,0.089,0.774,0.100,0.561,0.174,Ranger524295
Range attack (ANPC),0.581,0.292,0.089,0.774,0.100,0.561,0.174,ANPC196610
Range attack (ANPC),0.581,0.292,0.089,0.774,0.100,0.561,0.174,ANPC196610
Long attack,0.581,0.292,0.089,0.774,0.100,0.561,0.174,Ranger458758
Long attack,0.581,0.292,0.089,0.774,0.100,0.561,0.174,Ranger524295
Heal (ANPC),0.581,0.292,0.089,0.774,0.100,0.561,0.174,ANPC196610
Long attack,0.581,0.292,0.089,0.774,0.100,0.561,0.174,Ranger458758
Long attack,0.581,0.292,0.089,0.774,0.100,0.561,0.174,Ranger524295
Long attack,0.581,0.292,0.089,0.774,0.100,0.561,0.174,Ranger458758
Long attack,0.581,0.292,0.089,0.774,0.100,0.561,0.174,Ranger524295
Range attack (ANPC),0.581,0.292,0.089,0.774,0.100,0.561,0.174,ANPC196610
Range attack (ANPC),0.581,0.292,0.089,0.774,0.100,0.561,0.174,ANPC196610
Long attack,0.581,0.292,0.089,0.774,0.100,0.561,0.174,Ranger458758
Long attack,0.581,0.292,0.089,0.774,0.100,0.561,0.174,Ranger524295
Range attack (ANPC),0.581,0.292,0.089,0.774,0.100,0.561,0.174,ANPC196610
Range attack (ANPC),0.581,0.292,0.089,0.774,0.100,0.561,0.174,ANPC196610
Long attack,0.581,0.292,0.089,0.774,0.100,0.561,0.174,Ranger458758
Long attack,0.581,0.292,0.089,0.774,0.100,0.561,0.174,Ranger524295
Defense (ANPC),0.581,0.292,0.089,0.774,0.100,0.561,0.174,ANPC196610
Long attack,0.581,0.292,0.089,0.774,0.100,0.561,0.174,Ranger458758
Long attack,0.581,0.292,0.089,0.774,0.100,0.561,0.174,Ranger524295
Defense (ANPC),0.581,0.292,0.089,0.774,0.100,0.561,0.174,ANPC196610
Long attack,0.581,0.292,0.089,0.774,0.100,0.561,0.174,Ranger458758
Long attack,0.581,0.292,0.089,0.774,0.100,0.561,0.174,Ranger524295
Move forward (ANPC),0.581,0.292,0.089,0.774,0.100,0.561,0.174,ANPC196610
Long attack,0.581,0.292,0.089,0.774,0.100,0.561,0.174,Ranger458758
Long attack,0.581,0.292,0.089,0.774,0.100,0.561,0.174,Ranger524295
Long attack,0.581,0.292,0.089,0.774,0.100,0.561,0.174,Ranger458758
Long attack,0.581,0.292,0.089,0.774,0.100,0.561,0.174,Ranger524295
Heal (ANPC),0.581,0.292,0.089,0.774,0.100,0.561,0.174,ANPC196610
Long attack,0.581,0.292,0.089,0.774,0.100,0.561,0.174,Ranger458758
Long attack,0.581,0.292,0.089,0.774,0.100,0.561,0.174,Ranger524295
Range attack (ANPC),0.581,0.292,0.089,0.774,0.100,0.561,0.174,ANPC196610
Range attack (ANPC),0.581,0.292,0.089,0.774,0.100,0.561,0.174,ANPC196610
Long attack,0.581,0.292,0.089,0.774,0.100,0.561,0.174,Ranger458758
Long attack,0.581,0.292,0.089,0.774,0.100,0.561,0.174,Ranger524295
Move backward (ANPC),0.581,0.292,0.089,0.774,0.100,0.561,0.174,ANPC196610
Long attack,0.581,0.292,0.089,0.774,0.100,0.561,0.174,Ranger458758
Long attack,0.581,0.292,0.089,0.774,0.100,0.561,0.174,Ranger524295
Defense (ANPC),0.581,0.292,0.089,0.774,0.100,0.561,0.174,ANPC196610
Long attack,0.581,0.292,0.089,0.774,0.100,0.561,0.174,Ranger458758
Long attack,0.581,0.292,0.089,0.774,0.100,0.561,0.174,Ranger524295
Heal (ANPC),0.581,0.292,0.089,0.774,0.100,0.561,0.174,ANPC196610
Long attack,0.581,0.292,0.089,0.774,0.100,0.561,0.174,Ranger458758
Long attack,0.581,0.292,0.089,0.774,0.100,0.561,0.174,Ranger524295
Long attack,0.581,0.292,0.089,0.774,0.100,0.561,0.174,Ranger458758
Long attack,0.581,0.292,0.089,0.774,0.100,0.561,0.174,Ranger524295
Range attack (ANPC),0.581,0.292,0.089,0.774,0.100,0.561,0.174,ANPC196610
Range attack (ANPC),0.581,0.292,0.089,0.774,0.100,0.561,0.174,ANPC196610
Long attack,0.581,0.292,0.089,0.774,0.100,0.561,0.174,Ranger458758
Long attack,0.581,0.292,0.089,0.774,0.100,0.561,0.174,Ranger524295
Defense (ANPC),0.581,0.292,0.089,0.774,0.100,0.561,0.174,ANPC196610
Long attack,0.581,0.292,0.089,0.774,0.100,0.561,0.174,Ranger458758
Long attack,0.581,0.292,0.089,0.774,0.100,0.561,0.174,Ranger524295
Defense (ANPC),0.581,0.292,0.089,0.774,0.100,0.561,0.174,ANPC196610
Long attack,0.581,0.292,0.089,0.774,0.100,0.561,0.174,Ranger458758
Long attack,0.581,0.292,0.089,0.774,0.100,0.561,0.174,Ranger524295
Defense (ANPC),0.581,0.292,0.089,0.774,0.100,0.561,0.174,ANPC196610
Long attack,0.581,0.292,0.089,0.774,0.100,0.561,0.174,Ranger458758
Long attack,0.581,0.292,0.089,0.774,0.100,0.561,0.174,Ranger524295
Long attack (ANPC),0.581,0.292,0.060,0.774,0.100,0.561,0.174,ANPC196610
Long attack,0.581,0.292,0.060,0.774,0.100,0.561,0.174,Ranger458758
Long attack,0.581,0.292,0.060,0.774,0.100,0.561,0.174,Ranger524295
Long attack,0.581,0.292,0.060,0.774,0.100,0.561,0.174,Ranger458758
Long attack,0.581,0.292,0.060,0.774,0.100,0.561,0.174,Ranger524295
Defense (ANPC),0.581,0.292,0.060,0.774,0.100,0.561,0.174,ANPC196610
Long attack,0.581,0.292,0.060,0.774,0.100,0.561,0.174,Ranger458758
Long attack,0.581,0.292,0.060,0.774,0.100,0.561,0.174,Ranger524295
Defense (ANPC),0.581,0.292,0.060,0.774,0.100,0.561,0.174,ANPC196610
Long attack,0.581,0.292,0.060,0.774,0.100,0.561,0.174,Ranger458758
Long attack,0.581,0.292,0.060,0.774,0.100,0.561,0.174,Ranger524295
Range attack (ANPC),0.581,0.292,0.060,0.774,0.100,0.561,0.174,ANPC196610
Range attack (ANPC),0.581,0.292,0.060,0.774,0.100,0.561,0.174,ANPC196610
Long attack,0.581,0.292,0.060,0.774,0.100,0.561,0.174,Ranger458758
Long attack,0.581,0.292,0.060,0.774,0.100,0.561,0.174,Ranger524295
Move forward (ANPC),0.581,0.292,0.060,0.774,0.100,0.561,0.174,ANPC196610
Long attack,0.581,0.292,0.060,0.774,0.100,0.561,0.174,Ranger458758
Long attack,0.581,0.292,0.060,0.774,0.100,0.561,0.174,Ranger524295
Defense (ANPC),0.581,0.292,0.060,0.774,0.100,0.561,0.174,ANPC196610
Long attack,0.581,0.292,0.060,0.774,0.100,0.561,0.174,Ranger458758
Long attack,0.581,0.292,0.060,0.774,0.100,0.561,0.174,Ranger524295
Long attack,0.581,0.292,0.060,0.774,0.100,0.561,0.174,Ranger458758
Long attack,0.581,0.292,0.060,0.774,0.100,0.561,0.174,Ranger524295
Move backward (ANPC),0.581,0.292,0.060,0.774,0.100,0.561,0.174,ANPC196610
Long attack,0.581,0.292,0.060,0.774,0.100,0.561,0.174,Ranger458758
Long attack,0.581,0.292,0.060,0.774,0.100,0.561,0.174,Ranger524295
Defense (ANPC),0.581,0.292,0.060,0.774,0.100,0.561,0.174,ANPC196610
Long attack,0.581,0.292,0.060,0.774,0.100,0.561,0.174,Ranger458758
Long attack,0.581,0.292,0.060,0.774,0.100,0.561,0.174,Ranger524295
Range attack (ANPC),0.581,0.292,0.060,0.774,0.100,0.561,0.174,ANPC196610
Range attack (ANPC),0.581,0.292,0.060,0.774,0.100,0.561,0.174,ANPC196610
Long attack,0.581,0.292,0.060,0.774,0.100,0.561,0.174,Ranger458758
Long attack,0.581,0.292,0.060,0.774,0.100,0.561,0.174,Ranger524295
Heal (ANPC),0.581,0.292,0.060,0.774,0.100,0.561,0.174,ANPC196610
Long attack,0.581,0.292,0.060,0.774,0.100,0.561,0.174,Ranger458758
Long attack,0.581,0.292,0.060,0.774,0.100,0.561,0.174,Ranger524295
Defense (ANPC),0.581,0.292,0.060,0.774,0.100,0.561,0.174,ANPC196610
Long attack,0.581,0.292,0.060,0.774,0.100,0.561,0.174,Ranger458758
Long attack,0.581,0.292,0.060,0.774,0.100,0.561,0.174,Ranger524295
Long attack,0.581,0.292,0.060,0.774,0.100,0.561,0.174,Ranger458758
Long attack,0.581,0.292,0.060,0.774,0.100,0.561,0.174,Ranger524295
Range attack (ANPC),0.581,0.292,0.060,0.774,0.100,0.561,0.174,ANPC196610
Range attack (ANPC),0.581,0.292,0.060,0.774,0.100,0.561,0.174,ANPC196610
Long attack,0.581,0.292,0.060,0.774,0.100,0.561,0.174,Ranger458758
Long attack,0.581,0.292,0.060,0.774,0.100,0.561,0.174,Ranger524295
Range attack (ANPC),0.581,0.292,0.060,0.774,0.100,0.561,0.174,ANPC196610
Range attack (ANPC),0.581,0.292,0.060,0.774,0.100,0.561,0.174,ANPC196610
Long attack,0.581,0.292,0.060,0.774,0.100,0.561,0.174,Ranger458758
Long attack,0.581,0.292,0.060,0.774,0.100,0.561,0.174,Ranger524295
Range attack (ANPC),0.581,0.292,0.060,0.774,0.100,0.561,0.174,ANPC196610
Range attack (ANPC),0.581,0.292,0.060,0.774,0.100,0.561,0.174,ANPC196610
Long attack,0.581,0.292,0.060,0.774,0.100,0.561,0.174,Ranger458758
Long attack,0.581,0.292,0.060,0.774,0.100,0.561,0.174,Ranger524295
Range attack (ANPC),0.581,0.292,0.060,0.774,0.100,0.561,0.174,ANPC196610
Range attack (ANPC),0.581,0.292,0.060,0.774,0.100,0.561,0.174,ANPC196610
Long attack,0.581,0.292,0.060,0.774,0.100,0.561,0.174,Ranger458758
Long attack,0.581,0.292,0.060,0.774,0.100,0.561,0.174,Ranger524295
Long attack (ANPC),0.581,0.292,0.032,0.774,0.100,0.561,0.174,ANPC196610
Long attack,0.581,0.292,0.032,0.774,0.100,0.561,0.174,Ranger458758
Long attack,0.581,0.292,0.032,0.774,0.100,0.561,0.174,Ranger524295
Long attack,0.581,0.292,0.032,0.774,0.100,0.561,0.174,Ranger458758
Long attack,0.581,0.292,0.032,0.774,0.100,0.561,0.174,Ranger524295
Defense (ANPC),0.581,0.292,0.032,0.774,0.100,0.561,0.174,ANPC196610
Long attack,0.581,0.292,0.032,0.774,0.100,0.561,0.174,Ranger458758
Long attack,0.581,0.292,0.032,0.774,0.100,0.561,0.174,Ranger524295
Range attack (ANPC),0.581,0.292,0.032,0.774,0.100,0.561,0.174,ANPC196610
Range attack (ANPC),0.581,0.292,0.032,0.774,0.100,0.561,0.174,ANPC196610
Long attack,0.581,0.292,0.032,0.774,0.100,0.561,0.174,Ranger458758
Long attack,0.581,0.292,0.032,0.774,0.100,0.561,0.174,Ranger524295
Heal (ANPC),0.581,0.292,0.032,0.774,0.100,0.561,0.174,ANPC196610
Long attack,0.581,0.292,0.032,0.774,0.100,0.561,0.174,Ranger458758
Long attack,0.581,0.292,0.032,0.774,0.100,0.561,0.174,Ranger524295
Range attack (ANPC),0.581,0.292,0.032,0.774,0.100,0.561,0.174,ANPC196610
Range attack (ANPC),0.581,0.292,0.032,0.774,0.100,0.561,0.174,ANPC196610
Long attack,0.581,0.292,0.032,0.774,0.100,0.561,0.174,Ranger458758
Long attack,0.581,0.292,0.032,0.774,0.100,0.561,0.174,Ranger524295
Heal (ANPC),0.581,0.292,0.032,0.774,0.100,0.561,0.174,ANPC196610
Long attack,0.581,0.292,0.032,0.774,0.100,0.561,0.174,Ranger458758
Long attack,0.581,0.292,0.032,0.774,0.100,0.561,0.174,Ranger524295
Long attack,0.581,0.292,0.032,0.774,0.100,0.561,0.174,Ranger458758
Long attack,0.581,0.292,0.032,0.774,0.100,0.561,0.174,Ranger524295
Move forward (ANPC),0.581,0.292,0.032,0.774,0.100,0.561,0.174,ANPC196610
Long attack,0.581,0.292,0.032,0.774,0.100,0.561,0.174,Ranger458758
Long attack,0.581,0.292,0.032,0.774,0.100,0.561,0.174,Ranger524295
Move backward (ANPC),0.581,0.292,0.032,0.774,0.100,0.561,0.174,ANPC196610
Long attack,0.581,0.292,0.032,0.774,0.100,0.561,0.174,Ranger458758
Long attack,0.581,0.292,0.032,0.774,0.100,0.561,0.174,Ranger524295
Long attack (ANPC),0.581,0.292,0.003,0.774,0.100,0.561,0.174,ANPC196610
Long attack,0.581,0.292,0.003,0.774,0.100,0.561,0.174,Ranger458758
Long attack,0.581,0.292,0.003,0.774,0.100,0.561,0.174,Ranger524295
Defense (ANPC),0.581,0.292,0.003,0.774,0.100,0.561,0.174,ANPC196610
Long attack,0.581,0.292,0.003,0.774,0.100,0.561,0.174,Ranger458758
Long attack,0.581,0.292,0.003,0.774,0.100,0.561,0.174,Ranger524295
Defense (ANPC),0.581,0.292,0.003,0.774,0.100,0.561,0.174,ANPC196610
Long attack,0.581,0.292,0.003,0.774,0.100,0.561,0.174,Ranger458758
Long attack,0.581,0.292,0.003,0.774,0.100,0.561,0.174,Ranger524295
Long attack,0.581,0.292,0.003,0.774,0.100,0.561,0.174,Ranger458758
Long attack,0.581,0.292,0.003,0.774,0.100,0.561,0.174,Ranger524295
Range attack (ANPC),0.581,0.292,0.003,0.774,0.100,0.561,0.174,ANPC196610
Range attack (ANPC),0.581,0.292,0.003,0.774,0.100,0.561,0.174,ANPC196610
Long attack,0.581,0.292,0.003,0.774,0.100,0.561,0.174,Ranger458758
Long attack,0.581,0.292,0.003,0.774,0.100,0.561,0.174,Ranger524295
Defense (ANPC),0.581,0.292,0.003,0.774,0.100,0.561,0.174,ANPC196610
Long attack,0.581,0.292,0.003,0.774,0.100,0.561,0.174,Ranger458758
Long attack,0.581,0.292,0.003,0.774,0.100,0.561,0.174,Ranger524295
Defense (ANPC),0.581,0.292,0.003,0.774,0.100,0.561,0.174,ANPC196610
Long attack,0.581,0.292,0.003,0.774,0.100,0.561,0.174,Ranger458758
Long attack,0.581,0.292,0.003,0.774,0.100,0.561,0.174,Ranger524295
Defense (ANPC),0.581,0.292,0.003,0.774,0.100,0.561,0.174,ANPC196610
Long attack,0.581,0.292,0.003,0.774,0.100,0.561,0.174,Ranger458758
Long attack,0.581,0.292,0.003,0.774,0.100,0.561,0.174,Ranger524295
Heal (ANPC),0.581,0.292,0.003,0.774,0.100,0.561,0.174,ANPC196610
Long attack,0.581,0.292,0.003,0.774,0.100,0.561,0.174,Ranger458758
Long attack,0.581,0.292,0.003,0.774,0.100,0.561,0.174,Ranger524295
Long attack,0.581,0.292,0.003,0.774,0.100,0.561,0.174,Ranger458758
Long attack,0.581,0.292,0.003,0.774,0.100,0.561,0.174,Ranger524295
Range attack (ANPC),0.581,0.292,0.003,0.774,0.100,0.561,0.174,ANPC196610
Range attack (ANPC),0.581,0.292,0.003,0.774,0.100,0.561,0.174,ANPC196610
Long attack,0.581,0.292,0.003,0.774,0.100,0.561,0.174,Ranger458758
Long attack,0.581,0.292,0.003,0.774,0.100,0.561,0.174,Ranger524295
Defense (ANPC),0.581,0.292,0.003,0.774,0.100,0.561,0.174,ANPC196610
Long attack,0.581,0.292,0.003,0.774,0.100,0.561,0.174,Ranger458758
Long attack,0.581,0.292,0.003,0.774,0.100,0.561,0.174,Ranger524295
Heal (ANPC),0.581,0.292,0.003,0.774,0.100,0.561,0.174,ANPC196610
Long attack,0.581,0.292,0.003,0.774,0.100,0.561,0.174,Ranger458758
Long attack,0.581,0.292,0.003,0.774,0.100,0.561,0.174,Ranger524295
Heal (ANPC),0.581,0.292,0.003,0.774,0.100,0.561,0.174,ANPC196610
Long attack,0.581,0.292,0.003,0.774,0.100,0.561,0.174,Ranger458758
Long attack,0.581,0.292,0.003,0.774,0.100,0.561,0.174,Ranger524295
Range attack (ANPC),0.581,0.292,0.003,0.774,0.100,0.561,0.174,ANPC196610
Range attack (ANPC),0.581,0.292,0.003,0.774,0.100,0.561,0.174,ANPC196610
Long attack,0.581,0.292,0.003,0.774,0.100,0.561,0.174,Ranger458758
Long attack,0.581,0.292,0.003,0.774,0.100,0.561,0.174,Ranger524295
Long attack,0.581,0.292,0.003,0.774,0.100,0.561,0.174,Ranger458758
Long attack,0.581,0.292,0.003,0.774,0.100,0.561,0.174,Ranger524295
Range attack (ANPC),0.581,0.292,0.003,0.774,0.100,0.561,0.174,ANPC196610
Range attack (ANPC),0.581,0.292,0.003,0.774,0.100,0.561,0.174,ANPC196610
Long attack,0.581,0.292,0.003,0.774,0.100,0.561,0.174,Ranger458758
Long attack,0.581,0.292,0.003,0.774,0.100,0.561,0.174,Ranger524295
Range attack (ANPC),0.581,0.292,0.003,0.774,0.100,0.561,0.174,ANPC196610
Range attack (ANPC),0.581,0.292,0.003,0.774,0.100,0.561,0.174,ANPC196610
Long attack,0.581,0.292,0.003,0.774,0.100,0.561,0.174,Ranger458758
Long attack,0.581,0.292,0.003,0.774,0.100,0.561,0.174,Ranger524295
Heal (ANPC),0.581,0.292,0.003,0.774,0.100,0.561,0.174,ANPC196610
Long attack,0.581,0.292,0.003,0.774,0.100,0.561,0.174,Ranger458758
Long attack,0.581,0.292,0.003,0.774,0.100,0.561,0.174,Ranger524295
Defense (ANPC),0.581,0.292,0.003,0.774,0.100,0.561,0.174,ANPC196610
Long attack,0.581,0.292,0.003,0.774,0.100,0.561,0.174,Ranger458758
Long attack,0.581,0.292,0.003,0.774,0.100,0.561,0.174,Ranger524295
Range attack (ANPC),0.581,0.292,0.003,0.774,0.100,0.561,0.174,ANPC196610
Range attack (ANPC),0.581,0.292,0.003,0.774,0.100,0.561,0.174,ANPC196610
Long attack,0.581,0.292,0.003,0.774,0.100,0.561,0.174,Ranger458758
Long attack,0.581,0.292,0.003,0.774,0.100,0.561,0.174,Ranger524295
Long attack,0.581,0.292,0.003,0.774,0.100,0.561,0.174,Ranger458758
Long attack,0.581,0.292,0.003,0.774,0.100,0.561,0.174,Ranger524295
Defense (ANPC),0.581,0.292,0.003,0.774,0.100,0.561,0.174,ANPC196610
Long attack,0.581,0.292,0.003,0.774,0.100,0.561,0.174,Ranger458758
Long attack,0.581,0.292,0.003,0.774,0.100,0.561,0.174,Ranger524295
Move forward (ANPC),0.581,0.292,0.003,0.774,0.100,0.561,0.174,ANPC196610
Long attack,0.581,0.292,0.003,0.774,0.100,0.561,0.174,Ranger458758
Long attack,0.581,0.292,0.003,0.774,0.100,0.561,0.174,Ranger524295
Defense (ANPC),0.581,0.292,0.003,0.774,0.100,0.561,0.174,ANPC196610
Long attack,0.581,0.292,0.003,0.774,0.100,0.561,0.174,Ranger458758
Long attack,0.581,0.292,0.003,0.774,0.100,0.561,0.174,Ranger524295
Range attack (ANPC),0.581,0.292,0.003,0.774,0.100,0.561,0.174,ANPC196610
Range attack (ANPC),0.581,0.292,0.003,0.774,0.100,0.561,0.174,ANPC196610
Long attack,0.581,0.292,0.003,0.774,0.100,0.561,0.174,Ranger458758
Long attack,0.581,0.292,0.003,0.774,0.100,0.561,0.174,Ranger524295
Range attack (ANPC),0.581,0.292,0.003,0.774,0.100,0.561,0.174,ANPC196610
Range attack (ANPC),0.581,0.292,0.003,0.774,0.100,0.561,0.174,ANPC196610
Long attack,0.581,0.292,0.003,0.774,0.100,0.561,0.174,Ranger458758
Long attack,0.581,0.292,0.003,0.774,0.100,0.561,0.174,Ranger524295
Long attack,0.581,0.292,0.003,0.774,0.100,0.561,0.174,Ranger458758
Long attack,0.581,0.292,0.003,0.774,0.100,0.561,0.174,Ranger524295
Defense (ANPC),0.581,0.292,0.003,0.774,0.100,0.561,0.174,ANPC196610
Long attack,0.581,0.292,0.003,0.774,0.100,0.561,0.174,Ranger458758
Long attack,0.581,0.292,0.003,0.774,0.100,0.561,0.174,Ranger524295
Move backward (ANPC),0.581,0.292,0.003,0.774,0.100,0.561,0.174,ANPC196610
Long attack,0.581,0.292,0.003,0.774,0.100,0.561,0.174,Ranger458758
Long attack,0.581,0.292,0.003,0.774,0.100,0.561,0.174,Ranger524295
Defense (ANPC),0.581,0.292,0.003,0.774,0.100,0.561,0.174,ANPC196610
Long attack,0.581,0.292,0.003,0.774,0.100,0.561,0.174,Ranger458758
Long attack,0.581,0.292,0.003,0.774,0.100,0.561,0.174,Ranger524295
Heal (ANPC),0.581,0.292,0.003,0.774,0.100,0.561,0.174,ANPC196610
Long attack,0.581,0.292,0.003,0.774,0.100,0.561,0.174,Ranger458758
Long attack,0.581,0.292,0.003,0.774,0.100,0.561,0.174,Ranger524295
Short attack (ANPC),0.581,0.292,0.003,0.774,0.100,0.561,0.270,ANPC196610
Long attack,0.581,0.292,0.003,0.774,0.100,0.561,0.270,Ranger458758
Long attack,0.581,0.292,0.003,0.774,0.100,0.561,0.270,Ranger524295
Long attack,0.581,0.292,0.003,0.774,0.100,0.561,0.270,Ranger458758
Long attack,0.581,0.292,0.003,0.774,0.100,0.561,0.270,Ranger524295
Move forward (ANPC),0.581,0.292,0.003,0.774,0.100,0.561,0.270,ANPC196610
Long attack,0.581,0.292,0.003,0.774,0.100,0.561,0.270,Ranger458758
Long attack,0.581,0.292,0.003,0.774,0.100,0.561,0.270,Ranger524295
Defense (ANPC),0.581,0.292,0.003,0.774,0.100,0.561,0.270,ANPC196610
Long attack,0.581,0.292,0.003,0.774,0.100,0.561,0.270,Ranger458758
Long attack,0.581,0.292,0.003,0.774,0.100,0.561,0.270,Ranger524295
Range attack (ANPC),0.581,0.292,0.003,0.774,0.100,0.561,0.270,ANPC196610
Range attack (ANPC),0.581,0.292,0.003,0.774,0.100,0.561,0.270,ANPC196610
Long attack,0.581,0.292,0.003,0.774,0.100,0.561,0.270,Ranger458758
Long attack,0.581,0.292,0.003,0.774,0.100,0.561,0.270,Ranger524295
Move backward (ANPC),0.581,0.292,0.003,0.774,0.050,0.561,0.270,ANPC196610
Long attack,0.581,0.292,0.003,0.774,0.050,0.561,0.270,Ranger458758
Long attack,0.581,0.292,0.003,0.774,0.050,0.561,0.270,Ranger524295
Defense (ANPC),0.581,0.292,0.003,0.774,0.050,0.561,0.270,ANPC196610
Long attack,0.581,0.292,0.003,0.774,0.050,0.561,0.270,Ranger458758
Long attack,0.581,0.292,0.003,0.774,0.050,0.561,0.270,Ranger524295
Long attack,0.581,0.292,0.003,0.774,0.050,0.561,0.270,Ranger458758
Long attack,0.581,0.292,0.003,0.774,0.050,0.561,0.270,Ranger524295
Short attack (ANPC),0.581,0.292,0.003,0.774,0.050,0.561,0.270,ANPC196610
Long attack,0.581,0.292,0.003,0.774,0.050,0.561,0.270,Ranger458758
Long attack,0.581,0.292,0.003,0.774,0.050,0.561,0.270,Ranger524295
Heal (ANPC),0.581,0.292,0.003,0.774,0.050,0.561,0.270,ANPC196610
Long attack,0.581,0.292,0.003,0.774,0.050,0.561,0.270,Ranger458758
Long attack,0.581,0.292,0.003,0.774,0.050,0.561,0.270,Ranger524295
Range attack (ANPC),0.581,0.292,0.003,0.774,0.050,0.561,0.270,ANPC196610
Range attack (ANPC),0.581,0.292,0.003,0.774,0.050,0.561,0.270,ANPC196610
Long attack,0.581,0.292,0.003,0.774,0.050,0.561,0.270,Ranger458758
Long attack,0.581,0.292,0.003,0.774,0.050,0.561,0.270,Ranger524295
Defense (ANPC),0.581,0.292,0.003,0.774,0.050,0.561,0.270,ANPC196610
Long attack,0.581,0.292,0.003,0.774,0.050,0.561,0.270,Ranger458758
Long attack,0.581,0.292,0.003,0.774,0.050,0.561,0.270,Ranger524295
Defense (ANPC),0.581,0.292,0.003,0.774,0.050,0.561,0.270,ANPC196610
Long attack,0.581,0.292,0.003,0.774,0.050,0.561,0.270,Ranger458758
Long attack,0.581,0.292,0.003,0.774,0.050,0.561,0.270,Ranger524295
Long attack,0.581,0.292,0.003,0.774,0.050,0.561,0.270,Ranger458758
Long attack,0.581,0.292,0.003,0.774,0.050,0.561,0.270,Ranger524295
Heal (ANPC),0.581,0.292,0.003,0.774,0.050,0.561,0.270,ANPC196610
Long attack,0.581,0.292,0.003,0.774,0.050,0.561,0.270,Ranger458758
Long attack,0.581,0.292,0.003,0.774,0.050,0.561,0.270,Ranger524295
Defense (ANPC),0.581,0.292,0.003,0.774,0.050,0.561,0.270,ANPC196610
Long attack,0.581,0.292,0.003,0.774,0.050,0.561,0.270,Ranger458758
Long attack,0.581,0.292,0.003,0.774,0.050,0.561,0.270,Ranger524295
Heal (ANPC),0.581,0.292,0.003,0.774,0.050,0.561,0.270,ANPC196610
Long attack,0.581,0.292,0.003,0.774,0.050,0.561,0.270,Ranger458758
Long attack,0.581,0.292,0.003,0.774,0.050,0.561,0.270,Ranger524295
Range attack (ANPC),0.581,0.292,0.003,0.774,0.050,0.561,0.270,ANPC196610
Range attack (ANPC),0.581,0.292,0.003,0.774,0.050,0.561,0.270,ANPC196610
Long attack,0.581,0.292,0.003,0.774,0.050,0.561,0.270,Ranger458758
Long attack,0.581,0.292,0.003,0.774,0.050,0.561,0.270,Ranger524295
Range attack (ANPC),0.581,0.292,0.003,0.774,0.050,0.561,0.270,ANPC196610
Range attack (ANPC),0.581,0.292,0.003,0.774,0.050,0.561,0.270,ANPC196610
Long attack,0.581,0.292,0.003,0.774,0.050,0.561,0.270,Ranger458758
Long attack,0.581,0.292,0.003,0.774,0.050,0.561,0.270,Ranger524295
Long attack,0.581,0.292,0.003,0.774,0.050,0.561,0.270,Ranger458758
Long attack,0.581,0.292,0.003,0.774,0.050,0.561,0.270,Ranger524295
Defense (ANPC),0.581,0.292,0.003,0.774,0.050,0.561,0.270,ANPC196610
Long attack,0.581,0.292,0.003,0.774,0.050,0.561,0.270,Ranger458758
Long attack,0.581,0.292,0.003,0.774,0.050,0.561,0.270,Ranger524295
Defense (ANPC),0.581,0.292,0.003,0.774,0.050,0.561,0.270,ANPC196610
Long attack,0.581,0.292,0.003,0.774,0.050,0.561,0.270,Ranger458758
Long attack,0.581,0.292,0.003,0.774,0.050,0.561,0.270,Ranger524295
Range attack (ANPC),0.581,0.292,0.003,0.774,0.050,0.561,0.270,ANPC196610
Range attack (ANPC),0.581,0.292,0.003,0.774,0.050,0.561,0.270,ANPC196610
Long attack,0.581,0.292,0.003,0.774,0.050,0.561,0.270,Ranger458758
Long attack,0.581,0.292,0.003,0.774,0.050,0.561,0.270,Ranger524295
Defense (ANPC),0.581,0.292,0.003,0.774,0.050,0.561,0.270,ANPC196610
Long attack,0.581,0.292,0.003,0.774,0.050,0.561,0.270,Ranger458758
Long attack,0.581,0.292,0.003,0.774,0.050,0.561,0.270,Ranger524295
Range attack (ANPC),0.581,0.292,0.003,0.774,0.050,0.561,0.270,ANPC196610
Range attack (ANPC),0.581,0.292,0.003,0.774,0.050,0.561,0.270,ANPC196610
Long attack,0.581,0.292,0.003,0.774,0.050,0.561,0.270,Ranger458758
Long attack,0.581,0.292,0.003,0.774,0.050,0.561,0.270,Ranger524295
Long attack,0.581,0.292,0.003,0.774,0.050,0.561,0.270,Ranger458758
Long attack,0.581,0.292,0.003,0.774,0.050,0.561,0.270,Ranger524295
Range attack (ANPC),0.581,0.292,0.003,0.774,0.050,0.561,0.270,ANPC196610
Range attack (ANPC),0.581,0.292,0.003,0.774,0.050,0.561,0.270,ANPC196610
Long attack,0.581,0.292,0.003,0.774,0.050,0.561,0.270,Ranger458758
Long attack,0.581,0.292,0.003,0.774,0.050,0.561,0.270,Ranger524295
Heal (ANPC),0.581,0.292,0.003,0.774,0.050,0.561,0.270,ANPC196610
Long attack,0.581,0.292,0.003,0.774,0.050,0.561,0.270,Ranger458758
Long attack,0.581,0.292,0.003,0.774,0.050,0.561,0.270,Ranger524295
Defense (ANPC),0.581,0.292,0.003,0.774,0.050,0.561,0.270,ANPC196610
Long attack,0.581,0.292,0.003,0.774,0.050,0.561,0.270,Ranger458758
Long attack,0.581,0.292,0.003,0.774,0.050,0.561,0.270,Ranger524295
Defense (ANPC),0.581,0.292,0.003,0.774,0.050,0.561,0.270,ANPC196610
Long attack,0.581,0.292,0.003,0.774,0.050,0.561,0.270,Ranger458758
Long attack,0.581,0.292,0.003,0.774,0.050,0.561,0.270,Ranger524295
Range attack (ANPC),0.581,0.292,0.003,0.774,0.050,0.561,0.270,ANPC196610
Range attack (ANPC),0.581,0.292,0.003,0.774,0.050,0.561,0.270,ANPC196610
Long attack,0.581,0.292,0.003,0.774,0.050,0.561,0.270,Ranger458758
Long attack,0.581,0.292,0.003,0.774,0.050,0.561,0.270,Ranger524295
Long attack,0.581,0.292,0.003,0.774,0.050,0.561,0.270,Ranger458758
Long attack,0.581,0.292,0.003,0.774,0.050,0.561,0.270,Ranger524295
Defense (ANPC),0.581,0.292,0.003,0.774,0.050,0.561,0.270,ANPC196610
Long attack,0.581,0.292,0.003,0.774,0.050,0.561,0.270,Ranger458758
Long attack,0.581,0.292,0.003,0.774,0.050,0.561,0.270,Ranger524295
Defense (ANPC),0.581,0.292,0.003,0.774,0.050,0.561,0.270,ANPC196610
Long attack,0.581,0.292,0.003,0.774,0.050,0.561,0.270,Ranger458758
Long attack,0.581,0.292,0.003,0.774,0.050,0.561,0.270,Ranger524295
Range attack (ANPC),0.581,0.292,0.003,0.774,0.050,0.561,0.270,ANPC196610
Range attack (ANPC),0.581,0.292,0.003,0.774,0.050,0.561,0.270,ANPC196610
Long attack,0.581,0.292,0.003,0.774,0.050,0.561,0.270,Ranger458758
Long attack,0.581,0.292,0.003,0.774,0.050,0.561,0.270,Ranger524295
Heal (ANPC),0.581,0.292,0.003,0.774,0.050,0.561,0.270,ANPC196610
Long attack,0.581,0.292,0.003,0.774,0.050,0.561,0.270,Ranger458758
Long attack,0.581,0.292,0.003,0.774,0.050,0.561,0.270,Ranger524295
Short attack (ANPC),0.581,0.292,0.003,0.774,0.050,0.561,0.270,ANPC196610
Long attack,0.581,0.292,0.003,0.774,0.050,0.561,0.270,Ranger458758
Long attack,0.581,0.292,0.003,0.774,0.050,0.561,0.270,Ranger524295
Long attack,0.581,0.292,0.003,0.774,0.050,0.561,0.270,Ranger458758
Long attack,0.581,0.292,0.003,0.774,0.050,0.561,0.270,Ranger524295
Defense (ANPC),0.581,0.292,0.003,0.774,0.050,0.561,0.270,ANPC196610
Long attack,0.581,0.292,0.003,0.774,0.050,0.561,0.270,Ranger458758
Long attack,0.581,0.292,0.003,0.774,0.050,0.561,0.270,Ranger524295
Short attack (ANPC),0.581,0.292,0.003,0.774,0.050,0.561,0.270,ANPC196610
Long attack,0.581,0.292,0.003,0.774,0.050,0.561,0.270,Ranger458758
Long attack,0.581,0.292,0.003,0.774,0.050,0.561,0.270,Ranger524295
Defense (ANPC),0.581,0.292,0.003,0.774,0.050,0.561,0.270,ANPC196610
Long attack,0.581,0.292,0.003,0.774,0.050,0.561,0.270,Ranger458758
Long attack,0.581,0.292,0.003,0.774,0.050,0.561,0.270,Ranger524295
Range attack (ANPC),0.581,0.292,0.003,0.774,0.050,0.561,0.270,ANPC196610
Range attack (ANPC),0.581,0.292,0.003,0.774,0.050,0.561,0.270,ANPC196610
Long attack,0.581,0.292,0.003,0.774,0.050,0.561,0.270,Ranger458758
Long attack,0.581,0.292,0.003,0.774,0.050,0.561,0.270,Ranger524295
Range attack (ANPC),0.581,0.292,0.003,0.774,0.050,0.561,0.270,ANPC196610
Range attack (ANPC),0.581,0.292,0.003,0.774,0.050,0.561,0.270,ANPC196610
Long attack,0.581,0.292,0.003,0.774,0.050,0.561,0.270,Ranger458758
Long attack,0.581,0.292,0.003,0.774,0.050,0.561,0.270,Ranger524295
Long attack,0.581,0.292,0.003,0.774,0.050,0.561,0.270,Ranger458758
Long attack,0.581,0.292,0.003,0.774,0.050,0.561,0.270,Ranger524295
Range attack (ANPC),0.581,0.292,0.003,0.774,0.050,0.561,0.270,ANPC196610
Range attack (ANPC),0.581,0.292,0.003,0.774,0.050,0.561,0.270,ANPC196610
Long attack,0.581,0.292,0.003,0.774,0.050,0.561,0.270,Ranger458758
Long attack,0.581,0.292,0.003,0.774,0.050,0.561,0.270,Ranger524295
Move forward (ANPC),0.581,0.292,0.003,0.774,0.050,0.561,0.270,ANPC196610
Long attack,0.581,0.292,0.003,0.774,0.050,0.561,0.270,Ranger458758
Long attack,0.581,0.292,0.003,0.774,0.050,0.561,0.270,Ranger524295
Defense (ANPC),0.581,0.292,0.003,0.774,0.050,0.561,0.270,ANPC196610
Long attack,0.581,0.292,0.003,0.774,0.050,0.561,0.270,Ranger458758
Long attack,0.581,0.292,0.003,0.774,0.050,0.561,0.270,Ranger524295
Heal (ANPC),0.581,0.292,0.003,0.774,0.050,0.561,0.270,ANPC196610
Long attack,0.581,0.292,0.003,0.774,0.050,0.561,0.270,Ranger458758
Long attack,0.581,0.292,0.003,0.774,0.050,0.561,0.270,Ranger524295
Short attack (ANPC),0.581,0.292,0.003,0.774,0.050,0.561,0.270,ANPC196610
Long attack,0.581,0.292,0.003,0.774,0.050,0.561,0.270,Ranger458758
Long attack,0.581,0.292,0.003,0.774,0.050,0.561,0.270,Ranger524295
Long attack,0.581,0.292,0.003,0.774,0.050,0.561,0.270,Ranger458758
Long attack,0.581,0.292,0.003,0.774,0.050,0.561,0.270,Ranger524295
Move backward (ANPC),0.581,0.292,0.003,0.774,0.050,0.561,0.270,ANPC196610
Long attack,0.581,0.292,0.003,0.774,0.050,0.561,0.270,Ranger458758
Long attack,0.581,0.292,0.003,0.774,0.050,0.561,0.270,Ranger524295
Defense (ANPC),0.581,0.292,0.003,0.774,0.050,0.561,0.270,ANPC196610
Long attack,0.581,0.292,0.003,0.774,0.050,0.561,0.270,Ranger458758
Long attack,0.581,0.292,0.003,0.774,0.050,0.561,0.270,Ranger524295
Heal (ANPC),0.581,0.292,0.003,0.774,0.050,0.561,0.270,ANPC196610
Long attack,0.581,0.292,0.003,0.774,0.050,0.561,0.270,Ranger458758
Long attack,0.581,0.292,0.003,0.774,0.050,0.561,0.270,Ranger524295
Range attack (ANPC),0.581,0.292,0.003,0.774,0.050,0.561,0.270,ANPC196610
Range attack (ANPC),0.581,0.292,0.003,0.774,0.050,0.561,0.270,ANPC196610
Long attack,0.581,0.292,0.003,0.774,0.050,0.561,0.270,Ranger458758
Long attack,0.581,0.292,0.003,0.774,0.050,0.561,0.270,Ranger524295
Short attack (ANPC),0.581,0.292,0.003,0.774,0.050,0.561,0.270,ANPC196610
Long attack,0.581,0.292,0.003,0.774,0.050,0.561,0.270,Ranger458758
Long attack,0.581,0.292,0.003,0.774,0.050,0.561,0.270,Ranger524295
Long attack,0.581,0.292,0.003,0.774,0.050,0.561,0.270,Ranger458758
Long attack,0.581,0.292,0.003,0.774,0.050,0.561,0.270,Ranger524295
Defense (ANPC),0.581,0.292,0.003,0.774,0.050,0.561,0.270,ANPC196610
Long attack,0.581,0.292,0.003,0.774,0.050,0.561,0.270,Ranger458758
Long attack,0.581,0.292,0.003,0.774,0.050,0.561,0.270,Ranger524295
Range attack (ANPC),0.581,0.292,0.003,0.774,0.050,0.561,0.270,ANPC196610
Range attack (ANPC),0.581,0.292,0.003,0.774,0.050,0.561,0.270,ANPC196610
Long attack,0.581,0.292,0.003,0.774,0.050,0.561,0.270,Ranger458758
Long attack,0.581,0.292,0.003,0.774,0.050,0.561,0.270,Ranger524295
Heal (ANPC),0.581,0.292,0.003,0.774,0.050,0.561,0.270,ANPC196610
Long attack,0.581,0.292,0.003,0.774,0.050,0.561,0.270,Ranger458758
Long attack,0.581,0.292,0.003,0.774,0.050,0.561,0.270,Ranger524295
Short attack (ANPC),0.581,0.292,0.003,0.774,0.050,0.561,0.270,ANPC196610
Long attack,0.581,0.292,0.003,0.774,0.050,0.561,0.270,Ranger458758
Long attack,0.581,0.292,0.003,0.774,0.050,0.561,0.270,Ranger524295
Defense (ANPC),0.581,0.292,0.003,0.774,0.050,0.561,0.270,ANPC196610
Long attack,0.581,0.292,0.003,0.774,0.050,0.561,0.270,Ranger458758
Long attack,0.581,0.292,0.003,0.774,0.050,0.561,0.270,Ranger524295
Long attack,0.581,0.292,0.003,0.774,0.050,0.561,0.270,Ranger458758
Long attack,0.581,0.292,0.003,0.774,0.050,0.561,0.270,Ranger524295
Range attack (ANPC),0.581,0.292,0.003,0.774,0.050,0.561,0.270,ANPC196610
Range attack (ANPC),0.581,0.292,0.003,0.774,0.050,0.561,0.270,ANPC196610
Long attack,0.581,0.292,0.003,0.774,0.050,0.561,0.270,Ranger458758
Long attack,0.581,0.292,0.003,0.774,0.050,0.561,0.270,Ranger524295
Range attack (ANPC),0.581,0.292,0.003,0.774,0.050,0.561,0.270,ANPC196610
Range attack (ANPC),0.581,0.292,0.003,0.774,0.050,0.561,0.270,ANPC196610
Long attack,0.581,0.292,0.003,0.774,0.050,0.561,0.270,Ranger458758
Long attack,0.581,0.292,0.003,0.774,0.050,0.561,0.270,Ranger524295
Range attack (ANPC),0.581,0.292,0.003,0.774,0.050,0.561,0.270,ANPC196610
Range attack (ANPC),0.581,0.292,0.003,0.774,0.050,0.561,0.270,ANPC196610
Long attack,0.581,0.292,0.003,0.774,0.050,0.561,0.270,Ranger458758
Long attack,0.581,0.292,0.003,0.774,0.050,0.561,0.270,Ranger524295
Defense (ANPC),0.581,0.292,0.003,0.774,0.050,0.561,0.270,ANPC196610
Long attack,0.581,0.292,0.003,0.774,0.050,0.561,0.270,Ranger458758
Long attack,0.581,0.292,0.003,0.774,0.050,0.561,0.270,Ranger524295
Defense (ANPC),0.581,0.292,0.003,0.774,0.050,0.561,0.270,ANPC196610
Long attack,0.581,0.292,0.003,0.774,0.050,0.561,0.270,Ranger458758
Long attack,0.581,0.292,0.003,0.774,0.050,0.561,0.270,Ranger524295
Long attack,0.581,0.292,0.003,0.774,0.050,0.561,0.270,Ranger458758
Long attack,0.581,0.292,0.003,0.774,0.050,0.561,0.270,Ranger524295
Range attack (ANPC),0.581,0.292,0.003,0.774,0.050,0.561,0.270,ANPC196610
Range attack (ANPC),0.581,0.292,0.003,0.774,0.050,0.561,0.270,ANPC196610
Long attack,0.581,0.292,0.003,0.774,0.050,0.561,0.270,Ranger458758
Long attack,0.581,0.292,0.003,0.774,0.050,0.561,0.270,Ranger524295
Heal (ANPC),0.581,0.292,0.003,0.774,0.050,0.561,0.270,ANPC196610
Long attack,0.581,0.292,0.003,0.774,0.050,0.561,0.270,Ranger458758
Long attack,0.581,0.292,0.003,0.774,0.050,0.561,0.270,Ranger524295
Short attack (ANPC),0.581,0.292,0.003,0.774,0.050,0.561,0.270,ANPC196610
Long attack,0.581,0.292,0.003,0.774,0.050,0.561,0.270,Ranger458758
Long attack,0.581,0.292,0.003,0.774,0.050,0.561,0.270,Ranger524295
Defense (ANPC),0.581,0.292,0.003,0.774,0.050,0.561,0.270,ANPC196610
Long attack,0.581,0.292,0.003,0.774,0.050,0.561,0.270,Ranger458758
Long attack,0.581,0.292,0.003,0.774,0.050,0.561,0.270,Ranger524295
Heal (ANPC),0.581,0.292,0.003,0.774,0.050,0.561,0.270,ANPC196610
Long attack,0.581,0.292,0.003,0.774,0.050,0.561,0.270,Ranger458758
Long attack,0.581,0.292,0.003,0.774,0.050,0.561,0.270,Ranger524295
Long attack,0.581,0.292,0.003,0.774,0.050,0.561,0.270,Ranger458758
Long attack,0.581,0.292,0.003,0.774,0.050,0.561,0.270,Ranger524295
Move forward (ANPC),0.581,0.292,0.003,0.774,0.050,0.561,0.270,ANPC196610
Long attack,0.581,0.292,0.003,0.774,0.050,0.561,0.270,Ranger458758
Long attack,0.581,0.292,0.003,0.774,0.050,0.561,0.270,Ranger524295
Move backward (ANPC),0.581,0.292,0.003,0.774,0.050,0.561,0.270,ANPC196610
Long attack,0.581,0.292,0.003,0.774,0.050,0.561,0.270,Ranger458758
Long attack,0.581,0.292,0.003,0.774,0.050,0.561,0.270,Ranger524295
Defense (ANPC),0.581,0.292,0.003,0.774,0.050,0.561,0.270,ANPC196610
Long attack,0.581,0.292,0.003,0.774,0.050,0.561,0.270,Ranger458758
Long attack,0.581,0.292,0.003,0.774,0.050,0.561,0.270,Ranger524295
Defense (ANPC),0.581,0.292,0.003,0.774,0.050,0.561,0.270,ANPC196610
Long attack,0.581,0.292,0.003,0.774,0.050,0.561,0.270,Ranger458758
Long attack,0.581,0.292,0.003,0.774,0.050,0.561,0.270,Ranger524295
Range attack (ANPC),0.581,0.292,0.003,0.774,0.050,0.561,0.270,ANPC196610
Range attack (ANPC),0.581,0.292,0.003,0.774,0.050,0.561,0.270,ANPC196610
Long attack,0.581,0.292,0.003,0.774,0.050,0.561,0.270,Ranger458758
Long attack,0.581,0.292,0.003,0.774,0.050,0.561,0.270,Ranger524295
Long attack,0.581,0.292,0.003,0.774,0.050,0.561,0.270,Ranger458758
Long attack,0.581,0.292,0.003,0.774,0.050,0.561,0.270,Ranger524295
Defense (ANPC),0.581,0.292,0.003,0.774,0.050,0.561,0.270,ANPC196610
Long attack,0.581,0.292,0.003,0.774,0.050,0.561,0.270,Ranger458758
Long attack,0.581,0.292,0.003,0.774,0.050,0.561,0.270,Ranger524295
Heal (ANPC),0.581,0.292,0.003,0.774,0.050,0.561,0.270,ANPC196610
Long attack,0.581,0.292,0.003,0.774,0.050,0.561,0.270,Ranger458758
Long attack,0.581,0.292,0.003,0.774,0.050,0.561,0.270,Ranger524295
Short attack (ANPC),0.581,0.292,0.003,0.774,0.050,0.561,0.270,ANPC196610
Long attack,0.581,0.292,0.003,0.774,0.050,0.561,0.270,Ranger458758
Long attack,0.581,0.292,0.003,0.774,0.050,0.561,0.270,Ranger524295
Short attack (ANPC),0.581,0.292,0.003,0.774,0.050,0.561,0.270,ANPC196610
Long attack,0.581,0.292,0.003,0.774,0.050,0.561,0.270,Ranger458758
Long attack,0.581,0.292,0.003,0.774,0.050,0.561,0.270,Ranger524295
Range attack (ANPC),0.581,0.292,0.003,0.774,0.050,0.561,0.270,ANPC196610
Range attack (ANPC),0.581,0.292,0.003,0.774,0.050,0.561,0.270,ANPC196610
Long attack,0.581,0.292,0.003,0.774,0.050,0.561,0.270,Ranger458758
Long attack,0.581,0.292,0.003,0.774,0.050,0.561,0.270,Ranger524295
Long attack,0.581,0.292,0.003,0.774,0.050,0.561,0.270,Ranger458758
Long attack,0.581,0.292,0.003,0.774,0.050,0.561,0.270,Ranger524295
Range attack (ANPC),0.581,0.292,0.003,0.774,0.050,0.561,0.270,ANPC196610
Range attack (ANPC),0.581,0.292,0.003,0.774,0.050,0.561,0.270,ANPC196610
Long attack,0.581,0.292,0.003,0.774,0.050,0.561,0.270,Ranger458758
Long attack,0.581,0.292,0.003,0.774,0.050,0.561,0.270,Ranger524295
Short attack (ANPC),0.581,0.292,0.003,0.774,0.050,0.561,0.270,ANPC196610
Long attack,0.581,0.292,0.003,0.774,0.050,0.561,0.270,Ranger524295
Short attack (ANPC),0.581,0.292,0.003,0.774,0.050,0.561,0.270,ANPC196610
Long attack,0.581,0.292,0.003,0.774,0.050,0.561,0.270,Ranger524295
Defense (ANPC),0.581,0.292,0.003,0.774,0.050,0.561,0.270,ANPC196610
Long attack,0.581,0.292,0.003,0.774,0.050,0.561,0.270,Ranger524295
Range attack (ANPC),0.581,0.292,0.003,0.774,0.050,0.561,0.270,ANPC196610
Long attack,0.581,0.292,0.003,0.774,0.050,0.561,0.270,Ranger524295
Long attack,0.581,0.292,0.003,0.774,0.050,0.561,0.270,Ranger524295
Range attack (ANPC),0.581,0.292,0.003,0.774,0.050,0.561,0.270,ANPC196610
Long attack,0.581,0.292,0.003,0.774,0.050,0.561,0.270,Ranger524295
Defense (ANPC),0.581,0.292,0.003,0.774,0.050,0.561,0.270,ANPC196610
Long attack,0.581,0.292,0.003,0.774,0.050,0.561,0.270,Ranger524295
Defense (ANPC),0.581,0.292,0.003,0.774,0.050,0.561,0.270,ANPC196610
Long attack,0.581,0.292,0.003,0.774,0.050,0.561,0.270,Ranger524295
Defense (ANPC),0.581,0.292,0.003,0.774,0.050,0.561,0.270,ANPC196610
Long attack,0.581,0.292,0.003,0.774,0.050,0.561,0.270,Ranger524295
Range attack (ANPC),0.581,0.292,0.003,0.774,0.050,0.561,0.270,ANPC196610
Long attack,0.581,0.292,0.003,0.774,0.050,0.561,0.270,Ranger524295
Long attack,0.581,0.292,0.003,0.774,0.050,0.561,0.270,Ranger524295
Defense (ANPC),0.581,0.292,0.003,0.774,0.050,0.561,0.270,ANPC196610
Long attack,0.581,0.292,0.003,0.774,0.050,0.561,0.270,Ranger524295
Defense (ANPC),0.581,0.292,0.003,0.774,0.050,0.561,0.270,ANPC196610
Long attack,0.581,0.292,0.003,0.774,0.050,0.561,0.270,Ranger524295
Defense (ANPC),0.581,0.292,0.003,0.774,0.050,0.561,0.270,ANPC196610
Long attack,0.581,0.292,0.003,0.774,0.050,0.561,0.270,Ranger524295
Range attack (ANPC),0.581,0.292,0.003,0.774,0.050,0.561,0.270,ANPC196610
Long attack,0.581,0.292,0.003,0.774,0.050,0.561,0.270,Ranger524295
Range attack (ANPC),0.581,0.292,0.003,0.774,0.050,0.561,0.270,ANPC196610
Long attack,0.581,0.292,0.003,0.774,0.050,0.561,0.270,Ranger524295
Long attack,0.581,0.292,0.003,0.774,0.050,0.561,0.270,Ranger524295
Heal (ANPC),0.581,0.292,0.003,0.774,0.050,0.561,0.270,ANPC196610
Long attack,0.581,0.292,0.003,0.774,0.050,0.561,0.270,Ranger524295
Defense (ANPC),0.581,0.292,0.003,0.774,0.050,0.561,0.270,ANPC196610
Long attack,0.581,0.292,0.003,0.774,0.050,0.561,0.270,Ranger524295
Heal (ANPC),0.581,0.292,0.003,0.774,0.050,0.561,0.270,ANPC196610
Long attack,0.581,0.292,0.003,0.774,0.050,0.561,0.270,Ranger524295
Move forward (ANPC),0.581,0.292,0.003,0.774,0.050,0.561,0.270,ANPC196610
Long attack,0.581,0.292,0.003,0.774,0.050,0.561,0.270,Ranger524295
Heal (ANPC),0.581,0.292,0.003,0.774,0.050,0.561,0.270,ANPC196610
Long attack,0.581,0.292,0.003,0.774,0.050,0.561,0.270,Ranger524295
Long attack,0.581,0.292,0.003,0.774,0.050,0.561,0.270,Ranger524295
Move backward (ANPC),0.581,0.292,0.003,0.774,0.050,0.561,0.270,ANPC196610
Long attack,0.581,0.292,0.003,0.774,0.050,0.561,0.270,Ranger524295
Range attack (ANPC),0.581,0.292,0.003,0.774,0.050,0.561,0.270,ANPC196610
Long attack,0.581,0.292,0.003,0.774,0.050,0.561,0.270,Ranger524295
Defense (ANPC),0.581,0.292,0.003,0.774,0.050,0.561,0.270,ANPC196610
Long attack,0.581,0.292,0.003,0.774,0.050,0.561,0.270,Ranger524295
Range attack (ANPC),0.581,0.292,0.003,0.774,0.050,0.561,0.270,ANPC196610
Long attack,0.581,0.292,0.003,0.774,0.050,0.561,0.270,Ranger524295
Range attack (ANPC),0.581,0.292,0.003,0.774,0.050,0.561,0.270,ANPC196610
Long attack,0.581,0.292,0.003,0.774,0.050,0.561,0.270,Ranger524295
Long attack,0.581,0.292,0.003,0.774,0.050,0.561,0.270,Ranger524295
Defense (ANPC),0.581,0.292,0.003,0.774,0.050,0.561,0.270,ANPC196610
Long attack,0.581,0.292,0.003,0.774,0.050,0.561,0.270,Ranger524295
Short attack (ANPC),0.581,0.292,0.003,0.774,0.050,0.561,0.270,ANPC196610
Long attack,0.581,0.292,0.003,0.774,0.050,0.561,0.270,Ranger524295
Short attack (ANPC),0.581,0.292,0.003,0.774,0.050,0.561,0.270,ANPC196610
Long attack,0.581,0.292,0.003,0.774,0.050,0.561,0.270,Ranger524295
Heal (ANPC),0.581,0.292,0.003,0.774,0.050,0.561,0.270,ANPC196610
Long attack,0.581,0.292,0.003,0.774,0.050,0.561,0.270,Ranger524295
Range attack (ANPC),0.581,0.292,0.003,0.774,0.050,0.561,0.270,ANPC196610
Long attack,0.581,0.292,0.003,0.774,0.050,0.561,0.270,Ranger524295
Long attack,0.581,0.292,0.003,0.774,0.050,0.561,0.270,Ranger524295
Move forward (ANPC),0.581,0.292,0.003,0.774,0.050,0.561,0.270,ANPC196610
Long attack,0.581,0.292,0.003,0.774,0.050,0.561,0.270,Ranger524295
Range attack (ANPC),0.581,0.292,0.003,0.774,0.050,0.561,0.270,ANPC196610
Long attack,0.581,0.292,0.003,0.774,0.050,0.561,0.270,Ranger524295
Range attack (ANPC),0.581,0.292,0.003,0.774,0.050,0.561,0.270,ANPC196610
Long attack,0.581,0.292,0.003,0.774,0.050,0.561,0.270,Ranger524295
Defense (ANPC),0.581,0.292,0.003,0.774,0.050,0.561,0.270,ANPC196610
Long attack,0.581,0.292,0.003,0.774,0.050,0.561,0.270,Ranger524295
Move backward (ANPC),0.581,0.292,0.003,0.774,0.050,0.561,0.270,ANPC196610
Long attack,0.581,0.292,0.003,0.774,0.050,0.561,0.270,Ranger524295
Long attack,0.581,0.292,0.003,0.774,0.050,0.561,0.270,Ranger524295
Range attack (ANPC),0.581,0.292,0.003,0.774,0.050,0.561,0.270,ANPC196610
Long attack,0.581,0.292,0.003,0.774,0.050,0.561,0.270,Ranger524295
Range attack (ANPC),0.581,0.292,0.003,0.774,0.050,0.561,0.270,ANPC196610
Long attack,0.581,0.292,0.003,0.774,0.050,0.561,0.270,Ranger524295
Defense (ANPC),0.581,0.292,0.003,0.774,0.050,0.561,0.270,ANPC196610
Long attack,0.581,0.292,0.003,0.774,0.050,0.561,0.270,Ranger524295
Range attack (ANPC),0.581,0.292,0.003,0.774,0.050,0.561,0.270,ANPC196610
Long attack,0.581,0.292,0.003,0.774,0.050,0.561,0.270,Ranger524295
Heal (ANPC),0.581,0.292,0.003,0.774,0.050,0.561,0.270,ANPC196610
Long attack,0.581,0.292,0.003,0.774,0.050,0.561,0.270,Ranger524295
Long attack,0.581,0.292,0.003,0.774,0.050,0.561,0.270,Ranger524295
Defense (ANPC),0.581,0.292,0.003,0.774,0.050,0.561,0.270,ANPC196610
Long attack,0.581,0.292,0.003,0.774,0.050,0.561,0.270,Ranger524295
Heal (ANPC),0.581,0.292,0.003,0.774,0.050,0.561,0.270,ANPC196610
Long attack,0.581,0.292,0.003,0.774,0.050,0.561,0.270,Ranger524295
Range attack (ANPC),0.581,0.292,0.003,0.774,0.050,0.561,0.270,ANPC196610
Long attack,0.581,0.292,0.003,0.774,0.050,0.561,0.270,Ranger524295
Heal (ANPC),0.581,0.292,0.003,0.774,0.050,0.561,0.270,ANPC196610
Long attack,0.581,0.292,0.003,0.774,0.050,0.561,0.270,Ranger524295
Defense (ANPC),0.581,0.292,0.003,0.774,0.050,0.561,0.270,ANPC196610
Long attack,0.581,0.292,0.003,0.774,0.050,0.561,0.270,Ranger524295
Long attack,0.581,0.292,0.003,0.774,0.050,0.561,0.270,Ranger524295
Defense (ANPC),0.581,0.292,0.003,0.774,0.050,0.561,0.270,ANPC196610
Long attack,0.581,0.292,0.003,0.774,0.050,0.561,0.270,Ranger524295
Short attack (ANPC),0.581,0.292,0.003,0.774,0.050,0.561,0.270,ANPC196610
Long attack,0.581,0.292,0.003,0.774,0.050,0.561,0.270,Ranger524295
Range attack (ANPC),0.581,0.292,0.003,0.774,0.050,0.561,0.270,ANPC196610
Long attack,0.581,0.292,0.003,0.774,0.050,0.561,0.270,Ranger524295
Defense (ANPC),0.581,0.292,0.003,0.774,0.050,0.561,0.270,ANPC196610
Long attack,0.581,0.292,0.003,0.774,0.050,0.561,0.270,Ranger524295
Short attack (ANPC),0.581,0.292,0.003,0.774,0.050,0.561,0.270,ANPC196610
Long attack,0.581,0.292,0.003,0.774,0.050,0.561,0.270,Ranger524295
Long attack,0.581,0.292,0.003,0.774,0.050,0.561,0.270,Ranger524295
Defense (ANPC),0.581,0.292,0.003,0.774,0.050,0.561,0.270,ANPC196610
Long attack,0.581,0.292,0.003,0.774,0.050,0.561,0.270,Ranger524295
Defense (ANPC),0.581,0.292,0.003,0.774,0.050,0.561,0.270,ANPC196610
Long attack,0.581,0.292,0.003,0.774,0.050,0.561,0.270,Ranger524295
Defense (ANPC),0.581,0.292,0.003,0.774,0.050,0.561,0.270,ANPC196610
Long attack,0.581,0.292,0.003,0.774,0.050,0.561,0.270,Ranger524295
Range attack (ANPC),0.581,0.292,0.003,0.774,0.050,0.561,0.270,ANPC196610
Long attack,0.581,0.292,0.003,0.774,0.050,0.561,0.270,Ranger524295
Range attack (ANPC),0.581,0.292,0.003,0.774,0.050,0.561,0.270,ANPC196610
Long attack,0.581,0.292,0.003,0.774,0.050,0.561,0.270,Ranger524295
Long attack,0.581,0.292,0.003,0.774,0.050,0.561,0.270,Ranger524295
Short attack (ANPC),0.581,0.292,0.003,0.774,0.050,0.561,0.270,ANPC196610
Long attack,0.581,0.292,0.003,0.774,0.050,0.561,0.270,Ranger524295
Range attack (ANPC),0.581,0.292,0.003,0.774,0.050,0.561,0.270,ANPC196610
Long attack,0.581,0.292,0.003,0.774,0.050,0.561,0.270,Ranger524295
Defense (ANPC),0.581,0.292,0.003,0.774,0.050,0.561,0.270,ANPC196610
Long attack,0.581,0.292,0.003,0.774,0.050,0.561,0.270,Ranger524295
Move forward (ANPC),0.581,0.292,0.003,0.774,0.050,0.561,0.270,ANPC196610
Long attack,0.581,0.292,0.003,0.774,0.050,0.561,0.270,Ranger524295
Range attack (ANPC),0.581,0.292,0.003,0.774,0.050,0.561,0.270,ANPC196610
Long attack,0.581,0.292,0.003,0.774,0.050,0.561,0.270,Ranger524295
Long attack,0.581,0.292,0.003,0.774,0.050,0.561,0.270,Ranger524295
Range attack (ANPC),0.581,0.292,0.003,0.774,0.050,0.561,0.270,ANPC196610
Long attack,0.581,0.292,0.003,0.774,0.050,0.561,0.270,Ranger524295
Defense (ANPC),0.581,0.292,0.003,0.774,0.050,0.561,0.270,ANPC196610
Long attack,0.581,0.292,0.003,0.774,0.050,0.561,0.270,Ranger524295
Defense (ANPC),0.581,0.292,0.003,0.774,0.050,0.561,0.270,ANPC196610
Long attack,0.581,0.292,0.003,0.774,0.050,0.561,0.270,Ranger524295
Heal (ANPC),0.581,0.292,0.003,0.774,0.050,0.561,0.270,ANPC196610
Long attack,0.581,0.292,0.003,0.774,0.050,0.561,0.270,Ranger524295
Defense (ANPC),0.581,0.292,0.003,0.774,0.050,0.561,0.270,ANPC196610
Long attack,0.581,0.292,0.003,0.774,0.050,0.561,0.270,Ranger524295
Long attack,0.581,0.292,0.003,0.774,0.050,0.561,0.270,Ranger524295
Move backward (ANPC),0.581,0.292,0.003,0.774,0.050,0.561,0.270,ANPC196610
Long attack,0.581,0.292,0.003,0.774,0.050,0.561,0.270,Ranger524295
Range attack (ANPC),0.581,0.292,0.003,0.774,0.050,0.561,0.270,ANPC196610
Long attack,0.581,0.292,0.003,0.774,0.050,0.561,0.270,Ranger524295
Heal (ANPC),0.581,0.292,0.003,0.774,0.050,0.561,0.270,ANPC196610
Long attack,0.581,0.292,0.003,0.774,0.050,0.561,0.270,Ranger524295
Defense (ANPC),0.581,0.292,0.003,0.774,0.050,0.561,0.270,ANPC196610
Long attack,0.581,0.292,0.003,0.774,0.050,0.561,0.270,Ranger524295
Defense (ANPC),0.581,0.292,0.003,0.774,0.050,0.561,0.270,ANPC196610
Long attack,0.581,0.292,0.003,0.774,0.050,0.561,0.270,Ranger524295
Long attack,0.581,0.292,0.003,0.774,0.050,0.561,0.270,Ranger524295
Short attack (ANPC),0.581,0.292,0.003,0.774,0.050,0.561,0.270,ANPC196610
Long attack,0.581,0.292,0.003,0.774,0.050,0.561,0.270,Ranger524295
Range attack (ANPC),0.581,0.292,0.003,0.774,0.050,0.561,0.270,ANPC196610
Long attack,0.581,0.292,0.003,0.774,0.050,0.561,0.270,Ranger524295
Defense (ANPC),0.581,0.292,0.003,0.774,0.050,0.561,0.270,ANPC196610
Long attack,0.581,0.292,0.003,0.774,0.050,0.561,0.270,Ranger524295
Range attack (ANPC),0.581,0.292,0.003,0.774,0.050,0.561,0.270,ANPC196610
Long attack,0.581,0.292,0.003,0.774,0.050,0.561,0.270,Ranger524295
Heal (ANPC),0.581,0.292,0.003,0.774,0.050,0.561,0.270,ANPC196610
Long attack,0.581,0.292,0.003,0.774,0.050,0.561,0.270,Ranger524295
Long attack,0.581,0.292,0.003,0.774,0.050,0.561,0.270,Ranger524295
Range attack (ANPC),0.581,0.292,0.003,0.774,0.050,0.561,0.270,ANPC196610
Long attack,0.581,0.292,0.003,0.774,0.050,0.561,0.270,Ranger524295
Range attack (ANPC),0.581,0.292,0.003,0.774,0.050,0.561,0.270,ANPC196610
Long attack,0.581,0.292,0.003,0.774,0.050,0.561,0.270,Ranger524295
Short attack (ANPC),0.581,0.292,0.003,0.774,0.050,0.561,0.270,ANPC196610
Long attack,0.581,0.292,0.003,0.774,0.050,0.561,0.270,Ranger524295
Short attack (ANPC),0.581,0.292,0.003,0.774,0.050,0.561,0.270,ANPC196610
Long attack,0.581,0.292,0.003,0.774,0.050,0.561,0.270,Ranger524295
Defense (ANPC),0.581,0.292,0.003,0.774,0.050,0.561,0.270,ANPC196610
Long attack,0.581,0.292,0.003,0.774,0.050,0.561,0.270,Ranger524295
Long attack,0.581,0.292,0.003,0.774,0.050,0.561,0.270,Ranger524295
Defense (ANPC),0.581,0.292,0.003,0.774,0.050,0.561,0.270,ANPC196610
Long attack,0.581,0.292,0.003,0.774,0.050,0.561,0.270,Ranger524295
Heal (ANPC),0.581,0.292,0.003,0.774,0.050,0.561,0.270,ANPC196610
Long attack,0.581,0.292,0.003,0.774,0.050,0.561,0.270,Ranger524295
Range attack (ANPC),0.581,0.292,0.003,0.774,0.050,0.561,0.270,ANPC196610
Long attack,0.581,0.292,0.003,0.774,0.050,0.561,0.270,Ranger524295
Short attack (ANPC),0.581,0.292,0.003,0.774,0.050,0.561,0.270,ANPC196610
Long attack,0.581,0.292,0.003,0.774,0.050,0.561,0.270,Ranger524295
Range attack (ANPC),0.581,0.292,0.003,0.774,0.050,0.561,0.270,ANPC196610
Long attack,0.581,0.292,0.003,0.774,0.050,0.561,0.270,Ranger524295
Long attack,0.581,0.292,0.003,0.774,0.050,0.561,0.270,Ranger524295
Defense (ANPC),0.581,0.292,0.003,0.774,0.050,0.561,0.270,ANPC196610
Long attack,0.581,0.292,0.003,0.774,0.050,0.561,0.270,Ranger524295
Range attack (ANPC),0.581,0.292,0.003,0.774,0.050,0.561,0.270,ANPC196610
Long attack,0.581,0.292,0.003,0.774,0.050,0.561,0.270,Ranger524295
Move forward (ANPC),0.581,0.292,0.003,0.774,0.050,0.561,0.270,ANPC196610
Long attack,0.581,0.292,0.003,0.774,0.050,0.561,0.270,Ranger524295
Heal (ANPC),0.581,0.292,0.003,0.774,0.050,0.561,0.270,ANPC196610
Long attack,0.581,0.292,0.003,0.774,0.050,0.561,0.270,Ranger524295
Move backward (ANPC),0.581,0.292,0.003,0.774,0.050,0.561,0.270,ANPC196610
Long attack,0.581,0.292,0.003,0.774,0.050,0.561,0.270,Ranger524295
Long attack,0.581,0.292,0.003,0.774,0.050,0.561,0.270,Ranger524295
Defense (ANPC),0.581,0.292,0.003,0.774,0.050,0.561,0.270,ANPC196610
Long attack,0.581,0.292,0.003,0.774,0.050,0.561,0.270,Ranger524295
Range attack (ANPC),0.581,0.292,0.003,0.774,0.050,0.561,0.270,ANPC196610
Long attack,0.581,0.292,0.003,0.774,0.050,0.561,0.270,Ranger524295
Range attack (ANPC),0.581,0.292,0.003,0.774,0.050,0.561,0.270,ANPC196610
Long attack,0.581,0.292,0.003,0.774,0.050,0.561,0.270,Ranger524295
Range attack (ANPC),0.581,0.292,0.003,0.774,0.050,0.561,0.270,ANPC196610
Long attack,0.581,0.292,0.003,0.774,0.050,0.561,0.270,Ranger524295
Range attack (ANPC),0.581,0.292,0.003,0.774,0.050,0.561,0.270,ANPC196610
Long attack,0.581,0.292,0.003,0.774,0.050,0.561,0.270,Ranger524295
Long attack,0.581,0.292,0.003,0.774,0.050,0.561,0.270,Ranger524295
Defense (ANPC),0.581,0.292,0.003,0.774,0.050,0.561,0.270,ANPC196610
Long attack,0.581,0.292,0.003,0.774,0.050,0.561,0.270,Ranger524295
Range attack (ANPC),0.581,0.292,0.003,0.774,0.050,0.561,0.270,ANPC196610
Long attack,0.581,0.292,0.003,0.774,0.050,0.561,0.270,Ranger524295
Defense (ANPC),0.581,0.292,0.003,0.774,0.050,0.561,0.270,ANPC196610
Long attack,0.581,0.292,0.003,0.774,0.050,0.561,0.270,Ranger524295
Short attack (ANPC),0.581,0.292,0.003,0.774,0.050,0.561,0.270,ANPC196610
Defense (ANPC),0.581,0.292,0.003,0.774,0.050,0.561,0.270,ANPC196610
Defense (ANPC),0.581,0.292,0.003,0.774,0.050,0.561,0.270,ANPC196610
Move forward (ANPC),0.581,0.292,0.003,0.774,0.050,0.561,0.270,ANPC196610
Move backward (ANPC),0.581,0.292,0.003,0.774,0.050,0.561,0.270,ANPC196610
Heal (ANPC),0.581,0.292,0.003,0.774,0.050,0.561,0.270,ANPC196610
Heal (ANPC),0.581,0.292,0.003,0.774,0.050,0.561,0.270,ANPC196610
Short attack (ANPC),0.581,0.292,0.003,0.774,0.050,0.561,0.270,ANPC196610
Defense (ANPC),0.581,0.292,0.003,0.774,0.050,0.561,0.270,ANPC196610
Heal (ANPC),0.581,0.292,0.003,0.774,0.050,0.561,0.270,ANPC196610
Defense (ANPC),0.581,0.292,0.003,0.774,0.050,0.561,0.270,ANPC196610
Heal (ANPC),0.581,0.292,0.003,0.774,0.050,0.561,0.270,ANPC196610
Short attack (ANPC),0.581,0.292,0.003,0.774,0.050,0.561,0.270,ANPC196610
Range attack (ANPC),0.581,0.292,0.003,0.774,0.059,0.561,0.248,ANPC196610
Range attack (ANPC),0.581,0.292,0.003,0.774,0.059,0.561,0.226,ANPC196610
Defense (ANPC),0.581,0.292,0.003,0.774,0.059,0.561,0.226,ANPC196610
Defense (ANPC),0.581,0.292,0.003,0.774,0.059,0.561,0.226,ANPC196610
Heal (ANPC),0.581,0.292,0.003,0.774,0.059,0.561,0.226,ANPC196610
Heal (ANPC),0.581,0.292,0.003,0.774,0.059,0.561,0.226,ANPC196610
Short attack (ANPC),0.581,0.292,0.003,0.774,0.059,0.561,0.285,ANPC196610
Range attack (ANPC),0.581,0.292,0.003,0.774,0.059,0.561,0.263,ANPC196610
Range attack (ANPC),0.581,0.292,0.003,0.774,0.059,0.561,0.240,ANPC196610
Defense (ANPC),0.581,0.292,0.003,0.774,0.059,0.561,0.240,ANPC196610
Heal (ANPC),0.581,0.292,0.003,0.774,0.059,0.561,0.240,ANPC196610
Defense (ANPC),0.581,0.292,0.003,0.774,0.059,0.561,0.240,ANPC196610
Heal (ANPC),0.581,0.292,0.003,0.774,0.059,0.561,0.240,ANPC196610
Defense (ANPC),0.581,0.292,0.003,0.774,0.059,0.561,0.240,ANPC196610
Short attack (ANPC),0.581,0.292,0.003,0.774,0.059,0.561,0.285,ANPC196610
Defense (ANPC),0.581,0.292,0.003,0.774,0.059,0.561,0.285,ANPC196610
Heal (ANPC),0.581,0.292,0.003,0.774,0.059,0.561,0.285,ANPC196610
Short attack (ANPC),0.581,0.292,0.003,0.774,0.059,0.561,0.285,ANPC196610
Defense (ANPC),0.581,0.292,0.003,0.774,0.059,0.561,0.285,ANPC196610
Range attack (ANPC),0.581,0.292,0.003,0.774,0.059,0.561,0.285,ANPC196610
Range attack (ANPC),0.581,0.292,0.003,0.774,0.059,0.561,0.285,ANPC196610
Range attack (ANPC),0.581,0.292,0.003,0.774,0.059,0.561,0.285,ANPC196610
Range attack (ANPC),0.581,0.292,0.003,0.774,0.059,0.561,0.285,ANPC196610
Defense (ANPC),0.581,0.292,0.003,0.774,0.059,0.561,0.285,ANPC196610
Short attack (ANPC),0.581,0.292,0.003,0.774,0.059,0.561,0.285,ANPC196610
Range attack (ANPC),0.581,0.292,0.003,0.774,0.059,0.561,0.263,ANPC196610
Range attack (ANPC),0.581,0.292,0.003,0.774,0.059,0.561,0.240,ANPC196610
Range attack (ANPC),0.581,0.292,0.003,0.774,0.059,0.561,0.218,ANPC196610
Range attack (ANPC),0.581,0.292,0.003,0.774,0.059,0.561,0.196,ANPC196610
Defense (ANPC),0.581,0.292,0.003,0.774,0.059,0.561,0.196,ANPC196610
Defense (ANPC),0.581,0.292,0.003,0.774,0.059,0.561,0.196,ANPC196610
Heal (ANPC),0.581,0.292,0.003,0.774,0.059,0.561,0.196,ANPC196610
Defense (ANPC),0.581,0.292,0.003,0.774,0.059,0.561,0.196,ANPC196610
Defense (ANPC),0.581,0.292,0.003,0.774,0.059,0.561,0.196,ANPC196610
Defense (ANPC),0.581,0.292,0.003,0.774,0.059,0.561,0.196,ANPC196610
Defense (ANPC),0.581,0.292,0.003,0.774,0.059,0.561,0.196,ANPC196610
Heal (ANPC),0.581,0.292,0.003,0.774,0.059,0.561,0.196,ANPC196610
Short attack (ANPC),0.581,0.292,0.003,0.774,0.059,0.561,0.285,ANPC196610
Defense (ANPC),0.581,0.292,0.003,0.774,0.059,0.561,0.285,ANPC196610
Move forward (ANPC),0.581,0.292,0.003,0.774,0.059,0.561,0.285,ANPC196610
Range attack (ANPC),0.581,0.292,0.003,0.774,0.059,0.561,0.285,ANPC196610
Range attack (ANPC),0.581,0.292,0.003,0.774,0.059,0.561,0.285,ANPC196610
Move backward (ANPC),0.581,0.292,0.003,0.774,0.059,0.561,0.285,ANPC196610
Range attack (ANPC),0.581,0.292,0.003,0.774,0.059,0.561,0.285,ANPC196610
Range attack (ANPC),0.581,0.292,0.003,0.774,0.059,0.561,0.285,ANPC196610
Range attack (ANPC),0.581,0.292,0.003,0.774,0.059,0.561,0.285,ANPC196610
Range attack (ANPC),0.581,0.292,0.003,0.774,0.059,0.561,0.285,ANPC196610
Range attack (ANPC),0.581,0.292,0.003,0.774,0.059,0.561,0.285,ANPC196610
Range attack (ANPC),0.581,0.292,0.003,0.774,0.059,0.561,0.285,ANPC196610
Defense (ANPC),0.581,0.292,0.003,0.774,0.050,0.561,0.285,ANPC196610
Defense (ANPC),0.581,0.292,0.003,0.774,0.050,0.561,0.285,ANPC196610
Heal (ANPC),0.581,0.292,0.003,0.774,0.050,0.561,0.285,ANPC196610
Defense (ANPC),0.581,0.292,0.003,0.774,0.050,0.561,0.285,ANPC196610
Defense (ANPC),0.581,0.292,0.003,0.774,0.050,0.561,0.285,ANPC196610
Heal (ANPC),0.581,0.292,0.003,0.774,0.050,0.561,0.285,ANPC196610
Defense (ANPC),0.581,0.292,0.003,0.774,0.050,0.561,0.285,ANPC196610
Short attack (ANPC),0.581,0.292,0.003,0.774,0.050,0.561,0.285,ANPC196610
Range attack (ANPC),0.581,0.292,0.003,0.774,0.050,0.561,0.263,ANPC196610
Range attack (ANPC),0.581,0.292,0.003,0.774,0.050,0.561,0.240,ANPC196610
Heal (ANPC),0.581,0.292,0.003,0.774,0.050,0.561,0.240,ANPC196610
Defense (ANPC),0.581,0.292,0.003,0.774,0.050,0.561,0.240,ANPC196610
Heal (ANPC),0.581,0.292,0.003,0.774,0.050,0.561,0.240,ANPC196610
Short attack (ANPC),0.581,0.292,0.003,0.774,0.050,0.561,0.288,ANPC196610
Short attack (ANPC),0.581,0.292,0.003,0.774,0.050,0.561,0.288,ANPC196610
Defense (ANPC),0.581,0.292,0.003,0.774,0.050,0.561,0.288,ANPC196610
Defense (ANPC),0.581,0.292,0.003,0.774,0.050,0.561,0.288,ANPC196610
Range attack (ANPC),0.581,0.292,0.003,0.774,0.050,0.561,0.288,ANPC196610
Range attack (ANPC),0.581,0.292,0.003,0.774,0.050,0.561,0.288,ANPC196610
Short attack (ANPC),0.581,0.292,0.003,0.774,0.050,0.561,0.288,ANPC196610
Short attack (ANPC),0.581,0.292,0.003,0.774,0.050,0.561,0.288,ANPC196610
Range attack (ANPC),0.581,0.292,0.003,0.774,0.050,0.561,0.266,ANPC196610
Defense (ANPC),0.581,0.292,0.003,0.774,0.050,0.561,0.266,ANPC196610
Range attack (ANPC),0.581,0.292,0.003,0.774,0.050,0.561,0.266,ANPC196610
Short attack (ANPC),0.581,0.292,0.003,0.774,0.050,0.561,0.266,ANPC196610
Heal (ANPC),0.581,0.292,0.003,0.774,0.050,0.561,0.266,ANPC196610
Defense (ANPC),0.581,0.292,0.003,0.774,0.050,0.561,0.266,ANPC196610
Move forward (ANPC),0.581,0.292,0.003,0.774,0.050,0.561,0.266,ANPC196610
Defense (ANPC),0.581,0.292,0.003,0.774,0.050,0.561,0.266,ANPC196610
Move backward (ANPC),0.581,0.292,0.003,0.774,0.050,0.561,0.266,ANPC196610
Defense (ANPC),0.581,0.292,0.003,0.774,0.050,0.561,0.266,ANPC196610
Heal (ANPC),0.581,0.292,0.003,0.774,0.050,0.561,0.266,ANPC196610
Defense (ANPC),0.581,0.292,0.003,0.774,0.050,0.561,0.266,ANPC196610
Defense (ANPC),0.581,0.292,0.003,0.774,0.050,0.561,0.266,ANPC196610
Heal (ANPC),0.581,0.292,0.003,0.774,0.050,0.561,0.266,ANPC196610
Heal (ANPC),0.581,0.292,0.003,0.774,0.050,0.561,0.266,ANPC196610
Short attack (ANPC),0.581,0.292,0.003,0.774,0.050,0.561,0.266,ANPC196610
Short attack (ANPC),0.581,0.292,0.003,0.774,0.050,0.561,0.266,ANPC196610
Move forward (ANPC),0.581,0.292,0.003,0.774,0.050,0.561,0.266,ANPC196610
Defense (ANPC),0.581,0.292,0.003,0.774,0.050,0.561,0.266,ANPC196610
Defense (ANPC),0.581,0.292,0.003,0.774,0.050,0.561,0.266,ANPC196610
Long attack (ANPC),0.581,0.292,0.000,0.774,0.050,0.561,0.266,ANPC196610
Move backward (ANPC),0.581,0.292,0.000,0.774,0.050,0.561,0.266,ANPC196610
Heal (ANPC),0.581,0.292,0.000,0.774,0.050,0.561,0.266,ANPC196610
Heal (ANPC),0.581,0.292,0.000,0.774,0.050,0.561,0.266,ANPC196610
Defense (ANPC),0.581,0.292,0.000,0.774,0.050,0.561,0.266,ANPC196610
Heal (ANPC),0.581,0.292,0.000,0.774,0.050,0.561,0.266,ANPC196610
Short attack (ANPC),0.581,0.292,0.000,0.774,0.050,0.561,0.266,ANPC196610
Range attack (ANPC),0.581,0.292,0.000,0.774,0.061,0.561,0.243,ANPC196610
Range attack (ANPC),0.581,0.292,0.000,0.774,0.061,0.561,0.221,ANPC196610
Range attack (ANPC),0.581,0.292,0.000,0.774,0.061,0.561,0.199,ANPC196610
Defense (ANPC),0.581,0.292,0.000,0.774,0.061,0.561,0.199,ANPC196610
Range attack (ANPC),0.581,0.292,0.000,0.774,0.061,0.561,0.199,ANPC196610
Defense (ANPC),0.581,0.292,0.000,0.774,0.061,0.561,0.199,ANPC196610
Heal (ANPC),0.581,0.292,0.000,0.774,0.061,0.561,0.199,ANPC196610
Heal (ANPC),0.581,0.292,0.000,0.774,0.061,0.561,0.199,ANPC196610
Defense (ANPC),0.581,0.292,0.000,0.7