^C:\USERS\JAKE KLINKERT\DOCUMENTS\SCHOOL\HUMIN GAME LAB\APF\GIT\STATIC LIB\CODE\APF_LIB.CPP
/c /Zi /nologo /W4 /WX- /diagnostics:column /O2 /Oi /GL /D NDEBUG /D _LIB /D _WINDLL /D _UNICODE /D UNICODE /Gm- /EHsc /MD /GS /Gy /fp:precise /permissive- /Zc:wchar_t /Zc:forScope /Zc:inline /Fo"X64\RELEASE\\" /Fd"X64\RELEASE\VC142.PDB" /external:W4 /Gd /TP /FC C:\USERS\JAKE KLINKERT\DOCUMENTS\SCHOOL\HUMIN GAME LAB\APF\GIT\STATIC LIB\CODE\APF_LIB.CPP
^C:\USERS\JAKE KLINKERT\DOCUMENTS\SCHOOL\HUMIN GAME LAB\APF\GIT\STATIC LIB\CODE\EVENT.CPP
/c /Zi /nologo /W4 /WX- /diagnostics:column /O2 /Oi /GL /D NDEBUG /D _LIB /D _WINDLL /D _UNICODE /D UNICODE /Gm- /EHsc /MD /GS /Gy /fp:precise /permissive- /Zc:wchar_t /Zc:forScope /Zc:inline /Fo"X64\RELEASE\\" /Fd"X64\RELEASE\VC142.PDB" /external:W4 /Gd /TP /FC C:\USERS\JAKE KLINKERT\DOCUMENTS\SCHOOL\HUMIN GAME LAB\APF\GIT\STATIC LIB\CODE\EVENT.CPP
^C:\USERS\JAKE KLINKERT\DOCUMENTS\SCHOOL\HUMIN GAME LAB\APF\GIT\STATIC LIB\CODE\LIBCOMMON.CPP
/c /Zi /nologo /W4 /WX- /diagnostics:column /O2 /Oi /GL /D NDEBUG /D _LIB /D _WINDLL /D _UNICODE /D UNICODE /Gm- /EHsc /MD /GS /Gy /fp:precise /permissive- /Zc:wchar_t /Zc:forScope /Zc:inline /Fo"X64\RELEASE\\" /Fd"X64\RELEASE\VC142.PDB" /external:W4 /Gd /TP /FC C:\USERS\JAKE KLINKERT\DOCUMENTS\SCHOOL\HUMIN GAME LAB\APF\GIT\STATIC LIB\CODE\LIBCOMMON.CPP
^C:\USERS\JAKE KLINKERT\DOCUMENTS\SCHOOL\HUMIN GAME LAB\APF\GIT\STATIC LIB\CODE\MENTALSTATE.CPP
/c /Zi /nologo /W4 /WX- /diagnostics:column /O2 /Oi /GL /D NDEBUG /D _LIB /D _WINDLL /D _UNICODE /D UNICODE /Gm- /EHsc /MD /GS /Gy /fp:precise /permissive- /Zc:wchar_t /Zc:forScope /Zc:inline /Fo"X64\RELEASE\\" /Fd"X64\RELEASE\VC142.PDB" /external:W4 /Gd /TP /FC C:\USERS\JAKE KLINKERT\DOCUMENTS\SCHOOL\HUMIN GAME LAB\APF\GIT\STATIC LIB\CODE\MENTALSTATE.CPP
^C:\USERS\JAKE KLINKERT\DOCUMENTS\SCHOOL\HUMIN GAME LAB\APF\GIT\STATIC LIB\CODE\RELATIONS.CPP
/c /Zi /nologo /W4 /WX- /diagnostics:column /O2 /Oi /GL /D NDEBUG /D _LIB /D _WINDLL /D _UNICODE /D UNICODE /Gm- /EHsc /MD /GS /Gy /fp:precise /permissive- /Zc:wchar_t /Zc:forScope /Zc:inline /Fo"X64\RELEASE\\" /Fd"X64\RELEASE\VC142.PDB" /external:W4 /Gd /TP /FC C:\USERS\JAKE KLINKERT\DOCUMENTS\SCHOOL\HUMIN GAME LAB\APF\GIT\STATIC LIB\CODE\RELATIONS.CPP
^C:\USERS\JAKE KLINKERT\DOCUMENTS\SCHOOL\HUMIN GAME LAB\APF\GIT\STATIC LIB\CODE\TRAIT.CPP
/c /Zi /nologo /W4 /WX- /diagnostics:column /O2 /Oi /GL /D NDEBUG /D _LIB /D _WINDLL /D _UNICODE /D UNICODE /Gm- /EHsc /MD /GS /Gy /fp:precise /permissive- /Zc:wchar_t /Zc:forScope /Zc:inline /Fo"X64\RELEASE\\" /Fd"X64\RELEASE\VC142.PDB" /external:W4 /Gd /TP /FC C:\USERS\JAKE KLINKERT\DOCUMENTS\SCHOOL\HUMIN GAME LAB\APF\GIT\STATIC LIB\CODE\TRAIT.CPP
^C:\USERS\JAKE KLINKERT\DOCUMENTS\SCHOOL\HUMIN GAME LAB\APF\GIT\STATIC LIB\CODE\VOCABULARY.CPP
/c /Zi /nologo /W4 /WX- /diagnostics:column /O2 /Oi /GL /D NDEBUG /D _LIB /D _WINDLL /D _UNICODE /D UNICODE /Gm- /EHsc /MD /GS /Gy /fp:precise /permissive- /Zc:wchar_t /Zc:forScope /Zc:inline /Fo"X64\RELEASE\\" /Fd"X64\RELEASE\VC142.PDB" /external:W4 /Gd /TP /FC C:\USERS\JAKE KLINKERT\DOCUMENTS\SCHOOL\HUMIN GAME LAB\APF\GIT\STATIC LIB\CODE\VOCABULARY.CPP
