\relax 
\bibstyle{aaai24}
\providecommand*\caption@xref[2]{\@setref\relax\@undefined{#1}}
\newlabel{table1}{{1}{5}{}{}{}}
\newlabel{table2}{{2}{5}{}{}{}}
\newlabel{fig1}{{1}{7}{}{}{}}
\newlabel{fig2}{{2}{8}{}{}{}}
\newlabel{alg:algorithm}{{1}{8}{}{}{}}
\newlabel{lst:listing}{{1}{9}{}{}{}}
\citation{em:86}
\citation{r:80}
\citation{hcr:83}
\citation{c:83}
\citation{c:84}
\citation{r:86}
\citation{c:79}
\citation{c:21}
\citation{c:22}
\citation{c:23}
\bibdata{aaai24}
\newlabel{sec:reference_examples}{{}{10}{}{}{}}
\gdef \@abspage@last{10}
