^C:\USERS\JAKE KLINKERT\DOCUMENTS\SCHOOL\HUMIN GAME LAB\APF\GIT\EXPERIMENT\CODE\GAME\ACTION.CPP
/c /I"C:\USERS\JAKE KLINKERT\DOCUMENTS\SCHOOL\HUMIN GAME LAB\APF\GIT\EXPERIMENT\CODE/SUBMODULE/ENGINE/CODE/" /I"C:\USERS\JAKE KLINKERT\DOCUMENTS\SCHOOL\HUMIN GAME LAB\APF\GIT\EXPERIMENT\CODE/" /ZI /JMC /nologo /W4 /WX- /diagnostics:column /Od /D _DEBUG /D _WINDOWS /D _UNICODE /D UNICODE /Gm- /EHsc /RTC1 /MDd /GS /fp:precise /permissive- /Zc:wchar_t /Zc:forScope /Zc:inline /std:c++17 /Fo"C:\USERS\JAKE KLINKERT\DOCUMENTS\SCHOOL\HUMIN GAME LAB\APF\GIT\EXPERIMENT\TEMPORARY\EMOTIONALMODELING_X64_DEBUG\\" /Fd"C:\USERS\JAKE KLINKERT\DOCUMENTS\SCHOOL\HUMIN GAME LAB\APF\GIT\EXPERIMENT\TEMPORARY\EMOTIONALMODELING_X64_DEBUG\VC142.PDB" /external:W4 /Gd /TP /FC C:\USERS\JAKE KLINKERT\DOCUMENTS\SCHOOL\HUMIN GAME LAB\APF\GIT\EXPERIMENT\CODE\GAME\ACTION.CPP
^C:\USERS\JAKE KLINKERT\DOCUMENTS\SCHOOL\HUMIN GAME LAB\APF\GIT\EXPERIMENT\CODE\GAME\ACTOR.CPP
/c /I"C:\USERS\JAKE KLINKERT\DOCUMENTS\SCHOOL\HUMIN GAME LAB\APF\GIT\EXPERIMENT\CODE/SUBMODULE/ENGINE/CODE/" /I"C:\USERS\JAKE KLINKERT\DOCUMENTS\SCHOOL\HUMIN GAME LAB\APF\GIT\EXPERIMENT\CODE/" /ZI /JMC /nologo /W4 /WX- /diagnostics:column /Od /D _DEBUG /D _WINDOWS /D _UNICODE /D UNICODE /Gm- /EHsc /RTC1 /MDd /GS /fp:precise /permissive- /Zc:wchar_t /Zc:forScope /Zc:inline /std:c++17 /Fo"C:\USERS\JAKE KLINKERT\DOCUMENTS\SCHOOL\HUMIN GAME LAB\APF\GIT\EXPERIMENT\TEMPORARY\EMOTIONALMODELING_X64_DEBUG\\" /Fd"C:\USERS\JAKE KLINKERT\DOCUMENTS\SCHOOL\HUMIN GAME LAB\APF\GIT\EXPERIMENT\TEMPORARY\EMOTIONALMODELING_X64_DEBUG\VC142.PDB" /external:W4 /Gd /TP /FC C:\USERS\JAKE KLINKERT\DOCUMENTS\SCHOOL\HUMIN GAME LAB\APF\GIT\EXPERIMENT\CODE\GAME\ACTOR.CPP
^C:\USERS\JAKE KLINKERT\DOCUMENTS\SCHOOL\HUMIN GAME LAB\APF\GIT\EXPERIMENT\CODE\GAME\APP.CPP
/c /I"C:\USERS\JAKE KLINKERT\DOCUMENTS\SCHOOL\HUMIN GAME LAB\APF\GIT\EXPERIMENT\CODE/SUBMODULE/ENGINE/CODE/" /I"C:\USERS\JAKE KLINKERT\DOCUMENTS\SCHOOL\HUMIN GAME LAB\APF\GIT\EXPERIMENT\CODE/" /ZI /JMC /nologo /W4 /WX- /diagnostics:column /Od /D _DEBUG /D _WINDOWS /D _UNICODE /D UNICODE /Gm- /EHsc /RTC1 /MDd /GS /fp:precise /permissive- /Zc:wchar_t /Zc:forScope /Zc:inline /std:c++17 /Fo"C:\USERS\JAKE KLINKERT\DOCUMENTS\SCHOOL\HUMIN GAME LAB\APF\GIT\EXPERIMENT\TEMPORARY\EMOTIONALMODELING_X64_DEBUG\\" /Fd"C:\USERS\JAKE KLINKERT\DOCUMENTS\SCHOOL\HUMIN GAME LAB\APF\GIT\EXPERIMENT\TEMPORARY\EMOTIONALMODELING_X64_DEBUG\VC142.PDB" /external:W4 /Gd /TP /FC C:\USERS\JAKE KLINKERT\DOCUMENTS\SCHOOL\HUMIN GAME LAB\APF\GIT\EXPERIMENT\CODE\GAME\APP.CPP
^C:\USERS\JAKE KLINKERT\DOCUMENTS\SCHOOL\HUMIN GAME LAB\APF\GIT\EXPERIMENT\CODE\GAME\ATTITUDE.CPP
/c /I"C:\USERS\JAKE KLINKERT\DOCUMENTS\SCHOOL\HUMIN GAME LAB\APF\GIT\EXPERIMENT\CODE/SUBMODULE/ENGINE/CODE/" /I"C:\USERS\JAKE KLINKERT\DOCUMENTS\SCHOOL\HUMIN GAME LAB\APF\GIT\EXPERIMENT\CODE/" /ZI /JMC /nologo /W4 /WX- /diagnostics:column /Od /D _DEBUG /D _WINDOWS /D _UNICODE /D UNICODE /Gm- /EHsc /RTC1 /MDd /GS /fp:precise /permissive- /Zc:wchar_t /Zc:forScope /Zc:inline /std:c++17 /Fo"C:\USERS\JAKE KLINKERT\DOCUMENTS\SCHOOL\HUMIN GAME LAB\APF\GIT\EXPERIMENT\TEMPORARY\EMOTIONALMODELING_X64_DEBUG\\" /Fd"C:\USERS\JAKE KLINKERT\DOCUMENTS\SCHOOL\HUMIN GAME LAB\APF\GIT\EXPERIMENT\TEMPORARY\EMOTIONALMODELING_X64_DEBUG\VC142.PDB" /external:W4 /Gd /TP /FC C:\USERS\JAKE KLINKERT\DOCUMENTS\SCHOOL\HUMIN GAME LAB\APF\GIT\EXPERIMENT\CODE\GAME\ATTITUDE.CPP
^C:\USERS\JAKE KLINKERT\DOCUMENTS\SCHOOL\HUMIN GAME LAB\APF\GIT\EXPERIMENT\CODE\GAME\ATTITUDERELATION.CPP
/c /I"C:\USERS\JAKE KLINKERT\DOCUMENTS\SCHOOL\HUMIN GAME LAB\APF\GIT\EXPERIMENT\CODE/SUBMODULE/ENGINE/CODE/" /I"C:\USERS\JAKE KLINKERT\DOCUMENTS\SCHOOL\HUMIN GAME LAB\APF\GIT\EXPERIMENT\CODE/" /ZI /JMC /nologo /W4 /WX- /diagnostics:column /Od /D _DEBUG /D _WINDOWS /D _UNICODE /D UNICODE /Gm- /EHsc /RTC1 /MDd /GS /fp:precise /permissive- /Zc:wchar_t /Zc:forScope /Zc:inline /std:c++17 /Fo"C:\USERS\JAKE KLINKERT\DOCUMENTS\SCHOOL\HUMIN GAME LAB\APF\GIT\EXPERIMENT\TEMPORARY\EMOTIONALMODELING_X64_DEBUG\\" /Fd"C:\USERS\JAKE KLINKERT\DOCUMENTS\SCHOOL\HUMIN GAME LAB\APF\GIT\EXPERIMENT\TEMPORARY\EMOTIONALMODELING_X64_DEBUG\VC142.PDB" /external:W4 /Gd /TP /FC C:\USERS\JAKE KLINKERT\DOCUMENTS\SCHOOL\HUMIN GAME LAB\APF\GIT\EXPERIMENT\CODE\GAME\ATTITUDERELATION.CPP
^C:\USERS\JAKE KLINKERT\DOCUMENTS\SCHOOL\HUMIN GAME LAB\APF\GIT\EXPERIMENT\CODE\GAME\EMOTION.CPP
/c /I"C:\USERS\JAKE KLINKERT\DOCUMENTS\SCHOOL\HUMIN GAME LAB\APF\GIT\EXPERIMENT\CODE/SUBMODULE/ENGINE/CODE/" /I"C:\USERS\JAKE KLINKERT\DOCUMENTS\SCHOOL\HUMIN GAME LAB\APF\GIT\EXPERIMENT\CODE/" /ZI /JMC /nologo /W4 /WX- /diagnostics:column /Od /D _DEBUG /D _WINDOWS /D _UNICODE /D UNICODE /Gm- /EHsc /RTC1 /MDd /GS /fp:precise /permissive- /Zc:wchar_t /Zc:forScope /Zc:inline /std:c++17 /Fo"C:\USERS\JAKE KLINKERT\DOCUMENTS\SCHOOL\HUMIN GAME LAB\APF\GIT\EXPERIMENT\TEMPORARY\EMOTIONALMODELING_X64_DEBUG\\" /Fd"C:\USERS\JAKE KLINKERT\DOCUMENTS\SCHOOL\HUMIN GAME LAB\APF\GIT\EXPERIMENT\TEMPORARY\EMOTIONALMODELING_X64_DEBUG\VC142.PDB" /external:W4 /Gd /TP /FC C:\USERS\JAKE KLINKERT\DOCUMENTS\SCHOOL\HUMIN GAME LAB\APF\GIT\EXPERIMENT\CODE\GAME\EMOTION.CPP
^C:\USERS\JAKE KLINKERT\DOCUMENTS\SCHOOL\HUMIN GAME LAB\APF\GIT\EXPERIMENT\CODE\GAME\EMOTIONALSTATE.CPP
/c /I"C:\USERS\JAKE KLINKERT\DOCUMENTS\SCHOOL\HUMIN GAME LAB\APF\GIT\EXPERIMENT\CODE/SUBMODULE/ENGINE/CODE/" /I"C:\USERS\JAKE KLINKERT\DOCUMENTS\SCHOOL\HUMIN GAME LAB\APF\GIT\EXPERIMENT\CODE/" /ZI /JMC /nologo /W4 /WX- /diagnostics:column /Od /D _DEBUG /D _WINDOWS /D _UNICODE /D UNICODE /Gm- /EHsc /RTC1 /MDd /GS /fp:precise /permissive- /Zc:wchar_t /Zc:forScope /Zc:inline /std:c++17 /Fo"C:\USERS\JAKE KLINKERT\DOCUMENTS\SCHOOL\HUMIN GAME LAB\APF\GIT\EXPERIMENT\TEMPORARY\EMOTIONALMODELING_X64_DEBUG\\" /Fd"C:\USERS\JAKE KLINKERT\DOCUMENTS\SCHOOL\HUMIN GAME LAB\APF\GIT\EXPERIMENT\TEMPORARY\EMOTIONALMODELING_X64_DEBUG\VC142.PDB" /external:W4 /Gd /TP /FC C:\USERS\JAKE KLINKERT\DOCUMENTS\SCHOOL\HUMIN GAME LAB\APF\GIT\EXPERIMENT\CODE\GAME\EMOTIONALSTATE.CPP
^C:\USERS\JAKE KLINKERT\DOCUMENTS\SCHOOL\HUMIN GAME LAB\APF\GIT\EXPERIMENT\CODE\GAME\ENTITY.CPP
/c /I"C:\USERS\JAKE KLINKERT\DOCUMENTS\SCHOOL\HUMIN GAME LAB\APF\GIT\EXPERIMENT\CODE/SUBMODULE/ENGINE/CODE/" /I"C:\USERS\JAKE KLINKERT\DOCUMENTS\SCHOOL\HUMIN GAME LAB\APF\GIT\EXPERIMENT\CODE/" /ZI /JMC /nologo /W4 /WX- /diagnostics:column /Od /D _DEBUG /D _WINDOWS /D _UNICODE /D UNICODE /Gm- /EHsc /RTC1 /MDd /GS /fp:precise /permissive- /Zc:wchar_t /Zc:forScope /Zc:inline /std:c++17 /Fo"C:\USERS\JAKE KLINKERT\DOCUMENTS\SCHOOL\HUMIN GAME LAB\APF\GIT\EXPERIMENT\TEMPORARY\EMOTIONALMODELING_X64_DEBUG\\" /Fd"C:\USERS\JAKE KLINKERT\DOCUMENTS\SCHOOL\HUMIN GAME LAB\APF\GIT\EXPERIMENT\TEMPORARY\EMOTIONALMODELING_X64_DEBUG\VC142.PDB" /external:W4 /Gd /TP /FC C:\USERS\JAKE KLINKERT\DOCUMENTS\SCHOOL\HUMIN GAME LAB\APF\GIT\EXPERIMENT\CODE\GAME\ENTITY.CPP
^C:\USERS\JAKE KLINKERT\DOCUMENTS\SCHOOL\HUMIN GAME LAB\APF\GIT\EXPERIMENT\CODE\GAME\GAME.CPP
/c /I"C:\USERS\JAKE KLINKERT\DOCUMENTS\SCHOOL\HUMIN GAME LAB\APF\GIT\EXPERIMENT\CODE/SUBMODULE/ENGINE/CODE/" /I"C:\USERS\JAKE KLINKERT\DOCUMENTS\SCHOOL\HUMIN GAME LAB\APF\GIT\EXPERIMENT\CODE/" /ZI /JMC /nologo /W4 /WX- /diagnostics:column /Od /D _DEBUG /D _WINDOWS /D _UNICODE /D UNICODE /Gm- /EHsc /RTC1 /MDd /GS /fp:precise /permissive- /Zc:wchar_t /Zc:forScope /Zc:inline /std:c++17 /Fo"C:\USERS\JAKE KLINKERT\DOCUMENTS\SCHOOL\HUMIN GAME LAB\APF\GIT\EXPERIMENT\TEMPORARY\EMOTIONALMODELING_X64_DEBUG\\" /Fd"C:\USERS\JAKE KLINKERT\DOCUMENTS\SCHOOL\HUMIN GAME LAB\APF\GIT\EXPERIMENT\TEMPORARY\EMOTIONALMODELING_X64_DEBUG\VC142.PDB" /external:W4 /Gd /TP /FC C:\USERS\JAKE KLINKERT\DOCUMENTS\SCHOOL\HUMIN GAME LAB\APF\GIT\EXPERIMENT\CODE\GAME\GAME.CPP
^C:\USERS\JAKE KLINKERT\DOCUMENTS\SCHOOL\HUMIN GAME LAB\APF\GIT\EXPERIMENT\CODE\GAME\GAMECOMMON.CPP
/c /I"C:\USERS\JAKE KLINKERT\DOCUMENTS\SCHOOL\HUMIN GAME LAB\APF\GIT\EXPERIMENT\CODE/SUBMODULE/ENGINE/CODE/" /I"C:\USERS\JAKE KLINKERT\DOCUMENTS\SCHOOL\HUMIN GAME LAB\APF\GIT\EXPERIMENT\CODE/" /ZI /JMC /nologo /W4 /WX- /diagnostics:column /Od /D _DEBUG /D _WINDOWS /D _UNICODE /D UNICODE /Gm- /EHsc /RTC1 /MDd /GS /fp:precise /permissive- /Zc:wchar_t /Zc:forScope /Zc:inline /std:c++17 /Fo"C:\USERS\JAKE KLINKERT\DOCUMENTS\SCHOOL\HUMIN GAME LAB\APF\GIT\EXPERIMENT\TEMPORARY\EMOTIONALMODELING_X64_DEBUG\\" /Fd"C:\USERS\JAKE KLINKERT\DOCUMENTS\SCHOOL\HUMIN GAME LAB\APF\GIT\EXPERIMENT\TEMPORARY\EMOTIONALMODELING_X64_DEBUG\VC142.PDB" /external:W4 /Gd /TP /FC C:\USERS\JAKE KLINKERT\DOCUMENTS\SCHOOL\HUMIN GAME LAB\APF\GIT\EXPERIMENT\CODE\GAME\GAMECOMMON.CPP
^C:\USERS\JAKE KLINKERT\DOCUMENTS\SCHOOL\HUMIN GAME LAB\APF\GIT\EXPERIMENT\CODE\GAME\MAIN_WINDOWS.CPP
/c /I"C:\USERS\JAKE KLINKERT\DOCUMENTS\SCHOOL\HUMIN GAME LAB\APF\GIT\EXPERIMENT\CODE/SUBMODULE/ENGINE/CODE/" /I"C:\USERS\JAKE KLINKERT\DOCUMENTS\SCHOOL\HUMIN GAME LAB\APF\GIT\EXPERIMENT\CODE/" /ZI /JMC /nologo /W4 /WX- /diagnostics:column /Od /D _DEBUG /D _WINDOWS /D _UNICODE /D UNICODE /Gm- /EHsc /RTC1 /MDd /GS /fp:precise /permissive- /Zc:wchar_t /Zc:forScope /Zc:inline /std:c++17 /Fo"C:\USERS\JAKE KLINKERT\DOCUMENTS\SCHOOL\HUMIN GAME LAB\APF\GIT\EXPERIMENT\TEMPORARY\EMOTIONALMODELING_X64_DEBUG\\" /Fd"C:\USERS\JAKE KLINKERT\DOCUMENTS\SCHOOL\HUMIN GAME LAB\APF\GIT\EXPERIMENT\TEMPORARY\EMOTIONALMODELING_X64_DEBUG\VC142.PDB" /external:W4 /Gd /TP /FC C:\USERS\JAKE KLINKERT\DOCUMENTS\SCHOOL\HUMIN GAME LAB\APF\GIT\EXPERIMENT\CODE\GAME\MAIN_WINDOWS.CPP
^C:\USERS\JAKE KLINKERT\DOCUMENTS\SCHOOL\HUMIN GAME LAB\APF\GIT\EXPERIMENT\CODE\GAME\OBJECT.CPP
/c /I"C:\USERS\JAKE KLINKERT\DOCUMENTS\SCHOOL\HUMIN GAME LAB\APF\GIT\EXPERIMENT\CODE/SUBMODULE/ENGINE/CODE/" /I"C:\USERS\JAKE KLINKERT\DOCUMENTS\SCHOOL\HUMIN GAME LAB\APF\GIT\EXPERIMENT\CODE/" /ZI /JMC /nologo /W4 /WX- /diagnostics:column /Od /D _DEBUG /D _WINDOWS /D _UNICODE /D UNICODE /Gm- /EHsc /RTC1 /MDd /GS /fp:precise /permissive- /Zc:wchar_t /Zc:forScope /Zc:inline /std:c++17 /Fo"C:\USERS\JAKE KLINKERT\DOCUMENTS\SCHOOL\HUMIN GAME LAB\APF\GIT\EXPERIMENT\TEMPORARY\EMOTIONALMODELING_X64_DEBUG\\" /Fd"C:\USERS\JAKE KLINKERT\DOCUMENTS\SCHOOL\HUMIN GAME LAB\APF\GIT\EXPERIMENT\TEMPORARY\EMOTIONALMODELING_X64_DEBUG\VC142.PDB" /external:W4 /Gd /TP /FC C:\USERS\JAKE KLINKERT\DOCUMENTS\SCHOOL\HUMIN GAME LAB\APF\GIT\EXPERIMENT\CODE\GAME\OBJECT.CPP
^C:\USERS\JAKE KLINKERT\DOCUMENTS\SCHOOL\HUMIN GAME LAB\APF\GIT\EXPERIMENT\CODE\GAME\PERSONALITY.CPP
/c /I"C:\USERS\JAKE KLINKERT\DOCUMENTS\SCHOOL\HUMIN GAME LAB\APF\GIT\EXPERIMENT\CODE/SUBMODULE/ENGINE/CODE/" /I"C:\USERS\JAKE KLINKERT\DOCUMENTS\SCHOOL\HUMIN GAME LAB\APF\GIT\EXPERIMENT\CODE/" /ZI /JMC /nologo /W4 /WX- /diagnostics:column /Od /D _DEBUG /D _WINDOWS /D _UNICODE /D UNICODE /Gm- /EHsc /RTC1 /MDd /GS /fp:precise /permissive- /Zc:wchar_t /Zc:forScope /Zc:inline /std:c++17 /Fo"C:\USERS\JAKE KLINKERT\DOCUMENTS\SCHOOL\HUMIN GAME LAB\APF\GIT\EXPERIMENT\TEMPORARY\EMOTIONALMODELING_X64_DEBUG\\" /Fd"C:\USERS\JAKE KLINKERT\DOCUMENTS\SCHOOL\HUMIN GAME LAB\APF\GIT\EXPERIMENT\TEMPORARY\EMOTIONALMODELING_X64_DEBUG\VC142.PDB" /external:W4 /Gd /TP /FC C:\USERS\JAKE KLINKERT\DOCUMENTS\SCHOOL\HUMIN GAME LAB\APF\GIT\EXPERIMENT\CODE\GAME\PERSONALITY.CPP
^C:\USERS\JAKE KLINKERT\DOCUMENTS\SCHOOL\HUMIN GAME LAB\APF\GIT\EXPERIMENT\CODE\GAME\PRAISE.CPP
/c /I"C:\USERS\JAKE KLINKERT\DOCUMENTS\SCHOOL\HUMIN GAME LAB\APF\GIT\EXPERIMENT\CODE/SUBMODULE/ENGINE/CODE/" /I"C:\USERS\JAKE KLINKERT\DOCUMENTS\SCHOOL\HUMIN GAME LAB\APF\GIT\EXPERIMENT\CODE/" /ZI /JMC /nologo /W4 /WX- /diagnostics:column /Od /D _DEBUG /D _WINDOWS /D _UNICODE /D UNICODE /Gm- /EHsc /RTC1 /MDd /GS /fp:precise /permissive- /Zc:wchar_t /Zc:forScope /Zc:inline /std:c++17 /Fo"C:\USERS\JAKE KLINKERT\DOCUMENTS\SCHOOL\HUMIN GAME LAB\APF\GIT\EXPERIMENT\TEMPORARY\EMOTIONALMODELING_X64_DEBUG\\" /Fd"C:\USERS\JAKE KLINKERT\DOCUMENTS\SCHOOL\HUMIN GAME LAB\APF\GIT\EXPERIMENT\TEMPORARY\EMOTIONALMODELING_X64_DEBUG\VC142.PDB" /external:W4 /Gd /TP /FC C:\USERS\JAKE KLINKERT\DOCUMENTS\SCHOOL\HUMIN GAME LAB\APF\GIT\EXPERIMENT\CODE\GAME\PRAISE.CPP
^C:\USERS\JAKE KLINKERT\DOCUMENTS\SCHOOL\HUMIN GAME LAB\APF\GIT\EXPERIMENT\CODE\GAME\PRAISERELATION.CPP
/c /I"C:\USERS\JAKE KLINKERT\DOCUMENTS\SCHOOL\HUMIN GAME LAB\APF\GIT\EXPERIMENT\CODE/SUBMODULE/ENGINE/CODE/" /I"C:\USERS\JAKE KLINKERT\DOCUMENTS\SCHOOL\HUMIN GAME LAB\APF\GIT\EXPERIMENT\CODE/" /ZI /JMC /nologo /W4 /WX- /diagnostics:column /Od /D _DEBUG /D _WINDOWS /D _UNICODE /D UNICODE /Gm- /EHsc /RTC1 /MDd /GS /fp:precise /permissive- /Zc:wchar_t /Zc:forScope /Zc:inline /std:c++17 /Fo"C:\USERS\JAKE KLINKERT\DOCUMENTS\SCHOOL\HUMIN GAME LAB\APF\GIT\EXPERIMENT\TEMPORARY\EMOTIONALMODELING_X64_DEBUG\\" /Fd"C:\USERS\JAKE KLINKERT\DOCUMENTS\SCHOOL\HUMIN GAME LAB\APF\GIT\EXPERIMENT\TEMPORARY\EMOTIONALMODELING_X64_DEBUG\VC142.PDB" /external:W4 /Gd /TP /FC C:\USERS\JAKE KLINKERT\DOCUMENTS\SCHOOL\HUMIN GAME LAB\APF\GIT\EXPERIMENT\CODE\GAME\PRAISERELATION.CPP
^C:\USERS\JAKE KLINKERT\DOCUMENTS\SCHOOL\HUMIN GAME LAB\APF\GIT\EXPERIMENT\CODE\GAME\SOCIALRELATION.CPP
/c /I"C:\USERS\JAKE KLINKERT\DOCUMENTS\SCHOOL\HUMIN GAME LAB\APF\GIT\EXPERIMENT\CODE/SUBMODULE/ENGINE/CODE/" /I"C:\USERS\JAKE KLINKERT\DOCUMENTS\SCHOOL\HUMIN GAME LAB\APF\GIT\EXPERIMENT\CODE/" /ZI /JMC /nologo /W4 /WX- /diagnostics:column /Od /D _DEBUG /D _WINDOWS /D _UNICODE /D UNICODE /Gm- /EHsc /RTC1 /MDd /GS /fp:precise /permissive- /Zc:wchar_t /Zc:forScope /Zc:inline /std:c++17 /Fo"C:\USERS\JAKE KLINKERT\DOCUMENTS\SCHOOL\HUMIN GAME LAB\APF\GIT\EXPERIMENT\TEMPORARY\EMOTIONALMODELING_X64_DEBUG\\" /Fd"C:\USERS\JAKE KLINKERT\DOCUMENTS\SCHOOL\HUMIN GAME LAB\APF\GIT\EXPERIMENT\TEMPORARY\EMOTIONALMODELING_X64_DEBUG\VC142.PDB" /external:W4 /Gd /TP /FC C:\USERS\JAKE KLINKERT\DOCUMENTS\SCHOOL\HUMIN GAME LAB\APF\GIT\EXPERIMENT\CODE\GAME\SOCIALRELATION.CPP
^C:\USERS\JAKE KLINKERT\DOCUMENTS\SCHOOL\HUMIN GAME LAB\APF\GIT\EXPERIMENT\CODE\GAME\SOCIALROLE.CPP
/c /I"C:\USERS\JAKE KLINKERT\DOCUMENTS\SCHOOL\HUMIN GAME LAB\APF\GIT\EXPERIMENT\CODE/SUBMODULE/ENGINE/CODE/" /I"C:\USERS\JAKE KLINKERT\DOCUMENTS\SCHOOL\HUMIN GAME LAB\APF\GIT\EXPERIMENT\CODE/" /ZI /JMC /nologo /W4 /WX- /diagnostics:column /Od /D _DEBUG /D _WINDOWS /D _UNICODE /D UNICODE /Gm- /EHsc /RTC1 /MDd /GS /fp:precise /permissive- /Zc:wchar_t /Zc:forScope /Zc:inline /std:c++17 /Fo"C:\USERS\JAKE KLINKERT\DOCUMENTS\SCHOOL\HUMIN GAME LAB\APF\GIT\EXPERIMENT\TEMPORARY\EMOTIONALMODELING_X64_DEBUG\\" /Fd"C:\USERS\JAKE KLINKERT\DOCUMENTS\SCHOOL\HUMIN GAME LAB\APF\GIT\EXPERIMENT\TEMPORARY\EMOTIONALMODELING_X64_DEBUG\VC142.PDB" /external:W4 /Gd /TP /FC C:\USERS\JAKE KLINKERT\DOCUMENTS\SCHOOL\HUMIN GAME LAB\APF\GIT\EXPERIMENT\CODE\GAME\SOCIALROLE.CPP
