^D:\THESIS\ARTIFICIAL-PSYCHOSOCIAL-FRAMEWORK\PERSONALITY\ARTIFACT\TURNBASEDGAME2D\TEMPORARY\ENGINE_X64_RELEASE\ENGINE.LIB|D:\THESIS\ARTIFICIAL-PSYCHOSOCIAL-FRAMEWORK\PERSONALITY\ARTIFACT\TURNBASEDGAME2D\TEMPORARY\TURNBASEDGAME2D_X64_RELEASE\APFUTILS.OBJ|D:\THESIS\ARTIFICIAL-PSYCHOSOCIAL-FRAMEWORK\PERSONALITY\ARTIFACT\TURNBASEDGAME2D\TEMPORARY\TURNBASEDGAME2D_X64_RELEASE\APP.OBJ|D:\THESIS\ARTIFICIAL-PSYCHOSOCIAL-FRAMEWORK\PERSONALITY\ARTIFACT\TURNBASEDGAME2D\TEMPORARY\TURNBASEDGAME2D_X64_RELEASE\CHARACTER.OBJ|D:\THESIS\ARTIFICIAL-PSYCHOSOCIAL-FRAMEWORK\PERSONALITY\ARTIFACT\TURNBASEDGAME2D\TEMPORARY\TURNBASEDGAME2D_X64_RELEASE\CHARACTERDEFINITION.OBJ|D:\THESIS\ARTIFICIAL-PSYCHOSOCIAL-FRAMEWORK\PERSONALITY\ARTIFACT\TURNBASEDGAME2D\TEMPORARY\TURNBASEDGAME2D_X64_RELEASE\CHARACTERUID.OBJ|D:\THESIS\ARTIFICIAL-PSYCHOSOCIAL-FRAMEWORK\PERSONALITY\ARTIFACT\TURNBASEDGAME2D\TEMPORARY\TURNBASEDGAME2D_X64_RELEASE\CONNECTION.OBJ|D:\THESIS\ARTIFICIAL-PSYCHOSOCIAL-FRAMEWORK\PERSONALITY\ARTIFACT\TURNBASEDGAME2D\TEMPORARY\TURNBASEDGAME2D_X64_RELEASE\DEBUGWINDOW.OBJ|D:\THESIS\ARTIFICIAL-PSYCHOSOCIAL-FRAMEWORK\PERSONALITY\ARTIFACT\TURNBASEDGAME2D\TEMPORARY\TURNBASEDGAME2D_X64_RELEASE\GAME.OBJ|D:\THESIS\ARTIFICIAL-PSYCHOSOCIAL-FRAMEWORK\PERSONALITY\ARTIFACT\TURNBASEDGAME2D\TEMPORARY\TURNBASEDGAME2D_X64_RELEASE\GAMECOMMON.OBJ|D:\THESIS\ARTIFICIAL-PSYCHOSOCIAL-FRAMEWORK\PERSONALITY\ARTIFACT\TURNBASEDGAME2D\TEMPORARY\TURNBASEDGAME2D_X64_RELEASE\GAMESETTINGWINDOW.OBJ|D:\THESIS\ARTIFICIAL-PSYCHOSOCIAL-FRAMEWORK\PERSONALITY\ARTIFACT\TURNBASEDGAME2D\TEMPORARY\TURNBASEDGAME2D_X64_RELEASE\HEALER.OBJ|D:\THESIS\ARTIFICIAL-PSYCHOSOCIAL-FRAMEWORK\PERSONALITY\ARTIFACT\TURNBASEDGAME2D\TEMPORARY\TURNBASEDGAME2D_X64_RELEASE\LEVEL.OBJ|D:\THESIS\ARTIFICIAL-PSYCHOSOCIAL-FRAMEWORK\PERSONALITY\ARTIFACT\TURNBASEDGAME2D\TEMPORARY\TURNBASEDGAME2D_X64_RELEASE\LONGTERMMEMORY.OBJ|D:\THESIS\ARTIFICIAL-PSYCHOSOCIAL-FRAMEWORK\PERSONALITY\ARTIFACT\TURNBASEDGAME2D\TEMPORARY\TURNBASEDGAME2D_X64_RELEASE\MAIN_WINDOWS.OBJ|D:\THESIS\ARTIFICIAL-PSYCHOSOCIAL-FRAMEWORK\PERSONALITY\ARTIFACT\TURNBASEDGAME2D\TEMPORARY\TURNBASEDGAME2D_X64_RELEASE\MEMORY.OBJ|D:\THESIS\ARTIFICIAL-PSYCHOSOCIAL-FRAMEWORK\PERSONALITY\ARTIFACT\TURNBASEDGAME2D\TEMPORARY\TURNBASEDGAME2D_X64_RELEASE\PCA.OBJ|D:\THESIS\ARTIFICIAL-PSYCHOSOCIAL-FRAMEWORK\PERSONALITY\ARTIFACT\TURNBASEDGAME2D\TEMPORARY\TURNBASEDGAME2D_X64_RELEASE\PSOWINDOW.OBJ|D:\THESIS\ARTIFICIAL-PSYCHOSOCIAL-FRAMEWORK\PERSONALITY\ARTIFACT\TURNBASEDGAME2D\TEMPORARY\TURNBASEDGAME2D_X64_RELEASE\RANGER.OBJ|D:\THESIS\ARTIFICIAL-PSYCHOSOCIAL-FRAMEWORK\PERSONALITY\ARTIFACT\TURNBASEDGAME2D\TEMPORARY\TURNBASEDGAME2D_X64_RELEASE\RLBRAIN.OBJ|D:\THESIS\ARTIFICIAL-PSYCHOSOCIAL-FRAMEWORK\PERSONALITY\ARTIFACT\TURNBASEDGAME2D\TEMPORARY\TURNBASEDGAME2D_X64_RELEASE\RLWINDOW.OBJ|D:\THESIS\ARTIFICIAL-PSYCHOSOCIAL-FRAMEWORK\PERSONALITY\ARTIFACT\TURNBASEDGAME2D\TEMPORARY\TURNBASEDGAME2D_X64_RELEASE\SHORTTERMMEMORY.OBJ|D:\THESIS\ARTIFICIAL-PSYCHOSOCIAL-FRAMEWORK\PERSONALITY\ARTIFACT\TURNBASEDGAME2D\TEMPORARY\TURNBASEDGAME2D_X64_RELEASE\SIMULATIONUTILS.OBJ|D:\THESIS\ARTIFICIAL-PSYCHOSOCIAL-FRAMEWORK\PERSONALITY\ARTIFACT\TURNBASEDGAME2D\TEMPORARY\TURNBASEDGAME2D_X64_RELEASE\TANK.OBJ|D:\THESIS\ARTIFICIAL-PSYCHOSOCIAL-FRAMEWORK\PERSONALITY\ARTIFACT\TURNBASEDGAME2D\TEMPORARY\TURNBASEDGAME2D_X64_RELEASE\WINDOWCONTEXT.OBJ
C:\PROGRAM FILES (X86)\WINDOWS KITS\10\LIB\10.0.18362.0\UM\X64\KERNEL32.LIB
C:\PROGRAM FILES (X86)\WINDOWS KITS\10\LIB\10.0.18362.0\UM\X64\USER32.LIB
C:\PROGRAM FILES (X86)\WINDOWS KITS\10\LIB\10.0.18362.0\UM\X64\GDI32.LIB
C:\PROGRAM FILES (X86)\WINDOWS KITS\10\LIB\10.0.18362.0\UM\X64\WINSPOOL.LIB
C:\PROGRAM FILES (X86)\WINDOWS KITS\10\LIB\10.0.18362.0\UM\X64\COMDLG32.LIB
C:\PROGRAM FILES (X86)\WINDOWS KITS\10\LIB\10.0.18362.0\UM\X64\ADVAPI32.LIB
C:\PROGRAM FILES (X86)\WINDOWS KITS\10\LIB\10.0.18362.0\UM\X64\SHELL32.LIB
C:\PROGRAM FILES (X86)\WINDOWS KITS\10\LIB\10.0.18362.0\UM\X64\OLE32.LIB
C:\PROGRAM FILES (X86)\WINDOWS KITS\10\LIB\10.0.18362.0\UM\X64\OLEAUT32.LIB
C:\PROGRAM FILES (X86)\WINDOWS KITS\10\LIB\10.0.18362.0\UM\X64\UUID.LIB
C:\PROGRAM FILES (X86)\WINDOWS KITS\10\LIB\10.0.18362.0\UM\X64\ODBC32.LIB
C:\PROGRAM FILES (X86)\WINDOWS KITS\10\LIB\10.0.18362.0\UM\X64\ODBCCP32.LIB
D:\THESIS\ARTIFICIAL-PSYCHOSOCIAL-FRAMEWORK\PERSONALITY\ARTIFACT\TURNBASEDGAME2D\TEMPORARY\TURNBASEDGAME2D_X64_RELEASE\CONNECTION.OBJ
D:\THESIS\ARTIFICIAL-PSYCHOSOCIAL-FRAMEWORK\PERSONALITY\ARTIFACT\TURNBASEDGAME2D\TEMPORARY\TURNBASEDGAME2D_X64_RELEASE\LONGTERMMEMORY.OBJ
D:\THESIS\ARTIFICIAL-PSYCHOSOCIAL-FRAMEWORK\PERSONALITY\ARTIFACT\TURNBASEDGAME2D\TEMPORARY\TURNBASEDGAME2D_X64_RELEASE\MEMORY.OBJ
D:\THESIS\ARTIFICIAL-PSYCHOSOCIAL-FRAMEWORK\PERSONALITY\ARTIFACT\TURNBASEDGAME2D\TEMPORARY\TURNBASEDGAME2D_X64_RELEASE\SHORTTERMMEMORY.OBJ
D:\THESIS\ARTIFICIAL-PSYCHOSOCIAL-FRAMEWORK\PERSONALITY\ARTIFACT\TURNBASEDGAME2D\TEMPORARY\TURNBASEDGAME2D_X64_RELEASE\PCA.OBJ
D:\THESIS\ARTIFICIAL-PSYCHOSOCIAL-FRAMEWORK\PERSONALITY\ARTIFACT\TURNBASEDGAME2D\TEMPORARY\TURNBASEDGAME2D_X64_RELEASE\PSOWINDOW.OBJ
D:\THESIS\ARTIFICIAL-PSYCHOSOCIAL-FRAMEWORK\PERSONALITY\ARTIFACT\TURNBASEDGAME2D\TEMPORARY\TURNBASEDGAME2D_X64_RELEASE\RLBRAIN.OBJ
D:\THESIS\ARTIFICIAL-PSYCHOSOCIAL-FRAMEWORK\PERSONALITY\ARTIFACT\TURNBASEDGAME2D\TEMPORARY\TURNBASEDGAME2D_X64_RELEASE\RLWINDOW.OBJ
D:\THESIS\ARTIFICIAL-PSYCHOSOCIAL-FRAMEWORK\PERSONALITY\ARTIFACT\TURNBASEDGAME2D\TEMPORARY\TURNBASEDGAME2D_X64_RELEASE\SIMULATIONUTILS.OBJ
D:\THESIS\ARTIFICIAL-PSYCHOSOCIAL-FRAMEWORK\PERSONALITY\ARTIFACT\TURNBASEDGAME2D\TEMPORARY\TURNBASEDGAME2D_X64_RELEASE\APFUTILS.OBJ
D:\THESIS\ARTIFICIAL-PSYCHOSOCIAL-FRAMEWORK\PERSONALITY\ARTIFACT\TURNBASEDGAME2D\TEMPORARY\TURNBASEDGAME2D_X64_RELEASE\APP.OBJ
D:\THESIS\ARTIFICIAL-PSYCHOSOCIAL-FRAMEWORK\PERSONALITY\ARTIFACT\TURNBASEDGAME2D\TEMPORARY\TURNBASEDGAME2D_X64_RELEASE\CHARACTER.OBJ
D:\THESIS\ARTIFICIAL-PSYCHOSOCIAL-FRAMEWORK\PERSONALITY\ARTIFACT\TURNBASEDGAME2D\TEMPORARY\TURNBASEDGAME2D_X64_RELEASE\CHARACTERDEFINITION.OBJ
D:\THESIS\ARTIFICIAL-PSYCHOSOCIAL-FRAMEWORK\PERSONALITY\ARTIFACT\TURNBASEDGAME2D\TEMPORARY\TURNBASEDGAME2D_X64_RELEASE\CHARACTERUID.OBJ
D:\THESIS\ARTIFICIAL-PSYCHOSOCIAL-FRAMEWORK\PERSONALITY\ARTIFACT\TURNBASEDGAME2D\TEMPORARY\TURNBASEDGAME2D_X64_RELEASE\DEBUGWINDOW.OBJ
D:\THESIS\ARTIFICIAL-PSYCHOSOCIAL-FRAMEWORK\PERSONALITY\ARTIFACT\TURNBASEDGAME2D\TEMPORARY\TURNBASEDGAME2D_X64_RELEASE\GAME.OBJ
D:\THESIS\ARTIFICIAL-PSYCHOSOCIAL-FRAMEWORK\PERSONALITY\ARTIFACT\TURNBASEDGAME2D\TEMPORARY\TURNBASEDGAME2D_X64_RELEASE\GAMECOMMON.OBJ
D:\THESIS\ARTIFICIAL-PSYCHOSOCIAL-FRAMEWORK\PERSONALITY\ARTIFACT\TURNBASEDGAME2D\TEMPORARY\TURNBASEDGAME2D_X64_RELEASE\GAMESETTINGWINDOW.OBJ
D:\THESIS\ARTIFICIAL-PSYCHOSOCIAL-FRAMEWORK\PERSONALITY\ARTIFACT\TURNBASEDGAME2D\TEMPORARY\TURNBASEDGAME2D_X64_RELEASE\HEALER.OBJ
D:\THESIS\ARTIFICIAL-PSYCHOSOCIAL-FRAMEWORK\PERSONALITY\ARTIFACT\TURNBASEDGAME2D\TEMPORARY\TURNBASEDGAME2D_X64_RELEASE\LEVEL.OBJ
D:\THESIS\ARTIFICIAL-PSYCHOSOCIAL-FRAMEWORK\PERSONALITY\ARTIFACT\TURNBASEDGAME2D\TEMPORARY\TURNBASEDGAME2D_X64_RELEASE\MAIN_WINDOWS.OBJ
D:\THESIS\ARTIFICIAL-PSYCHOSOCIAL-FRAMEWORK\PERSONALITY\ARTIFACT\TURNBASEDGAME2D\TEMPORARY\TURNBASEDGAME2D_X64_RELEASE\RANGER.OBJ
D:\THESIS\ARTIFICIAL-PSYCHOSOCIAL-FRAMEWORK\PERSONALITY\ARTIFACT\TURNBASEDGAME2D\TEMPORARY\TURNBASEDGAME2D_X64_RELEASE\TANK.OBJ
D:\THESIS\ARTIFICIAL-PSYCHOSOCIAL-FRAMEWORK\PERSONALITY\ARTIFACT\TURNBASEDGAME2D\TEMPORARY\TURNBASEDGAME2D_X64_RELEASE\WINDOWCONTEXT.OBJ
D:\THESIS\ARTIFICIAL-PSYCHOSOCIAL-FRAMEWORK\PERSONALITY\ARTIFACT\TURNBASEDGAME2D\TEMPORARY\ENGINE_X64_RELEASE\ENGINE.LIB
C:\WINDOWS\GLOBALIZATION\SORTING\SORTDEFAULT.NLS
C:\PROGRAM FILES (X86)\MICROSOFT VISUAL STUDIO\2019\COMMUNITY\VC\TOOLS\MSVC\14.26.28801\BIN\HOSTX86\X64\C2.DLL
C:\PROGRAM FILES (X86)\MICROSOFT VISUAL STUDIO\2019\COMMUNITY\VC\TOOLS\MSVC\14.26.28801\LIB\X64\MSVCPRT.LIB
C:\PROGRAM FILES (X86)\MICROSOFT VISUAL STUDIO\2019\COMMUNITY\VC\TOOLS\MSVC\14.26.28801\LIB\X64\MSVCRT.LIB
C:\PROGRAM FILES (X86)\MICROSOFT VISUAL STUDIO\2019\COMMUNITY\VC\TOOLS\MSVC\14.26.28801\LIB\X64\OLDNAMES.LIB
C:\PROGRAM FILES (X86)\WINDOWS KITS\10\LIB\10.0.18362.0\UM\X64\IMM32.LIB
C:\PROGRAM FILES (X86)\WINDOWS KITS\10\LIB\10.0.18362.0\UM\X64\XINPUT9_1_0.LIB
C:\PROGRAM FILES (X86)\WINDOWS KITS\10\LIB\10.0.18362.0\UM\X64\D3D11.LIB
C:\PROGRAM FILES (X86)\WINDOWS KITS\10\LIB\10.0.18362.0\UM\X64\DXGI.LIB
C:\PROGRAM FILES (X86)\WINDOWS KITS\10\LIB\10.0.18362.0\UM\X64\D3DCOMPILER.LIB
C:\PROGRAM FILES (X86)\WINDOWS KITS\10\LIB\10.0.18362.0\UM\X64\DXGUID.LIB
D:\THESIS\ARTIFICIAL-PSYCHOSOCIAL-FRAMEWORK\PERSONALITY\ARTIFACT\ENGINE\CODE\THIRDPARTY\FMOD\FMOD64_VC.LIB
C:\PROGRAM FILES (X86)\WINDOWS KITS\10\LIB\10.0.18362.0\UM\X64\DWMAPI.LIB
C:\PROGRAM FILES (X86)\MICROSOFT VISUAL STUDIO\2019\COMMUNITY\VC\TOOLS\MSVC\14.26.28801\LIB\X64\VCRUNTIME.LIB
C:\PROGRAM FILES (X86)\WINDOWS KITS\10\LIB\10.0.18362.0\UCRT\X64\UCRT.LIB
C:\PROGRAM FILES (X86)\MICROSOFT VISUAL STUDIO\2019\COMMUNITY\VC\TOOLS\MSVC\14.26.28801\BIN\HOSTX86\X64\1033\LINKUI.DLL
C:\PROGRAM FILES (X86)\MICROSOFT VISUAL STUDIO\2019\COMMUNITY\VC\TOOLS\MSVC\14.26.28801\BIN\HOSTX86\X64\CVTRES.EXE
C:\PROGRAM FILES (X86)\MICROSOFT VISUAL STUDIO\2019\COMMUNITY\VC\TOOLS\MSVC\14.26.28801\BIN\HOSTX86\X64\MSPDBSRV.EXE
C:\WINDOWS\SYSTEM32\TZRES.DLL
