Name,Profession,Openness,Conscientiousness,Extraversion,Agreeableness,Neuroticism
Clint Eastwood,American actor,-0.38,0.26,-0.1,-0.64,0.12
Sean Connery,Scottish actor,-0.32,0.36,-0.24,-0.36,-0.14
Saddam Hussein,5th president of Iraq,-0.34,0.52,0.02,-0.58,0.16
Christian Bale,English-American actor,-0.48,-0.02,-0.56,-0.68,0.12
Tom Cruise,American actor,-0.48,-0.16,-0.52,-0.62,0.52
Jodie Foster,American actress,0.34,0.4,-0.48,-0.56,0.42
Woodrow Wilson,28th US president,0.28,0.6,-0.26,-0.54,0.5
Robert De Niro,American actor,-0.62,0.66,-0.72,-0.74,-0.04
Russell Crowe,American actor,0.44,0.72,-0.44,-0.76,0.24
Vladimir Lenin,1st premier of Russia,0.52,0.62,-0.44,-0.8,0.48
John Adams,2nd US president,0.22,0.74,-0.72,-0.74,0.66
Richard Nixon,37th US president,-0.72,0.78,-0.66,-0.72,0.66
John Quincy Adams,6th US president,0.68,0.78,-0.6,-0.58,0.62
Daniel Craig,English actor,-0.62,-0.06,-0.44,-0.64,-0.28
Vladimir Putin,President of Russia,-0.26,-0.12,-0.44,-0.82,-0.46
Brad Pitt,American actor,-0.54,-0.48,-0.42,0.28,-0.32
Adolf Hitler,Leader of the Naxi Party,0.52,-0.36,-0.58,0.04,0.34
Nicolas Cage,American actor,0.52,-0.48,-0.36,0.3,0.64
Jesse Eisenberg,American actor,0.48,-0.22,-0.62,-0.34,0.52
Thomas Jefferson,3rd US president,0.9,0.56,-0.54,0.02,0.18
Albert Speer,Reich Minister of Armaments and War Prod.,-0.36,0.44,-0.62,-0.08,0.28
Johnny Depp,American actor,0.32,-0.24,-0.36,0.1,0.48
Tina Fey,American actress & comedian,0.54,-0.22,-0.26,-0.48,0.18
Ben Affleck,American actor,-0.18,-0.26,-0.04,-0.04,-0.18
George H.W. Bush,41st US president,-0.54,-0.24,0.1,-0.42,0.16
Angelina Jolie,American actress,-0.36,-0.44,0.52,-0.16,0.64
Keira Knightley,English actress,0.28,-0.28,0.56,0.12,-0.14
Robert Downey Jr.,American actor,0.84,-0.24,0.68,-0.3,0.3
Charlize Theron,American actress,0.16,0.28,0.6,-0.58,0.1
Donald Trump,45th US president,-0.68,-0.48,0.72,-0.72,-0.34
Lyndon B. Johnson,36th US president,-0.64,0.44,0.8,-0.72,0.7
Matt Damon,American actor,0.24,0.56,0.38,-0.58,0.44
Andrew Jackson,7th US president,-0.62,-0.38,0.88,-0.48,0.12
George W. Bush,43rd US president,-0.62,-0.66,0.9,-0.64,-0.02
Ruhollah Khomeini,1st Supreme Leader of Iran,0.58,0.72,-0.76,0.04,0.76
Nicole Kidman,Australian actress,-0.34,-0.14,-0.56,0.22,0.44
Osama Bin Laden,1st General Emir of Al-Qaeda,0.34,0.58,-0.46,0.22,0.44
Kristen Stewart,American actress,-0.64,-0.58,-0.56,-0.48,0.44
Leonardo Di Caprio,American actor,-0.32,-0.34,0.22,0.04,0.4
Daniel Day-Lewis,English-Irish actor,0.66,0.04,-0.44,0.42,0.38
Karl Doenitz,President of the German Reich,-0.54,0.8,-0.48,-0.2,-0.34
Dwight Eisenhower,34th US President,-0.42,0.9,0.42,-0.34,-0.4
Harry Truman,33rd US president,-0.54,0.7,0.7,-0.34,0.5
George Washington,1st US president,-0.56,0.88,-0.44,-0.52,-0.2
Natalie Portman,American actress,-0.2,0.84,-0.48,-0.16,-0.1
Heinrich Himmler,Reichs Führer-SS,-0.42,0.48,-0.54,0.08,0.52
Calvin Coolidge,30th US president,-0.36,0.74,-0.6,-0.44,0.62
Herbert Hoover,31th US president,-0.64,0.76,-0.68,-0.58,0.62
Robert Pattinson,English actor,0.56,-0.24,-0.18,0.5,-0.44
Emma Stone,American actress,0.18,0.14,0.56,0.3,0.06
Jon Stewart,American comedian & television host,0.52,-0.04,0.32,0.32,0.32
Joseph Goebbels,Chancellor of Nazi Germany,0.38,0.62,0.46,0.04,0.24
Jennifer Aniston,American actress,0.4,0,0.56,0.58,0.64
Jimmy Carter,39th US president,0.54,0.68,0.16,0.12,0.52
Abraham Lincoln,16th US president,0.9,0.5,0.5,0.52,0.64
Kevin Spacey,American actor,-0.14,-0.04,0.52,0.26,-0.28
Mussolini,27th Prime Minister of Italy,-0.52,-0.32,0.68,0.2,0.16
Woody Harrelson,American actor,-0.76,0.26,0.44,0.22,0.12
Gerald Ford,38th US president,-0.64,0.38,0.82,0.06,-0.7
David Letterman,American television host,0.42,0.64,0.62,-0.04,-0.36
Joachim von Ribbentrop,Foreign Minister of Nazi Germany,-0.56,0.1,0.22,0.68,-0.18
Dakota Fanning,American actress,0.74,0.74,0.14,0.34,0.24
Vin Diesel,American actor,-0.14,0.34,0.24,0.52,-0.56
Ryan Gosling,Canadian actor & musician,-0.34,-0.46,-0.28,0.34,-0.58
Anne Hathaway,American actress,-0.12,0.64,0.5,0.74,-0.56
Arnold Schwarzenegger,Austrian-American actor,0.22,0.86,-0.14,-0.28,-0.76
Hugh Jackman,Australian-American actor,-0.3,0.76,0.68,0.9,-0.84
Naomi Watts,English actress,-0.42,0.48,-0.48,0.36,0.06
Anthony Hopkins,American actor,-0.08,0.44,-0.74,0.36,0.08
James Madison,4th US president,0.24,0.8,-0.88,0.24,-0.08
Christopher Walken,American actor,-0.58,0.52,-0.5,0.3,-0.2
Scarlett Johansson,American-Danish actress,-0.58,-0.16,-0.36,0.12,-0.52
Carey Mulligan,English actress,0.24,0.32,-0.08,0.56,0.22
Cate Blanchett,Australian actress,0.32,0.24,-0.5,0.36,-0.2
John Travolta,American actor,-0.48,-0.28,-0.56,0.56,-0.12
Andrew Garfield,British/American actor,0.48,0.04,-0.14,0.4,-0.06
Rudolf Hess,Deputy Führer of the Nazi Party,-0.48,-0.76,-0.64,0.76,0.02
Meryl Streep,American actress,-0.12,-0.42,0.52,-0.12,-0.54
Elle Fanning,American actress,-0.08,-0.22,0.64,0.74,-0.82
Idi Amin,3rd President of Uganda,-0.82,-0.82,0.46,0.32,-0.82
Jennifer Lawrence,American actress,0.16,0.1,0.74,0.06,-0.7
Mila Kunis,American actress,-0.06,-0.54,0.64,-0.08,-0.48
Denzel Washington,American actor,-0.26,0.06,0.8,0.28,-0.9
Barack Obama,44th US President,0.54,0.48,0.22,0.02,-0.88
Will Smith,American actor,-0.16,-0.18,0.86,0.64,-0.82
Tom Hanks,American actor,-0.02,0.72,0.94,0.06,-0.74
Franklin Roosevelt,32nd US president,-0.1,-0.46,0.9,-0.68,-0.52
Ulysses S. Grant,18th US president,-0.68,-0.62,0.38,0.08,-0.58
Ronald Reagan,40th US President,-0.5,-0.62,0.88,-0.28,-0.74
Hermann Goering,President of the Reichstag,-0.68,-0.68,0.78,-0.62,-0.76
George Clooney,American actor,0.26,0.72,0.36,-0.26,-0.42
Joseph Stalin,General Secretary of All-Union CP,0.1,0.78,0.18,-0.76,-0.14
Theodore Roosevelt,26th US president,0.12,0.68,0.92,-0.68,-0.36
Che Guevara,Argentine Marxist revolutionary,0.34,-0.42,0.32,0.24,-0.16
Mao Zedong,Founding father of the People's Republic of China,0.48,-0.54,0.32,-0.42,-0.18
Ulrike Meinhof,West German far-left militant,0.4,-0.56,0.44,0.36,-0.14
Muammar Gaddafi,Brotherly Leader and Guide of the Revolution of Libya,0.16,-0.58,0.36,0.36,0.14
Mia Wasikowska,Australian actress,0.68,-0.22,-0.26,0.24,0.04
John F. Kennedy,35th US president,0.64,-0.64,0.9,-0.54,-0.46
Bill Clinton,42th US president,0.64,-0.9,0.92,-0.52,0.16
