Cluster,Name,Openness,Conscientiousness,Extraversion,Agreeableness,Neuroticism
1A,Paranoid,38.25,60.45,32.60,20.90,63.45
1A,Schizoid,36.00,48.75,8.50,42.75,44.25
1A,Schizotypal,54.15,40.50,22.65,42.15,65.70
2A,Antisocial,53.90,32.00,52.50,27.85,57.90
2A,Borderline,57.70,34.30,50.50,33.50,79.40
2A,Histrionic,64.55,37.30,74.85,44.10,57.05
2A,Narcissistic,55.05,44.90,62.00,22.30,49.85
3A,Avoidant,41.70,49.65,15.75,46.85,86.00
3A,Dependent,44.15,46.45,38.45,63.80,71.70
3A,Obsessive-Compulsive,26.85,85.45,36.95,47.05,56.25
1B,Pronoid,61.75,39.55,67.40,79.10,36.55
1B,People-person,64.00,51.25,91.50,57.25,55.75
1B,Sensible,45.85,59.50,77.35,57.85,34.30
2B,Prosocial,46.10,68.00,47.50,72.15,42.10
2B,Straightforward,42.30,65.70,49.50,66.50,20.60
2B,Non-theatrical,35.45,62.70,25.15,55.90,42.95
2B,Unpretentious,44.95,55.10,38.00,77.70,50.15
3B,Accommodating,58.30,50.35,84.25,53.15,14.00
3B,Independent,55.85,53.55,61.55,36.20,28.30
3B,Laissez-faire,73.15,14.55,63.05,52.95,43.75

