Idx,Sign,Key,Facet,Item
1,1,N1,Anxiety,Worry about things.
2,1,E1,Friendliness,Make friends easily.
3,1,O1,Imagination,Have a vivid imagination.
4,1,A1,Trust,Trust others.
5,1,C1,Self-Efficacy,Complete tasks successfully.
6,1,N2,Anger,Get angry easily.
7,1,E2,Gregariousness,Love large parties.
8,1,O2,Artistic Interests,Believe in the importance of art.
9,-1,A2,Morality,Would never cheat on my taxes.
10,1,C2,Orderliness,Like order.
11,1,N3,Depression,Often feel blue.
12,1,E3,Assertiveness,Take charge.
13,1,O3,Emotionality,Experience my emotions intensely.
14,1,A3,Altruism,Make people feel welcome.
15,1,C3,Dutifulness,Try to follow the rules.
16,1,N4,Self-Consciousness,Am easily intimidated.
17,1,E4,Activity Level,Am always busy.
18,1,O4,Adventurousness,Prefer variety to routine.
19,-1,A4,Cooperation,Am easy to satisfy.
20,1,C4,Achievement-Striving,Go straight for the goal.
21,1,N5,Immoderation,Often eat too much.
22,1,E5,Excitement-Seeking,Love excitement.
23,1,O5,Intellect,Like to solve complex problems.
24,-1,A5,Modesty,Dislike being the center of attention.
25,1,C5,Self-Discipline,Get chores done right away.
26,1,N6,Vulnerability,Panic easily.
27,1,E6,Cheerfulness,Radiate joy.
28,1,O6,Liberalism,Tend to vote for liberal political candidates.
29,1,A6,Sympathy,Sympathize with the homeless.
30,-1,C6,Cautiousness,Avoid mistakes.
31,1,N1,Anxiety,Fear for the worst.
32,1,E1,Friendliness,Warm up quickly to others.
33,1,O1,Imagination,Enjoy wild flights of fantasy.
34,1,A1,Trust,Believe that others have good intentions.
35,1,C1,Self-Efficacy,Excel in what I do.
36,1,N2,Anger,Get irritated easily.
37,1,E2,Gregariousness,Talk to a lot of different people at parties.
38,1,O2,Artistic Interests,Like music.
39,-1,A2,Morality,Stick to the rules.
40,-1,C2,Orderliness,Like to tidy up.
41,1,N3,Depression,Dislike myself.
42,1,E3,Assertiveness,Try to lead others.
43,1,O3,Emotionality,Feel others' emotions.
44,1,A3,Altruism,Anticipate the needs of others.
45,1,C3,Dutifulness,Keep my promises.
46,1,N4,Self-Consciousness,Am afraid that I will do the wrong thing.
47,1,E4,Activity Level,Am always on the go.
48,-1,O4,Adventurousness,Like to visit new places.
49,-1,A4,Cooperation,Can't stand confrontations.
50,1,C4,Achievement-Striving,Work hard.
51,-1,N5,Immoderation,Don't know why I do some of the things I do.
52,1,E5,Excitement-Seeking,Seek adventure.
53,-1,O5,Intellect,Love to read challenging material.
54,-1,A5,Modesty,Dislike talking about myself.
55,1,C5,Self-Discipline,Am always prepared.
56,1,N6,Vulnerability,Become overwhelmed by events.
57,1,E6,Cheerfulness,Have a lot of fun.
58,1,O6,Liberalism,Believe that there is no absolute right or wrong.
59,1,A6,Sympathy,Feel sympathy for those who are worse off than myself.
60,-1,C6,Cautiousness,Choose my words with care.
61,1,N1,Anxiety,Am afraid of many things.
62,-1,E1,Friendliness,Feel comfortable around people.
63,1,O1,Imagination,Love to daydream.
64,1,A1,Trust,Trust what people say.
65,1,C1,Self-Efficacy,Handle tasks smoothly.
66,1,N2,Anger,Get upset easily.
67,-1,E2,Gregariousness,Enjoy being part of a group.
68,-1,O2,Artistic Interests,See beauty in things that others might not notice.
69,-1,A2,Morality,Use flattery to get ahead.
70,-1,C2,Orderliness,"Want everything to be ""just right."""
71,1,N3,Depression,Am often down in the dumps.
72,1,E3,Assertiveness,Can talk others into doing things.
73,-1,O3,Emotionality,Am passionate about causes.
74,-1,A3,Altruism,Love to help others.
75,-1,C3,Dutifulness,Pay my bills on time.
76,1,N4,Self-Consciousness,Find it difficult to approach others.
77,1,E4,Activity Level,Do a lot in my spare time.
78,-1,O4,Adventurousness,Interested in many things.
79,-1,A4,Cooperation,Hate to seem pushy.
80,-1,C4,Achievement-Striving,Turn plans into actions.
81,-1,N5,Immoderation,Do things I later regret.
82,1,E5,Excitement-Seeking,Love action.
83,-1,O5,Intellect,Have a rich vocabulary.
84,-1,A5,Modesty,Consider myself an average person.
85,-1,C5,Self-Discipline,Start tasks right away.
86,1,N6,Vulnerability,Feel that I'm unable to deal with things.
87,1,E6,Cheerfulness,Express childlike joy.
88,-1,O6,Liberalism,Believe that criminals should receive help rather than punishment.
89,-1,A6,Sympathy,Value cooperation over competition.
90,-1,C6,Cautiousness,Stick to my chosen path.
91,1,N1,Anxiety,Get stressed out easily.
92,-1,E1,Friendliness,Act comfortably with others.
93,1,O1,Imagination,Like to get lost in thought.
94,-1,A1,Trust,Believe that people are basically moral.
95,1,C1,Self-Efficacy,Am sure of my ground.
96,-1,N2,Anger,Am often in a bad mood.
97,-1,E2,Gregariousness,Involve others in what I am doing.
98,-1,O2,Artistic Interests,Love flowers.
99,-1,A2,Morality,Use others for my own ends.
100,-1,C2,Orderliness,Love order and regularity.
101,-1,N3,Depression,Have a low opinion of myself.
102,-1,E3,Assertiveness,Seek to influence others.
103,-1,O3,Emotionality,Enjoy examining myself and my life.
104,-1,A3,Altruism,Am concerned about others.
105,-1,C3,Dutifulness,Tell the truth.
106,-1,N4,Self-Consciousness,Am afraid to draw attention to myself.
107,-1,E4,Activity Level,Can manage many things at the same time.
108,-1,O4,Adventurousness,Like to begin new things.
109,-1,A4,Cooperation,Have a sharp tongue.
110,-1,C4,Achievement-Striving,Plunge into tasks with all my heart.
111,-1,N5,Immoderation,Go on binges.
112,1,E5,Excitement-Seeking,Enjoy being part of a loud crowd.
113,-1,O5,Intellect,Can handle a lot of information.
114,-1,A5,Modesty,Seldom toot my own horn.
115,-1,C5,Self-Discipline,Get to work at once.
116,-1,N6,Vulnerability,Can't make up my mind.
117,1,E6,Cheerfulness,Laugh my way through life.
118,-1,O6,Liberalism,Believe in one true religion.
119,-1,A6,Sympathy,Suffer from others' sorrows.
120,-1,C6,Cautiousness,Jump into things without thinking.
121,1,N1,Anxiety,Get caught up in my problems.
122,1,E1,Friendliness,Cheer people up.
123,1,O1,Imagination,Indulge in my fantasies.
124,1,A1,Trust,Believe in human goodness.
125,1,C1,Self-Efficacy,Come up with good solutions.
126,1,N2,Anger,Lose my temper.
127,1,E2,Gregariousness,Love surprise parties.
128,1,O2,Artistic Interests,Enjoy the beauty of nature.
129,1,A2,Morality,Know how to get around the rules.
130,1,C2,Orderliness,Do things according to a plan.
131,1,N3,Depression,Have frequent mood swings.
132,1,E3,Assertiveness,Take control of things.
133,1,O3,Emotionality,Try to understand myself.
134,1,A3,Altruism,Have a good word for everyone.
135,1,C3,Dutifulness,Listen to my conscience.
136,1,N4,Self-Consciousness,Only feel comfortable with friends.
137,1,E4,Activity Level,React quickly.
138,1,O4,Adventurousness,Prefer to stick with things that I know.
139,1,A4,Cooperation,Contradict others.
140,1,C4,Achievement-Striving,Do more than what's expected of me.
141,1,N5,Immoderation,Love to eat.
142,1,E5,Excitement-Seeking,Enjoy being reckless.
143,1,O5,Intellect,Enjoy thinking about things.
144,1,A5,Modesty,Believe that I am better than others.
145,-1,C5,Self-Discipline,Carry out my plans.
146,1,N6,Vulnerability,Get overwhelmed by emotions.
147,1,E6,Cheerfulness,Love life.
148,1,O6,Liberalism,Tend to vote for conservative political candidates.
149,1,A6,Sympathy,Am not interested in other people's problems.
150,1,C6,Cautiousness,Make rash decisions.
151,1,N1,Anxiety,Am not easily bothered by things.
152,1,E1,Friendliness,Am hard to get to know.
153,1,O1,Imagination,Spend time reflecting on things.
154,1,A1,Trust,Think that all will be well.
155,1,C1,Self-Efficacy,Know how to get things done.
156,1,N2,Anger,Rarely get irritated.
157,1,E2,Gregariousness,Prefer to be alone.
158,1,O2,Artistic Interests,Do not like art.
159,1,A2,Morality,Cheat to get ahead.
160,1,C2,Orderliness,Often forget to put things back in their proper place.
161,1,N3,Depression,Feel desperate.
162,1,E3,Assertiveness,Wait for others to lead the way.
163,1,O3,Emotionality,Seldom get emotional.
164,1,A3,Altruism,Look down on others.
165,1,C3,Dutifulness,Break rules.
166,1,N4,Self-Consciousness,Stumble over my words.
167,1,E4,Activity Level,Like to take it easy.
168,1,O4,Adventurousness,Dislike changes.
169,1,A4,Cooperation,Love a good fight.
170,1,C4,Achievement-Striving,Set high standards for myself and others.
171,1,N5,Immoderation,Rarely overindulge.
172,1,E5,Excitement-Seeking,Act wild and crazy.
173,1,O5,Intellect,Am not interested in abstract ideas.
174,-1,A5,Modesty,Think highly of myself.
175,1,C5,Self-Discipline,Find it difficult to get down to work.
176,1,N6,Vulnerability,Remain calm under pressure.
177,1,E6,Cheerfulness,Look at the bright side of life.
178,1,O6,Liberalism,Believe that too much tax money goes to support artists.
179,1,A6,Sympathy,Tend to dislike soft-hearted people.
180,1,C6,Cautiousness,Like to act on a whim.
181,1,N1,Anxiety,Am relaxed most of the time.
182,-1,E1,Friendliness,Often feel uncomfortable around others.
183,1,O1,Imagination,Seldom daydream.
184,1,A1,Trust,Distrust people.
185,1,C1,Self-Efficacy,Misjudge situations.
186,1,N2,Anger,Seldom get mad.
187,1,E2,Gregariousness,Want to be left alone.
188,1,O2,Artistic Interests,Do not like poetry.
189,1,A2,Morality,Put people under pressure.
190,1,C2,Orderliness,Leave a mess in my room.
191,-1,N3,Depression,Feel that my life lacks direction.
192,1,E3,Assertiveness,Keep in the background.
193,1,O3,Emotionality,Am not easily affected by my emotions.
194,1,A3,Altruism,Am indifferent to the feelings of others.
195,1,C3,Dutifulness,Break my promises.
196,1,N4,Self-Consciousness,Am not embarrassed easily.
197,1,E4,Activity Level,Like to take my time.
198,-1,O4,Adventurousness,Don't like the idea of change.
199,1,A4,Cooperation,Yell at people.
200,1,C4,Achievement-Striving,Demand quality.
201,1,N5,Immoderation,Easily resist temptations.
202,-1,E5,Excitement-Seeking,Willing to try anything once.
203,-1,O5,Intellect,Avoid philosophical discussions.
204,1,A5,Modesty,Have a high opinion of myself.
205,1,C5,Self-Discipline,Waste my time.
206,-1,N6,Vulnerability,Can handle complex problems.
207,-1,E6,Cheerfulness,Laugh aloud.
208,1,O6,Liberalism,Believe laws should be strictly enforced.
209,-1,A6,Sympathy,Believe in an eye for an eye.
210,-1,C6,Cautiousness,Rush into things.
211,1,N1,Anxiety,Am not easily disturbed by events.
212,1,E1,Friendliness,Avoid contacts with others.
213,-1,O1,Imagination,Do not have a good imagination.
214,-1,A1,Trust,Suspect hidden motives in others.
215,-1,C1,Self-Efficacy,Don't understand things.
216,-1,N2,Anger,Am not easily annoyed.
217,-1,E2,Gregariousness,Don't like crowded events.
218,-1,O2,Artistic Interests,Do not enjoy going to art museums.
219,-1,A2,Morality,Pretend to be concerned for others.
220,-1,C2,Orderliness,Leave my belongings around.
221,-1,N3,Depression,Seldom feel blue.
222,-1,E3,Assertiveness,Have little to say.
223,-1,O3,Emotionality,Rarely notice my emotional reactions.
224,-1,A3,Altruism,Make people feel uncomfortable.
225,1,C3,Dutifulness,Get others to do my duties.
226,-1,N4,Self-Consciousness,Am comfortable in unfamiliar situations.
227,-1,E4,Activity Level,Like a leisurely lifestyle.
228,-1,O4,Adventurousness,Am a creature of habit.
229,-1,A4,Cooperation,Insult people.
230,-1,C4,Achievement-Striving,Am not highly motivated to succeed.
231,1,N5,Immoderation,Am able to control my cravings.
232,1,E5,Excitement-Seeking,Seek danger.
233,-1,O5,Intellect,Have difficulty understanding abstract ideas.
234,1,A5,Modesty,Know the answers to many questions.
235,-1,C5,Self-Discipline,Need a push to get started.
236,-1,N6,Vulnerability,Know how to cope.
237,-1,E6,Cheerfulness,Amuse my friends.
238,-1,O6,Liberalism,Believe that we coddle criminals too much.
239,-1,A6,Sympathy,Try not to think about the needy.
240,-1,C6,Cautiousness,Do crazy things.
241,-1,N1,Anxiety,Don't worry about things that have already happened.
242,-1,E1,Friendliness,Am not really interested in others.
243,-1,O1,Imagination,Seldom get lost in thought.
244,-1,A1,Trust,Am wary of others.
245,-1,C1,Self-Efficacy,Have little to contribute.
246,-1,N2,Anger,Keep my cool.
247,-1,E2,Gregariousness,Avoid crowds.
248,-1,O2,Artistic Interests,Do not like concerts.
249,-1,A2,Morality,Take advantage of others.
250,-1,C2,Orderliness,Am not bothered by messy people.
251,1,N3,Depression,Feel comfortable with myself.
252,-1,E3,Assertiveness,Don't like to draw attention to myself.
253,-1,O3,Emotionality,Experience very few emotional highs and lows.
254,-1,A3,Altruism,Turn my back on others.
255,1,C3,Dutifulness,Do the opposite of what is asked.
256,-1,N4,Self-Consciousness,Am not bothered by difficult social situations.
257,-1,E4,Activity Level,Let things proceed at their own pace.
258,-1,O4,Adventurousness,Dislike new foods.
259,-1,A4,Cooperation,Get back at others.
260,-1,C4,Achievement-Striving,Do just enough work to get by.
261,-1,N5,Immoderation,Never spend more than I can afford.
262,-1,E5,Excitement-Seeking,Would never go hang gliding or bungee jumping.
263,-1,O5,Intellect,Am not interested in theoretical discussions.
264,-1,A5,Modesty,Boast about my virtues.
265,-1,C5,Self-Discipline,Have difficulty starting tasks.
266,-1,N6,Vulnerability,Readily overcome setbacks.
267,-1,E6,Cheerfulness,Am not easily amused.
268,-1,O6,Liberalism,Believe that we should be tough on crime.
269,-1,A6,Sympathy,Believe people should fend for themselves.
270,-1,C6,Cautiousness,Act without thinking.
271,-1,N1,Anxiety,Adapt easily to new situations.
272,-1,E1,Friendliness,Keep others at a distance.
273,-1,O1,Imagination,Have difficulty imagining things.
274,-1,A1,Trust,Believe that people are essentially evil.
275,-1,C1,Self-Efficacy,Don't see the consequences of things.
276,-1,N2,Anger,Rarely complain.
277,-1,E2,Gregariousness,Seek quiet.
278,-1,O2,Artistic Interests,Do not enjoy watching dance performances.
279,-1,A2,Morality,Obstruct others' plans.
280,-1,C2,Orderliness,Am not bothered by disorder.
281,-1,N3,Depression,Am very pleased with myself.
282,-1,E3,Assertiveness,Hold back my opinions.
283,-1,O3,Emotionality,Don't understand people who get emotional.
284,-1,A3,Altruism,Take no time for others.
285,-1,C3,Dutifulness,Misrepresent the facts.
286,-1,N4,Self-Consciousness,Am able to stand up for myself.
287,-1,E4,Activity Level,React slowly.
288,-1,O4,Adventurousness,Am attached to conventional ways.
289,-1,A4,Cooperation,Hold a grudge.
290,-1,C4,Achievement-Striving,Put little time and effort into my work.
291,-1,N5,Immoderation,Never splurge.
292,-1,E5,Excitement-Seeking,Dislike loud music.
293,-1,O5,Intellect,Avoid difficult reading material.
294,-1,A5,Modesty,Make myself the center of attention.
295,-1,C5,Self-Discipline,Postpone decisions.
296,-1,N6,Vulnerability,Am calm even in tense situations.
297,-1,E6,Cheerfulness,Seldom joke around.
298,-1,O6,Liberalism,Like to stand during the national anthem.
299,-1,A6,Sympathy,Can't stand weak people.
300,-1,C6,Cautiousness,Often make last-minute plans.
