\relax 
\bibstyle{aaai24}
\citation{}
\citation{}
\citation{}
\citation{boeda_ai_2021,austin_independent_2022,trachel_machine_2022}
\citation{popescu_gamygdala_2014,shirvani_formalization_2020,klinkert_artificial_2021}
\citation{zhao_survey_2023}
\citation{azamfirei_large_2023,wang_augmenting_2023}
\citation{takeyama_unexpected_2023}
\citation{millington_artificial_2019}
\citation{park_generative_2023}
\citation{popescu_gamygdala_2014,shirvani_formalization_2020,klinkert_artificial_2021}
\citation{klinkert_artificial_2021}
\citation{goldberg_development_1992}
\citation{goldberg_development_1992}
\citation{mensvoort_system_nodate}
\citation{mensvoort_system_nodate}
\citation{mensvoort_system_nodate}
\citation{noauthor_open_nodate,goldberg_development_1992}
\citation{goldberg_ipip_nodate}
\citation{mensvoort_system_nodate}
