idx,Sign,Key,Facet,Item
1,1,PAS,Physical,Once in a while I can't control the urge to strike another person.
2,1,PAS,Physical,"Given enough provocation, I may hit another person."
3,1,PAS,Physical,"If somebody hits me, I hit back."
4,1,PAS,Physical,I get into fights a little more than the average person.
5,1,PAS,Physical,"If I have to resort to violence to protect my rights, I will."
6,1,PAS,Physical,There are people who pushed me so far that we came to blows.
7,-1,PAS,Physical,I can think of no good reason for ever hitting a person.
8,1,PAS,Physical,I have threatened people I know.
9,1,PAS,Physical,I have become so mad that I have broken things.
10,1,VAS,Verbal,I tell my friends openly when I disagree with them.
11,1,VAS,Verbal,I often find myself disagreeing with people.
12,1,VAS,Verbal,"When people annoy me, I may tell them what I think of them."
13,1,VAS,Verbal,I can't help getting into arguments when people disagree with me.
14,1,VAS,Verbal,My friends say that I'm somewhat argumentative.
15,1,AAS,Anger,I flare up quickly but get over it quickly.
16,1,AAS,Anger,"When frustrated, I let my irritation show."
17,1,AAS,Anger,I sometimes feel like a powder keg ready to explode.
18,-1,AAS,Anger,I am an even-tempered person.
19,1,AAS,Anger,Some of my friends think I'm a hothead.
20,1,AAS,Anger,Sometimes I fly off the handle for no good reason.
21,1,AAS,Anger,I have trouble controlling my temper.
22,1,HAS,Hostility,I am sometimes eaten up with jealousy.
23,1,HAS,Hostility,At times I feel I have gotten a raw deal out of life.
24,1,HAS,Hostility,Other people always seem to get the breaks.
25,1,HAS,Hostility,I wonder why sometimes I feel so bitter about things.
26,1,HAS,Hostility,"I know that ""friends"" talk about me behind my back."
27,1,HAS,Hostility,I am suspicious of overly friendly strangers.
28,1,HAS,Hostility,I sometimes feel that people are laughing at me behind my back.
29,1,HAS,Hostility,"When people are especially nice, I wonder what they want."
