^D:\GIT\THESIS\ARTIFICIAL-PSYCHOSOCIAL-FRAMEWORK\STATIC LIB\DEBUG\APF_LIB.OBJ|D:\GIT\THESIS\ARTIFICIAL-PSYCHOSOCIAL-FRAMEWORK\STATIC LIB\DEBUG\EVENT.OBJ|D:\GIT\THESIS\ARTIFICIAL-PSYCHOSOCIAL-FRAMEWORK\STATIC LIB\DEBUG\MENTALSTATE.OBJ|D:\GIT\THESIS\ARTIFICIAL-PSYCHOSOCIAL-FRAMEWORK\STATIC LIB\DEBUG\RELATIONS.OBJ|D:\GIT\THESIS\ARTIFICIAL-PSYCHOSOCIAL-FRAMEWORK\STATIC LIB\DEBUG\TRAIT.OBJ|D:\GIT\THESIS\ARTIFICIAL-PSYCHOSOCIAL-FRAMEWORK\STATIC LIB\DEBUG\VOCABULARY.OBJ
D:\GIT\THESIS\ARTIFICIAL-PSYCHOSOCIAL-FRAMEWORK\STATIC LIB\DEBUG\APF_LIB.OBJ
C:\WINDOWS\SYSTEM32\TZRES.DLL
D:\GIT\THESIS\ARTIFICIAL-PSYCHOSOCIAL-FRAMEWORK\STATIC LIB\DEBUG\EVENT.OBJ
D:\GIT\THESIS\ARTIFICIAL-PSYCHOSOCIAL-FRAMEWORK\STATIC LIB\DEBUG\MENTALSTATE.OBJ
D:\GIT\THESIS\ARTIFICIAL-PSYCHOSOCIAL-FRAMEWORK\STATIC LIB\DEBUG\RELATIONS.OBJ
D:\GIT\THESIS\ARTIFICIAL-PSYCHOSOCIAL-FRAMEWORK\STATIC LIB\DEBUG\TRAIT.OBJ
D:\GIT\THESIS\ARTIFICIAL-PSYCHOSOCIAL-FRAMEWORK\STATIC LIB\DEBUG\VOCABULARY.OBJ
C:\WINDOWS\GLOBALIZATION\SORTING\SORTDEFAULT.NLS
