,E,N,A,C,O
0,"
Index,Response
0,5
1,1
2,4
3,1
4,5
5,2
6,4
7,1
8,4
9,1","
Index,Response
0,3
1,3
2,5
3,1
4,4
5,2
6,4
7,4
8,2
9,3","
Index, Response
0, 1 
1, 5
2, 1
3, 4
4, 3
5, 5
6, 1
7, 4
8, 5
9, 4","
Index, Response
0, 2
1, 5
2, 4
3, 1
4, 5
5, 2
6, 4
7, 1
8, 4
9, 5","
Index, Response
0, 5
1, 1
2, 5
3, 1
4, 5
5, 1"
1,"
Index	Response
0, 4
1, 1
2, 5
3, 1
4, 5
5, 1
6, 5
7, 1
8, 4
9, 1","
Index,Response
0,2
1,1
2,4
3,2
4,4
5,2
6,3
7,3
8,4
9,3","
Index,Response
0,1
1,5
2,1
3,4
4,1
5,5
6,1
7,5
8,5
9,5","
Index, Response
0, 5 
1, 1 
2, 4 
3, 1 
4, 2 
5, 3 
6, 4 
7, 1 
8, 3 
9, 2","
Index	Response
0, 5 
1, 1 
2, 5 
3, 2 
4, 5 
5, 2 
6, 5 
7, 4 
8, 4 
9, 5"
2,"
    Index, Response
    0, 4
    1, 1
    2, 5
    3, 2
    4, 5
    5, 2
    6, 5
    7, 2
    8, 4
    9, 3","
Index, Response
0, 5
1, 1 
2, 5
3, 1
4, 4
5, 5
6, 4
7, 5
8, 4 
9, 2","
Index,Response
0,1
1,5
2,1
3,4
4,2
5,5
6,1
7,5
8,4
9,5","
Index,Response
0,1
1,4
2,5
3,1
4,4
5,2
6,5
7,1
8,4
9,5","
Index	Response
0,	5
1,	1
2,	5
3,	2
4,	5
5,	1
6,	4
7,	4
8,	3
9,	5"
3,"
Index, Response
0, 4
1, 1
2, 5
3, 2
4, 5
5, 2
6, 5
7, 2
8, 5
9, 2","
Index,Response
0,3
1,4
2,1
3,2
4,5
5,1
6,4
7,3
8,1
9,2","
Index, Response
0, 1
1, 5
2, 1
3, 4
4, 3
5, 5
6, 1
7, 5
8, 4
9, 5","
Index,Response
0,3
1,1
2,4
3,1
4,5
5,2
6,4
7,1
8,5
9,4","
Index, Response
0, 5
1, 1
2, 5
3, 1
4, 5
5, 1
6, 5
7, 5
8, 4
9, 5"
4,"
Index, Response
0, 4
1, 1
2, 5
3, 1
4, 5
5, 1
6, 5
7, 1
8, 5
9, 1","
Index, Response
0, 3
1, 4
2, 5
3, 2
4, 5
5, 1
6, 4
7, 5
8, 1
9, 2","
Index, Response
0, 1
1, 5
2, 1
3, 5
4, 4
5, 5
6, 1
7, 4
8, 5
9, 5","
Index, Response
0, 2
1, 5
2, 4
3, 1
4, 5
5, 2
6, 4
7, 1
8, 5
9, 4","
Index,Response
0, 5
1, 1
2, 5
3, 1
4, 5
5, 1"
5,"
Index	Response
0, 4
1, 1
2, 5
3, 2
4, 4
5, 1
6, 5
7, 2
8, 4
9, 2","
Index, Response
0, 5
1, 1
2, 4
3, 1
4, 5
5, 3
6, 4
7, 5
8, 4
9, 2","
Index,Response
0,1
1,5
2,1
3,4
4,3
5,5
6,1
7,4
8,4
9,5","
Index	Response
0, 3
1, 1
2, 5
3, 2
4, 5
5, 4
6, 5
7, 1
8, 5
9, 4","
Index	Response
0, 5
1, 1
2, 5
3, 1
4, 5
5, 1
6, 5
7, 4
8, 4
9, 5"
6,"
Index,Response
0, 4
1, 2
2, 5
3, 1
4, 5
5, 2
6, 4
7, 1
8, 3
9, 4","
Index, Response
0, 4
1, 1
2, 5
3, 2
4, 5
5, 2
6, 5
7, 4
8, 4
9, 1","
Index, Response
0, 1
1, 5
2, 1
3, 4
4, 3
5, 5
6, 1
7, 4
8, 5
9, 4","
Index,Response
0,5
1,1
2,4
3,1
4,5
5,2
6,4
7,1
8,5
9,4","
Index,Response
0,5
1,1
2,5
3,1
4,5
5,1"
7,"
Index, Response
0, 4
1, 2
2, 5
3, 1
4, 5
5, 1
6, 4
7, 2
8, 4
9, 1","
Index, Response
0, 5
1, 4
2, 5
3, 1
4, 5
5, 2
6, 4
7, 5
8, 2
9, 1","
Index, Response
0, 2
1, 5
2, 1
3, 4
4, 1
5, 5
6, 2
7, 4
8, 5
9, 4","
Index	Response
0, 4
1, 1
2, 5
3, 2
4, 5
5, 2
6, 4
7, 1
8, 5
9, 5","
Index, Response
0, 5 
1, 1 
2, 5 
3, 1 
4, 5 
5, 1 
6, 4 
7, 5 
8, 3 
9, 5"
8,"
Index, Response
0, 4
1, 1
2, 5
3, 1
4, 5
5, 1
6, 4
7, 1
8, 4
9, 2","
Index, Response
0, 3
1, 4
2, 5
3, 1
4, 5
5, 2
6, 4
7, 3
8, 2
9, 1","
Index, Response
0, 2
1, 5
2, 1
3, 4
4, 1
5, 5
6, 1
7, 4
8, 5
9, 4","
Index,Response
0,5
1,1
2,4
3,1
4,5
5,2
6,4
7,1
8,5
9,4","
    Index, Response
    0, 4
    1, 1
    2, 5
    3, 2 
    4, 5
    5, 1
    6, 4
    7, 5
    8, 4
    9, 5"
9,"
Index,Response
0,5
1,2
2,4
3,2
4,5
5,2
6,4
7,2
8,4
9,2","
Index	Response
0, 5
1, 4
2, 5
3, 1
4, 5
5, 2
6, 4
7, 4
8, 2
9, 1","
Index	Response
0, 1
1, 5
2, 1
3, 5
4, 4
5, 5
6, 1
7, 5
8, 5
9, 5","
    Index, Response
    0, 4
    1, 1
    2, 5
    3, 2
    4, 4
    5, 2
    6, 5
    7, 1
    8, 5
    9, 4","
Index,Response
0,5
1,2
2,5
3,1
4,5
5,2
6,4
7,3
8,4
9,5"
10,"
Index, Response
0, 4
1, 1
2, 5
3, 2
4, 5
5, 2
6, 4
7, 2
8, 1
9, 3","
Index, Response
0, 5
1, 1
2, 5
3, 1
4, 5
5, 5
6, 4
7, 4
8, 4
9, 5","
Index, Response
0, 2
1, 5
2, 1
3, 4
4, 1
5, 5
6, 2
7, 5
8, 4
9, 5","
Index, Response
0, 4
1, 2
2, 5
3, 1
4, 5
5, 3
6, 4
7, 1
8, 5
9, 5","
Index, Response
0, 5
1, 1
2, 5
3, 1
4, 5
5, 1
6, 4
7, 5
8, 3
9, 5"
11,"
Index,Response
0,5
1,1
2,4
3,2
4,5
5,2
6,4
7,2
8,5
9,2","
Index	Response
0	1
1	4
2	1
3	2
4	1
5	3
6	1
7	2
8	1
9	2","
Index,Response
0,2
1,5
2,1
3,4
4,2
5,5
6,1
7,3
8,4
9,5","
Index, Response
0, 4
1, 2
2, 5
3, 1
4, 5
5, 2
6, 4
7, 1
8, 5
9, 5","
Index, Response
0, 4
1, 1
2, 5
3, 1
4, 5
5, 1"
12,"
Index,Response
0,4
1,2
2,5
3,1
4,5
5,2
6,5
7,1
8,4
9,1","
Index, Response
0, 5
1, 1
2, 5
3, 1
4, 5
5, 5
6, 4
7, 4
8, 5
9, 5","
Index, Response
0, 1
1, 5
2, 1
3, 4
4, 5
5, 5
6, 1
7, 5
8, 4
9, 5","
Index, Response
0, 4
1, 1
2, 5
3, 1
4, 4
5, 2
6, 5
7, 1
8, 5
9, 5","
Index, Response
0, 4
1, 1
2, 5
3, 2
4, 5
5, 1
6, 4
7, 5
8, 3
9, 5"
13,"
Index, Response
0, 4
1, 1
2, 5
3, 2
4, 5
5, 2
6, 4
7, 2
8, 4
9, 1","
Index, Response
0, 3
1, 5
2, 2
3, 1
4, 4
5, 2","
Index, Response
0, 1
1, 5
2, 1
3, 4
4, 5
5, 4
6, 1
7, 4
8, 5
9, 4","
Index	Response
0, 4 
1, 1
2, 5
3, 2
4, 5
5, 2
6, 5
7, 1
8, 5
9, 5","
Index,Response
0,5
1,1
2,5
3,1
4,5
5,1
6,4
7,5
8,4
9,5"
14,"
Index,Response
0,4
1,1
2,5
3,2
4,4
5,2
6,5
7,2
8,5
9,2","
Index,Response
0, 3
1, 4
2, 1
3, 2
4, 5
5, 1
6, 4
7, 3
8, 5
9, 4","
Index, Response
0, 1
1, 5
2, 1
3, 4
4, 3
5, 5
6, 1
7, 4
8, 5
9, 4","
Index,Response
0,2
1,5
2,4
3,1
4,5
5,3
6,4
7,2
8,5
9,4","
Index, Response
0, 5
1, 1
2, 5
3, 1
4, 5
5, 1
6, 4
7, 5
8, 3
9, 5"
15,"
Index	Response
0, 5
1, 1
2, 5
3, 1
4, 5
5, 1
6, 5
7, 1
8, 5
9, 1","
Index,Response
0,3
1,4
2,5
3,2
4,5
5,3
6,4
7,3
8,2
9,3","
Index, Response
0, 2
1, 5
2, 1
3, 4
4, 1
5, 5
6, 2
7, 5
8, 4
9, 5","
Index	Response
0, 4
1, 2
2, 5
3, 1
4, 5
5, 2
6, 4
7, 1
8, 5
9, 4","
Index, Response
0, 5
1, 1
2, 5
3, 1
4, 5
5, 1
6, 4
7, 5
8, 4
9, 5"
16,"
Index,Response
0,4
1,2
2,5
3,1
4,5
5,2
6,5
7,1
8,4
9,1","
Index Response
0 4
1 3
2 5
3 1
4 5
5 2","
    Index, Response
    0, 2
    1, 4
    2, 1
    3, 5
    4, 4
    5, 5
    6, 2
    7, 5
    8, 4
    9, 4","
Index	Response
0,	4
1,	2
2,	5
3,	1
4,	4
5,	2
6,	5
7,	1
8,	4
9,	5","
Index,Response
0, 5
1, 1
2, 5
3, 1
4, 5
5, 1
6, 4
7, 5
8, 3
9, 5"
17,"
Index,Response
0,4
1,1
2,5
3,2
4,5
5,2
6,4
7,2
8,4
9,1","
Index,Response
0,3
1,4
2,5
3,2
4,4
5,3
6,3
7,3
8,2
9,1","
Index, Response
0, 2
1, 5
2, 1
3, 4
4, 2
5, 5
6, 2
7, 5
8, 4
9, 5","
Index, Response
0, 4
1, 1
2, 5
3, 1
4, 5
5, 2
6, 5
7, 1
8, 5
9, 4","
Index, Response
0,5
1,1
2,5
3,1
4,5
5,1"
18,"
Index, Response
0, 4
1, 1
2, 5
3, 2
4, 5
5, 2
6, 5
7, 2
8, 4
9, 1","
Index	Response
0, 4
1, 2
2, 5
3, 1
4, 5
5, 2
6, 3
7, 4
8, 2
9, 1","
Index, Response
0, 1
1, 5
2, 1
3, 5
4, 4
5, 5
6, 1
7, 5
8, 5
9, 5","
Index, Response
0, 4
1, 1
2, 5
3, 1
4, 5
5, 2
6, 5
7, 1
8, 5
9, 4","
Index, Response
0, 5
1, 1
2, 5
3, 1
4, 5
5, 1"
19,"
Index, Response
0, 5
1, 1
2, 5
3, 1
4, 5
5, 1
6, 5
7, 1
8, 5
9, 1","
Index, Response
0, 3
1, 4
2, 5
3, 1
4, 5
5, 2
6, 4
7, 5
8, 2
9, 1","
Index, Response
0, 2
1, 5
2, 1
3, 4
4, 3
5, 5
6, 2
7, 4
8, 5
9, 4","
Index, Response
0, 4
1, 1
2, 5
3, 2
4, 5
5, 2
6, 4
7, 1
8, 5
9, 5","
Index	Response
0, 5
1, 1
2, 5 
3, 1 
4, 5 
5, 1 
6, 5 
7, 5 
8, 5 
9, 5"
20,"
    Index	Response
    0, 4
    1, 4
    2, 5
    3, 2
    4, 5
    5, 2
    6, 5
    7, 2
    8, 4
    9, 2","
Index	Response
0, 5
1, 1
2, 5
3, 1
4, 4
5, 2
6, 4
7, 5
8, 2
9, 3","
Index,Response
0,2
1,5
2,1
3,4
4,2
5,5
6,1
7,5
8,4
9,5","
Index,Response
0,4
1,1
2,5
3,1
4,4
5,2","
Index	Response
0,	5
1,	1
2,	5
3,	2
4,	5
5,	1
6,	4
7,	5
8,	3
9,	5"
21,"
Index, Response
0, 5
1, 1 
2, 5
3, 2
4, 5
5, 1
6, 5
7, 2
8, 5
9, 2","
Index, Response
0, 5
1, 1
2, 5
3, 1
4, 5
5, 5
6, 5
7, 5
8, 5
9, 2","
Index, Response
0, 1
1, 4
2, 1
3, 5
4, 3
5, 5
6, 1
7, 4
8, 5
9, 5","
Index,Response
0,1
1,2
2,4
3,2
4,5
5,1
6,4
7,1
8,5
9,5","
Index,Response
0,5
1,1
2,5
3,1
4,5
5,1"
22,"
Index	Response
0	5
1	2
2	4
3	1
4	5
5	2
6	4
7	1
8	4
9	2","
Index,Response
0,3
1,4
2,5
3,2
4,1
5,3","
Index,Response
0,3
1,5
2,1
3,4
4,3
5,5
6,1
7,4
8,5
9,4","
Index, Response
0, 5
1, 1
2, 5
3, 1
4, 4
5, 1
6, 5
7, 1
8, 5
9, 5","
Index, Response
0, 5
1, 1
2, 5
3, 1
4, 4
5, 1"
23,"
Index,Response
0, 4
1, 1
2, 5
3, 2
4, 5
5, 1
6, 4
7, 2
8, 4
9, 2","
Index	Response
0, 4
1, 1
2, 5
3, 2
4, 5
5, 3
6, 5
7, 4
8, 3
9, 2","
Index, Response
0, 2
1, 5
2, 1
3, 4
4, 2
5, 5
6, 1
7, 4
8, 4
9, 5","
Index, Response
0, 5
1, 1
2, 4
3, 1
4, 5
5, 2
6, 4
7, 1
8, 5
9, 4","
Index,Response
0,5
1,1
2,5
3,1
4,5
5,1
6,4
7,5
8,4
9,5"
24,"
Index, Response
0, 5
1, 1
2, 4
3, 2
4, 5
5, 2
6, 4
7, 2
8, 5
9, 1","
Index, Response
0, 3 
1, 4
2, 5
3, 1
4, 5
5, 2
6, 4
7, 3
8, 2
9, 1","
Index, Response
0, 1
1, 5
2, 1
3, 5
4, 4
5, 5
6, 1
7, 5
8, 5
9, 5","
Index	Response
0, 2
1, 1
2, 4 
3, 1
4, 5
5, 2
6, 4
7, 1
8, 5
9, 4","
Index, Response
0, 5
1, 1
2, 5
3, 1
4, 5
5, 1"
25,"
    Index, Response
    0, 5
    1, 1
    2, 5
    3, 1
    4, 4
    5, 1
    6, 5
    7, 1
    8, 4
    9, 2","
Index, Response
0, 5
1, 1
2, 5
3, 1
4, 5
5, 5
6, 4
7, 4
8, 5
9, 5","
Index, Response
0, 1
1, 5
2, 1
3, 4
4, 2
5, 5
6, 1
7, 4
8, 5
9, 5","
Index, Response
0, 4
1, 1
2, 5
3, 2
4, 5
5, 2
6, 4
7, 1
8, 5
9, 5","
Index	Response
0	5
1	1
2	5
3	1
4	5
5	1
6	5
7	5
8	3
9	5"
26,"
Index	Response
0, 5
1, 3
2, 5
3, 2
4, 5
5, 2
6, 5
7, 2
8, 4
9, 2","
Index	Response
0, 5
1, 1
2, 5
3, 1
4, 5
5, 3
6, 4
7, 4
8, 5
9, 4","
Index, Response
0, 2
1, 5
2, 1
3, 4
4, 1
5, 5
6, 2
7, 5
8, 5
9, 4","
Index, Response
0, 4
1, 1
2, 5
3, 1
4, 5
5, 2
6, 4
7, 1
8, 5
9, 5","
Index	Response
0, 5
1, 1
2, 5
3, 1
4, 5
5, 1
6, 4
7, 4
8, 4
9, 5"
27,"
Index, Response
0, 5
1, 1
2, 4
3, 2
4, 5
5, 1
6, 4
7, 2 
8, 5
9, 2","
Index	Response
0, 5
1, 1
2, 5
3, 1
4, 4
5, 2
6, 4
7, 3
8, 2
9, 4","
Index,Response
0,1
1,5
2,1
3,4
4,3
5,5
6,1
7,4
8,5
9,5","
Index, Response
0, 5
1, 1
2, 4
3, 1
4, 5
5, 2","
Index, Response
0, 5
1, 1
2, 5
3, 1
4, 5
5, 1"
28,"
Index, Response
0, 5
1, 1
2, 4
3, 2
4, 5
5, 1
6, 4
7, 2
8, 5
9, 4","
Index, Response
0, 5
1, 1
2, 5
3, 1
4, 5
5, 5
6, 4
7, 4
8, 2
9, 2","
Index, Response
0, 2
1, 4
2, 1
3, 5
4, 4
5, 5
6, 2
7, 3
8, 4
9, 5","
Index,Response
0,3
1,1
2,5
3,1
4,4
5,2
6,5
7,1
8,4
9,5","
Index, Response
0, 5
1, 1
2, 5
3, 1
4, 5
5, 1"
29,"
Index, Response
0, 5
1, 1 
2, 4
3, 1
4, 5
5, 1
6, 5
7, 1
8, 3
9, 5","
Index, Response
0, 2
1, 5
2, 4
3, 1
4, 4
5, 2
6, 4
7, 3
8, 2
9, 2","
Index,Response
0, 1
1, 5
2, 1
3, 4
4, 3
5, 5
6, 1
7, 5
8, 4
9, 4","
Index, Response
0, 4
1, 1
2, 5
3, 2
4, 5
5, 2
6, 4
7, 1
8, 5
9, 4","
Index, Response
0, 5
1, 1
2, 5
3, 1
4, 5
5, 1
6, 4
7, 5
8, 4
9, 5"
30,"
Index, Response
0, 4
1, 3
2, 5
3, 1
4, 5
5, 2
6, 5
7, 3
8, 4
9, 1","
Index, Response
0, 4
1, 1
2, 5
3, 1
4, 5
5, 2
6, 5
7, 4
8, 2
9, 2","
Index	Response
0, 2
1, 5
2, 1
3, 4
4, 2
5, 5
6, 2
7, 5
8, 4
9, 5","
Index, Response
0, 4
1, 1
2, 5
3, 2
4, 5
5, 2","
Index,Response
0,5
1,1
2,5
3,1
4,4
5,1"
31,"
Index, Response
0, 4
1, 1
2, 5
3, 2
4, 5
5, 1
6, 4
7, 2
8, 4
9, 2","
Index, Response
0, 5
1, 1
2, 5
3, 1
4, 5
5, 5
6, 4
7, 4
8, 5
9, 3","
Index, Response
0, 1
1, 5
2, 1
3, 5
4, 5
5, 5
6, 1
7, 4
8, 4
9, 5","
Index, Response
0, 2
1, 5
2, 4
3, 1
4, 4
5, 2
6, 4
7, 1
8, 4
9, 5","
Index, Response
0, 5
1, 1
2, 5
3, 1
4, 5
5, 1"
32,"
Index,Response
0,4
1,1
2,5
3,2
4,5
5,2
6,4
7,2
8,4
9,1","
Index, Response
0, 3 
1, 4
2, 1
3, 2
4, 4
5, 1
6, 3
7, 2
8, 1
9, 2","
Index, Response
0, 2 
1, 5 
2, 1 
3, 4 
4, 2 
5, 3 
6, 2
7, 4 
8, 4
9, 3","
Index, Response 
0, 4
1, 1
2, 5
3, 2
4, 5 
5, 3
6, 4
7, 1
8, 5 
9, 5","
Index,Response
0, 5
1, 1
2, 5
3, 1
4, 5
5, 1"
33,"
Index, Response
0, 4
1, 1 
2, 5
3, 2
4, 5
5, 2
6, 4
7, 2
8, 1
9, 3","
Index,Response
0, 3 
1, 4
2, 5 
3, 2 
4, 1
5, 2","
Index	Response
0,	3
1,	5
2,	1
3,	4
4,	2
5,	5
6,	2
7,	4
8,	4
9,	5","
Index, Response
0, 4
1, 1
2, 5
3, 2
4, 5
5, 2
6, 4
7, 1
8, 5
9, 5","
Index, Response
0, 5
1, 1
2, 5
3, 1
4, 5
5, 1"
34,"
Index, Response
0, 5
1, 1
2, 4
3,2
4, 5
5,1
6,4
7,2
8,3
9,1","
Index,Response
0,3
1,1
2,5
3,2
4,5
5,1
6,4
7,4
8,3
9,2","
Index, Response
0, 2
1, 5
2, 1
3, 4
4, 2
5, 5
6, 2
7, 5
8, 4
9, 5","
Index,Response
0,1
1,4
2,5
3,1
4,4
5,2
6,5
7,1
8,4
9,5","
Index, Response
0, 5
1, 1
2, 5
3, 1
4, 5
5, 1"
35,"
Index,Response
0,4
1,1
2,5
3,2
4,5
5,1
6,5
7,2
8,5
9,2","
Index	Response
0, 4
1, 1
2, 5
3, 2
4, 5
5, 4
6, 3
7, 4
8, 5
9, 2","
Index, Response
0, 1
1, 5
2, 1
3, 4
4, 5
5, 4
6, 1
7, 5
8, 4
9, 5","
Index, Response
 0, 4
 1, 1
 2, 5
 3, 2
 4, 5
 5, 2
 6, 5
 7, 1
 8, 5
 9, 5","
Index, Response
0, 5
1, 1
2, 5
3, 1
4, 5
5, 1"
36,"
Index, Response
0, 4
1, 1
2, 5
3, 2
4, 5
5, 2
6, 4
7, 1
8, 5
9, 2","
Index,Response
0,5
1,4
2,5
3,1
4,4
5,2
6,4
7,3
8,2
9,3","
Index	Response
0, 5
1, 4
2, 1
3, 4
4, 2
5, 5
6, 1
7, 4
8, 5
9, 5","
Index	Response
0, 5
1, 1
2, 4
3, 1
4, 5
5, 2
6, 4
7, 1
8, 4
9, 5","
Index, Response
0, 5
1, 1
2, 5
3, 1
4, 5
5, 1"
37,"
Index,Response
0,4
1,1
2,5
3,2
4,5
5,2
6,5
7,2
8,4
9,2","
Index, Response
0, 4
1, 1
2, 5
3, 2
4, 5
5, 1
6, 5
7, 5
8, 4
9, 2","
Index,Response
0,1
1,5
2,1
3,4
4,2
5,5
6,1
7,4
8,5
9,5","
Index, Response
0, 5
1, 1
2, 5
3, 1
4, 5
5, 2","
Index,Response
0,5
1,1
2,5
3,1
4,5
5,1"
38,"
Index,Response
0,4 
1,1 
2,5 
3,2 
4,5 
5,2 
6,4 
7,2 
8,4 
9,1","
Index,Response
0,2
1,5
2,4
3,1
4,3
5,2
6,4
7,3
8,2
9,1","
    Index	Response
    0, 4
    1, 5
    2, 2
    3, 5
    4, 4
    5, 5
    6, 3
    7, 4
    8, 5
    9, 4","
Index	Response
0, 4
1, 1
2, 5
3, 2
4, 5
5, 2
6, 5
7, 1
8, 5
9, 4","
Index, Response
0, 5
1, 1
2, 5
3, 1
4, 4
5, 1"
39,"
Index, Response
0, 4
1, 1
2, 5
3, 1
4, 4
5, 2
6, 5
7, 1
8, 4
9, 2","
Index, Response
0, 5
1, 4
2, 5
3, 1
4, 5
5, 2
6, 4
7, 5
8, 2
9, 1","
Index, Response
0, 2
1, 5
2, 1
3, 4
4, 2
5, 5
6, 2
7, 4
8, 5
9, 5","
Index	Response
0, 4
1, 2
2, 5
3, 1
4, 5
5, 2
6, 4
7, 1
8, 4
9, 5","
Index, Response
0, 4
1, 1
2, 5
3, 1
4, 5
5, 1
6, 4
7, 5
8, 4
9, 5"
40,"
Index	Response
0, 5
1, 1
2, 5
3, 1
4, 5
5, 1
6, 5
7, 1
8, 5
9, 1","
Index,Response
0,3
1,1
2,5
3,2
4,4
5,3
6,4
7,2
8,4
9,1","
Index,Response
0,1
1,5
2,1
3,5
4,2
5,5
6,1
7,5
8,5
9,5","
Index, Response
0, 4
1, 1
2, 5
3, 2
4, 5
5, 2
6, 4
7, 1
8, 5
9, 5","
Index, Response
0, 4
1, 1
2, 5 
3, 1
4, 5 
5, 1
6, 4
7, 5
8, 2
9, 5"
41,"
    Index, Response
    0, 4
    1, 3
    2, 5
    3, 2
    4, 5
    5, 2
    6, 5
    7, 2
    8, 4
    9,3","
Index, Response
0, 2
1, 5
2, 4
3, 1
4, 2
5, 3
6, 4
7, 3
8, 2
9, 1","
Index, Response
0, 1
1, 5
2, 1
3, 4
4, 3
5, 5
6, 1
7, 4
8, 5
9, 5","
Index, Response
0, 4
1, 1
2, 5
3, 1
4, 5
5, 2
6, 4
7, 1
8, 5
9, 5","
Index, Response
0, 5
1, 1
2, 5
3, 1
4, 5
5, 1"
42,"
Index, Response
0, 5
1, 1
2, 4
3, 2
4, 5
5, 1
6, 4
7, 2
8, 4
9, 1","
Index, Response
0, 4
1, 1
2, 5
3, 2
4, 4
5, 1
6, 5
7, 5
8, 4
9, 2","
Index	Response
 0, 4
 1, 5
 2, 1
 3, 5
 4, 4
 5, 5
 6, 2
 7, 5
 8, 5
 9, 5","
Index, Response
0, 3
1, 1
2, 4
3, 1
4, 5 
5, 2 
6, 4 
7, 1 
8, 5
9, 4","
Index, Response
0, 4
1, 1
2, 5
3, 1
4, 5
5, 1
6, 4
7, 5
8, 3
9, 5"
43,"
Index, Response
0, 4
1, 2
2, 5
3, 1
4, 5
5, 1
6, 4
7, 1
8, 4
9, 2","
Index	Response
0, 5
1, 4
2, 5
3, 1
4, 5
5, 2
6, 4
7, 3
8, 1
9, 2","
Index	Response
0, 2
1, 5
2, 1
3, 4
4, 3
5, 5
6, 2
7, 4
8, 4
9, 5","
Index, Response
0, 5
1, 1
2, 4 
3, 1
4, 5
5, 2
6, 4
7, 1 
8, 5 
9, 4","
Index,Response
0,5 
1,1 
2, 5
3, 1
4, 5
5, 1 
6, 4
7, 5
8, 4
9, 5"
44,"
Index	Response
0, 4
1, 1
2, 5
3, 2
4, 5
5, 2
6, 5
7, 2
8, 4
9, 2","
Index, Response
0, 2 
1, 5 
2, 4 
3, 2 
4, 4 
5, 3","
Index, Response
0, 1
1, 5
2, 1
3, 5
4, 4
5, 5
6, 1
7, 5
8, 5
9, 5","
Index, Response
0, 4
1, 1
2, 5
3, 1
4, 5
5, 2
6, 5
7, 1
8, 5
9, 4","
Index, Response
0, 5
1, 1
2, 5
3, 1
4, 4
5, 1"
45,"
Index	Response
0, 4
1, 1
2, 5
3, 2
4, 5
5, 2
6, 4
7, 2
8, 4
9, 1","
Index	Response
0, 4
1, 1
2, 5
3, 1
4, 5
5, 4
6, 5
7, 4
8, 4
9, 2","
Index, Response
0, 1
1, 5
2, 1
3, 4
4, 3
5, 5 
6, 1
7, 4
8, 4 
9, 5","
Index	Response
0, 4
1, 1
2, 5
3, 2
4, 5
5, 2
6, 4
7, 1
8, 5
9, 5","
Index	Response
0, 5
1, 1
2, 5
3, 1
4, 5
5, 1
6, 4
7, 4
8, 3
9, 5"
46,"
Index, Response
0, 5 
1, 1 
2, 5
3, 1
4, 5
5, 1
6, 5
7, 1
8, 5
9, 1","
Index	Response
0, 4
1, 1
2, 5
3, 2
4, 5
5, 1
6, 4
7, 4
8, 3
9, 2","
Index, Response
0, 1
1, 5
2, 1
3, 4
4, 2
5, 5
6, 1
7, 5
8, 4
9, 5","
Index,Response
0,4
1,1
2,5
3,1
4,4
5,2
6,5
7,1
8,5
9,4","
Index, Response
0, 4
1, 1
2, 5
3, 1
4, 5
5, 1"
47,"
Index,Response
0, 4
1, 1
2, 5
3, 2
4, 5
5, 2
6, 5
7, 2
8, 5
9, 1","
Index	Response
0, 2
1, 5
2, 4
3, 1
4, 4
5, 2
6, 3
7, 4
8, 2
9, 1","
Index, Response
0, 2
1, 5
2, 1
3, 4
4, 1
5, 5
6, 2
7, 5
8, 4
9, 5","
Index	Response
0, 2
1, 5
2, 4
3, 1
4, 5
5, 2
6, 4
7, 1
8, 5
9, 4","
Index,Response
0,4
1,1
2,5
3,1
4,5
5,1
6,4
7,5
8,3
9,5"
48,"
Index,Response
0, 5
1, 4
2, 5
3, 2
4, 5
5, 2
6, 5
7, 2
8, 5
9, 4","
Index, Response
0, 3
1, 5
2, 1
3, 2
4, 1
5, 4
6, 1
7, 2
8, 1
9, 5","
Index, Response
0, 1
1, 5
2, 1
3, 4
4, 2
5, 5
6, 1
7, 4
8, 4
9, 5","
Index, Response
0, 1
1, 5
2, 4
3, 1
4, 4
5, 2
6, 5
7, 1
8, 5
9, 4","
Index,Response
0,5
1,1
2,5
3,1
4,5
5,1"
49,"
Index, Response
0, 4
1, 1
2, 5
3, 2
4, 5
5, 2
6, 4
7, 2
8, 1
9, 3","
Index, Response
0, 2
1, 4
2, 5
3, 1
4, 5
5, 2
6, 4
7, 5
8, 2
9, 1","
    Index, Response
    0, 4
    1, 5
    2, 2
    3, 5
    4, 4
    5, 5
    6, 2
    7, 4
    8, 5
    9, 5","
Index, Response
0, 4
1, 2
2, 5
3, 1
4, 5
5, 2
6, 4
7, 1
8, 5
9, 4","
Index, Response
0, 5
1, 1
2, 5
3, 1
4, 5
5, 1"
50,"
Index,Response
0,5
1,1
2,5
3,1
4,4
5,1
6,4
7,1
8,3
9,2","
Index, Response
0, 5
1, 1
2, 5
3, 1
4, 5
5, 5
6, 3
7, 4
8, 4
9, 5","
Index,Response
0,1
1,5
2,1
3,4
4,2
5,5
6,1
7,3
8,4
9,5","
Index, Response
0, 5
1, 1
2, 4
3, 1
4, 5
5, 2","
Index, Response
0, 5
1, 1
2, 5
3, 1
4, 5
5, 1"
51,"
Index,Response
0, 4
1, 1
2, 5
3, 2
4, 5
5, 2
6, 5
7, 2
8, 4
9, 2","
Index, Response
0, 2
1, 5
2, 1
3, 2
4, 1
5, 2
6, 1
7, 1
8, 2
9, 1","
Index,Response
0,1
1,5
2,1
3,4
4,3 
5,5
6,1
7,4
8,4
9,5","
Index	Response
0, 4
1, 1
2, 5
3, 2
4, 5
5, 2
6, 4
7, 1
8, 5
9, 5","
Index	Response
0, 5
1, 1
2, 5
3, 1
4, 5
5, 1
6, 5
7, 5
8, 4
9, 5"
52,"
Index,Response
0,4
1,1
2,5
3,2
4,5
5,1
6,5
7,2
8,5
9,2","
Index Question   Response
0	    Get stressed out easily.    2
1	    Am relaxed most of the time. 5
2	    Worry about things.	      3
3	    Seldom feel blue.	        4
4	    Am easily disturbed.	      1
5	    Get upset easily.	        2
6	    Change my mood a lot.	    4
7	    Have frequent mood swings.	3
8	    Get irritated easily.	    1
9	    Often feel blue.	        2","
Index,Response
0, 4
1, 5
2, 1
3, 4
4, 2
5, 5
6, 1
7, 5
8, 5
9, 5","
Index, Response
0, 4
1, 1
2, 5
3, 1
4, 5
5, 2
6, 5
7, 1
8, 5
9, 5","
Index, Response
0, 5
1, 1
2, 5
3, 1
4, 5
5, 1
6, 5
7, 5
8, 4
9, 5"
53,"
Index, Response
0, 5
1, 1
2, 4
3, 2
4, 5
5, 1
6, 4
7, 2
8, 4
9, 2","
Index,Response
0,1
1,4
2,2
3,1
4,5
5,2","
Index, Response
0, 1
1, 5
2, 1
3, 5
4, 2
5, 5
6, 1
7, 5
8, 5
9, 5","
Index	Response
0,	4
1,	2
2,	5
3,	1
4,	3
5,	2
6,	4
7,	1
8,	5
9,	4","
Index, Response
0, 5
1, 1
2, 5
3, 1
4, 5
5, 1"
54,"
Index, Response
 0, 4
 1, 1
 2, 5
 3, 2
 4, 5
 5, 2
 6, 5
 7, 2
 8, 4
 9, 2","
Index, Response
 0, 5 
 1, 4 
 2, 2 
 3, 1
 4, 5
 5, 2","
Index,Response
0,1
1,5
2,1
3,4
4,5
5,4
6,1
7,4
8,5
9,5","
Index, Response
0, 4
1, 2
2, 5
3, 1
4, 5
5, 2
6, 4
7, 1
8, 5
9, 5","
Index	Response
0, 5 
1, 2
2, 5
3, 1
4, 5
5, 2
6, 4
7, 4
8, 3
9, 5"
55,"
Index,Response
0,4
1,1
2,5
3,2
4,5
5,1
6,4
7,2
8,4
9,2","
Index	Response
0, 5
1, 1
2, 5
3, 1
4, 4
5, 2
6, 4
7, 3
8, 2
9, 4","
Index,Response
0, 1
1, 5
2, 1
3, 5
4, 4
5, 5
6, 1
7, 5
8, 5
9, 5","
Index, Response
0, 4
1, 1
2, 5
3, 2
4, 5
5, 2
6, 4
7, 1
8, 5
9, 5","
Index	Response
0,	4
1,	1
2,	5
3,	2
4,	5
5,	1
6,	4
7,	3
8,	5
9,	4"
56,"
Index	Response
0	  5
1	  1
2	  4
3	  2
4	  5
5	  2
6	  4
7	  2
8	  4
9	  2","
Index	Response
0, 4
1, 1
2, 5
3, 2
4, 5
5, 1
6, 4
7, 4
8, 3
9, 2","
Index, Response
0, 1
1, 5
2, 1
3, 4
4, 3
5, 5
6, 1
7, 4
8, 4
9, 5","
Index, Response
0, 4
1, 1
2, 5
3, 1
4, 5
5, 2
6, 4
7, 1
8, 5
9, 5","
Index	Response
0, 5
1, 1
2, 5
3, 1
4, 5
5, 1
6, 5
7, 5
8, 5
9, 5"
57,"
Index, Response
0, 4
1, 1
2, 5
3, 2
4, 5
5, 2
6, 5
7, 2
8, 5
9, 2","
Index, Response
0, 5 
1, 1
2, 4
3, 1
4, 5
5, 2
6, 4
7, 4
8, 2
9, 3","
Index,Response
0, 2
1, 5
2, 1
3, 4
4, 3
5, 5
6, 2
7, 4
8, 5
9, 5","
Index, Response
0, 3 
1, 1 
2, 4 
3, 2 
4, 5
5, 2 
6, 4 
7, 1 
8, 5 
9, 4","
Index	Response
0, 5
1, 1
2, 5
3, 1
4, 5
5, 1
6, 5
7, 5
8, 4
9, 5"
58,"
Index,Response
0, 4
1, 1
2, 5
3, 2
4, 5
5, 2
6, 4
7, 2
8, 4
9, 2","
Index,Response
0,5
1,1
2,5
3,1
4,5
5,2
6,4
7,3
8,2
9,4","
Index	Response
0,	3
1,	4
2,	1
3,	4
4,	2
5,	5
6,	2
7,	5
8,	4
9,	5","
Index, Response
0, 3
1, 1
2, 4
3, 2
4, 5
5, 2
6, 4
7, 1
8, 5
9, 4","
Index,Response
0,5
1,1
2,5
3,1
4,5
5,1"
59,"
Index,Response
0,5
1,4
2,5
3,1
4,5
5,2
6,5
7,1
8,5
9,2","
Index,Response
0, 5
1, 1
2, 4
3, 1
4, 5
5, 4
6, 5
7, 4
8, 5
9, 2","
Index, Response
0, 1
1, 5
2, 1
3, 5
4, 2
5, 4
6, 1
7, 5
8, 4
9, 5","
Index	Response
0, 4
1, 1
2, 5
3, 2
4, 5
5, 2
6, 5
7, 1
8, 5
9, 5","
Index, Response
0, 5
1, 1
2, 5
3, 1
4, 5
5, 1"
60,"
Index,Response
0,5
1,1
2,5
3,1
4,5
5,1
6,5
7,1
8,5
9,1","
Index,Response
0,3
1,1
2,5
3,1
4,4
5,2
6,5
7,4
8,2
9,3","
Index, Response
0, 2
1, 5
2, 1
3, 4 
4, 1
5, 5
6, 2
7, 4
8, 5
9, 5","
Index, Response
0, 2 
1, 1 
2, 4 
3, 1 
4, 5 
5, 2 
6, 4 
7, 2 
8, 5 
9, 3","
Index,Response
0,5
1,1
2,5
3,1
4,5
5,1"
61,"
    Index, Response
    0, 5
    1, 4
    2, 5
    3, 2
    4, 5
    5, 2
    6, 5
    7, 2
    8, 4
    9, 3","
Index, Response
0, 2
1, 5 
2, 1 
3, 3 
4, 1 
5, 2 
6, 4 
7, 4 
8, 2 
9, 1","
Index, Response
0, 1
1, 5
2, 1
3, 5
4, 4
5, 5
6, 1
7, 4
8, 5
9, 5","
Index, Response
0, 4
1, 1
2, 5
3, 1
4, 3
5, 2
6, 5
7, 1
8, 4
9, 5","

Index, Response
0, 4
1, 1
2, 5
3, 1
4, 5
5, 2"
62,"
Index, Response
0, 4
1, 1
2, 5
3, 2
4, 5
5, 2
6, 5
7, 1
8, 4
9, 2","
Index, Response
0, 3
1, 4
2, 5
3, 2
4, 5
5, 1
6, 4
7, 4
8, 5
9, 1","
Index, Response
0, 1
1, 5
2, 1 
3, 4
4, 2
5, 5
6, 1
7, 5
8, 4
9, 5","
Index, Response
0, 4
1, 1
2, 5
3, 2
4, 5
5, 3
6, 5
7, 2
8, 5
9, 5","
Index,Response
0,5
1,2
2,4
3,1
4,5
5,2
6,4
7,3
8,4
9,5"
63,"
Index,Response
0,5
1,1
2,5
3,2
4,4
5,1
6,4
7,2
8,5
9,1","
Index	Response
0, 4
1, 1
2, 5
3, 2
4, 5
5, 3
6, 4
7, 4
8, 3
9, 1","
Index	Response
0,	2
1,	5
2,	1
3,	4
4,	2
5,	3
6,	2
7,	4
8,	3
9,	5","
Index,Response
0, 2
1, 5
2, 4
3, 1
4, 5
5, 2
6, 4
7, 1
8, 3
9, 4","
Index, Response
0, 5
1, 1
2, 5
3, 1
4, 5
5, 1"
64,"
Index,Response
0,3
1,3
2,5
3,2
4,5
5,2
6,4
7,2
8,4
9,2","
Index, Response
0, 3
1, 4
2, 5
3, 1
4, 5
5, 3
6, 4
7, 5
8, 3
9, 1","
    Index	Response
    0, 2
    1, 5
    2, 1
    3, 4
    4, 1
    5, 3
    6, 1
    7, 4
    8, 5
    9, 4","
Index, Response
0, 3
1, 2
2, 4
3, 1
4, 5
5, 2
6, 4
7, 1
8, 5
9, 4","
Index,Response
0,5
1,1
2,5
3,1
4,5
5,1
6,4
7,4
8,3
9,5"
65,"
Index,Response
0,5
1,1
2,4
3,2
4,5
5,1
6,4
7,2
8,4
9,2","
Index	Response
0, 5
1, 4
2, 5
3, 1
4, 5 
5, 2
6, 4
7, 2
8, 1
9, 4","
Index, Response
0, 2
1, 5
2, 1
3, 4
4, 1
5, 5
6, 2
7, 5
8, 4
9, 5","
Index,Response
0,2
1,5
2,4
3,1
4,5
5,2
6,4
7,1
8,5
9,4","
Index, Response
0, 5
1, 1
2, 5
3, 1
4, 5
5, 1"
66,"
Index,Response
0,4
1,1
2,5
3,2
4,5
5,1
6,5
7,2
8,4
9,2","
Index, Response
0, 1
1, 5
2, 1
3, 2
4, 1
5, 2
6, 4
7, 4
8, 1
9, 3","
Index,Response
0,3
1,4
2,2
3,5
4,4
5,5
6,2
7,4
8,5
9,5","
Index	Response
0, 3
1, 1
2, 5
3, 1
4, 4
5, 2
6, 4
7, 1
8, 5
9, 5","
Index, Response
0, 5
1, 1
2, 5
3, 1
4, 5
5, 1"
67,"
Answer:
Index, Response
0, 4
1, 1
2, 5
3, 2
4, 5
5, 1
6, 4
7, 2 
8, 4 
9, 2","
Index,Response
0,5
1,1
2,4
3,1
4,4
5,2
6,3
7,2
8,4
9,1","
Index,Response
0, 2
1, 5
2, 1
3, 4
4, 3
5, 5
6, 2
7, 5
8, 4
9, 5","
Index	Response
0, 5
1, 1
2, 4
3, 1
4, 5
5, 2
6, 4
7, 1
8, 5
9, 4","
Index, Response
0, 5
1, 1
2, 5
3, 1
4, 5
5, 1"
68,"
Index,Response
0,4
1,1
2,5
3,2
4,5
5,2
6,4
7,2
8,4
9,2","
Index, Response
0, 5
1, 1
2, 4
3, 1
4, 4
5, 5
6, 4
7, 4
8, 5
9, 2","
    Index     Response
    0, 4 
    1, 5
    2, 2
    3, 5
    4, 4
    5, 5
    6, 3
    7, 4
    8, 5
    9, 4","
Index,Response
0,3
1,1
2,5
3,1
4,4
5,2
6,5
7,1
8,4
9,5","
Index, Response
0, 5
1, 1
2, 5 
3, 1
4, 5
5, 1"
69,"
Index, Response
0, 5
1, 1
2, 5
3, 1
4, 5
5, 1
6, 5
7, 1
8, 5
9, 1","
Index,Response
0,3
1,1
2,5
3,1
4,4
5,2","
Index,Response
0,1
1,5
2,1
3,4
4,3
5,5
6,1
7,4
8,5
9,5","
Index	Response
0, 4
1, 1
2, 5
3, 1
4, 5
5, 2
6, 4
7, 1
8, 5
9, 5","
Index	Response
0, 5
1, 1
2, 5
3, 1
4, 4
5, 1"
70,"
Index, Response
0, 5
1, 1
2, 4
3, 2
4, 5
5, 2
6, 4
7, 2
8, 5
9, 2","
Index,Response
0,3
1,4
2,5
3,2
4,1
5,2
6,1
7,2
8,1
9,4","
Index	Response
0,	2
1,	5
2,	1
3,	4
4,	3
5,	5
6,	3
7,	4
8,	4
9,	5","
Index, Response
0, 2
1, 1
2, 4
3, 1
4, 5
5, 2
6, 4
7, 1
8, 5
9, 4","
Index,Response
0, 5
1, 1
2, 5
3, 1
4, 5
5, 1"
71,"
Index	Response
0, 5
1, 1
2, 4
3, 2
4, 5
5, 2
6, 4
7, 2
8, 5
9, 3","
Index,Response
0,3
1,4
2,1
3,2
4,1
5,3
6,2
7,1
8,3
9,2","
Index, Response
0, 1 
1, 5 
2, 1 
3, 4 
4, 2 
5, 3 
6, 1 
7, 4 
8, 5 
9, 4","
Index,Response
0,3
1,1
2,4
3,1
4,5
5,2
6,4
7,1
8,5
9,4","
Index, Response
0, 5
1, 1
2, 5
3, 1
4, 5
5, 1"
72,"
Index,Response
0, 4
1, 1
2, 5
3, 2
4, 5
5, 1
6, 5
7, 2
8, 5
9, 2","
Index	Response
0, 4
1, 1
2, 5
3, 2
4, 5
5, 4","
Index,Response
0, 2
1, 5
2, 1
3, 4
4, 2
5, 5
6, 1
7, 4
8, 5
9, 4","
Index	Response
0, 4
1, 1
2, 5
3, 1
4, 5
5, 2
6, 5
7, 1
8, 5 
9, 5","
Index	Response
0, 5
1, 1
2, 5
3, 1
4, 5
5, 1
6, 4
7, 5
8, 3
9, 5"
73,"
Index,Response
0,4
1,1
2,5
3,2
4,5
5,2
6,4
7,2
8,4
9,2","
Index	Response
0, 4
1, 2
2, 5
3, 1
4, 5
5, 2
6, 4
7, 4
8, 5
9, 3","
Index,Response
0,1
1,5
2,1
3,4
4,3
5,4
6,1
7,5
8,4
9,5","
Index,Response
0,2
1,5
2,4
3,1
4,5
5,2
6,4
7,1
8,5
9,4","
Index, Response
0, 5
1, 1
2, 5
3, 1
4, 5
5, 1"
74,"
Index	Response
0, 4
1, 1
2, 5
3, 1
4, 5
5, 2
6, 4
7, 2
8, 5
9, 1","
Index, Response
0, 3 
1, 4 
2, 4 
3, 2 
4, 5 
5, 3","
Index, Response
0, 2
1, 5
2, 1
3, 4
4, 3
5, 5
6, 2
7, 4
8, 5
9, 4","
Index, Response
0, 1
1, 5
2, 4
3, 1
4, 5
5, 2
6, 4
7, 1
8, 5
9, 4","
Index,Response
0,4
1,1
2,5
3,1
4,5
5,1
6,4
7,5
8,3
9,5"
75,"
    Index, Response
    0, 5
    1, 4
    2, 5
    3, 2
    4, 5
    5, 2
    6, 5
    7, 2
    8, 5
    9, 2","
Index, Response
0, 1
1, 5
2, 4
3, 2
4, 1
5, 3
6, 4
7, 1
8, 4
9, 5","
Index, Response
0, 2
1, 5
2, 1
3, 4
4, 2
5, 5
6, 2
7, 4
8, 5
9, 5","
Index,Response
0,1
1,5
2,4
3,1
4,5
5,2
6,4
7,1
8,5
9,4","
Index, Response
0, 5
1, 1
2, 5
3, 1
4, 5
5, 1"
76,"
Index, Response
0, 5
1, 1
2, 4
3, 2
4, 5
5, 1
6, 4
7, 2
8, 5
9, 4","
Index, Response
0, 3
1, 4
2, 5
3, 2
4, 5
5, 3
6, 4
7, 5
8, 3
9, 1","
Index, Response
0, 4
1, 5
2, 1
3, 4
4, 2
5, 5
6, 1
7, 5
8, 4
9, 5","
    Index, Response
    0, 4
    1, 1
    2, 4
    3, 1
    4, 5
    5, 2
    6, 4
    7, 1
    8, 5
    9, 4","
Index, Response
0, 5
1, 1
2, 5
3, 1
4, 5
5, 1"
77,"
Index,Response
0,4
1,1
2,5
3,1
4,5
5,1
6,5
7,1
8,5
9,1","
Index,Response
0,2
1,5
2,1
3,1
4,4
5,2
6,3
7,2
8,3
9,4","
Index, Response
0, 4
1, 5
2, 1
3, 4
4, 2
5, 4
6, 1
7, 5
8, 4
9, 5","
Index, Response
0, 5
1, 1
2, 4
3, 1
4, 5
5, 2","
Index, Response
0, 4
1, 1
2, 5
3, 1
4, 5
5, 1
6, 4
7, 5
8, 3
9, 5"
78,"
Index,Response
0,5
1,1
2,4
3,2
4,5
5,2
6,4
7,2
8,5
9,1","
Index	Response
0, 3
1, 4
2, 2
3, 1
4, 5
5, 4","
Index,Response
0,1
1,5
2,1
3,4
4,2
5,5
6,1
7,5
8,4
9,5","
Index,Response
0,4
1,2
2,5
3,1
4,5
5,3
6,4
7,1
8,5
9,4","
Index,Response
0,5
1,1
2,5
3,1
4,5
5,1"
79,"
Index	Response
0, 5
1, 1
2, 5
3, 2
4, 5
5, 1
6, 5
7, 2
8, 5
9, 2","
Index	Response
0, 4
1, 1
2, 5
3, 2
4, 5
5, 1
6, 4
7, 4
8, 5
9, 2","
Index, Response
0, 2
1, 5
2, 1
3, 4
4, 1
5, 5
6, 2
7, 4
8, 5
9, 4","
Index, Response
0, 4
1, 1
2, 5
3, 2
4, 5
5, 2
6, 4
7, 1
8, 5
9, 5","
Index, Response
0, 4
1, 1
2, 5
3, 2
4, 5
5, 1
6, 4
7, 5
8, 3
9, 5"
80,"
Index,Response
0, 5
1, 1
2, 5
3, 2
4, 4
5, 1
6, 4
7, 1
8, 5
9, 4","
Index,Response
0,4
1,1
2,5
3,2
4,4
5,3
6,4
7,5
8,3
9,1","
Index, Response
0, 4
1, 5
2, 1
3, 5
4, 4
5, 5
6, 1
7, 5
8, 5
9, 5","
Index, Response
0, 5 
1, 1 
2, 4
3, 1
4, 5
5, 2
6, 4
7, 1
8, 5
9, 4","
Index	Response
0, 4
1, 1
2, 5
3, 1
4, 5
5, 1
6, 4
7, 5
8, 3
9, 5"
81,"
Index,Response
0,4
1,1
2,5
3,2
4,5
5,2
6,4
7,2
8,4
9,2","
Index, Response
0, 4
1, 1
2, 5
3, 2
4, 5
5, 4","
Index,Response
0,2
1,5
2,1
3,4
4,1
5,5
6,1
7,5
8,5
9,4","
Index, Response
0, 2
1, 5
2, 4
3, 1
4, 5
5, 2
6, 4
7, 1
8, 5
9, 4","
Index,Response
0,5
1,1
2,5
3,1
4,5
5,1"
82,"
Index,Response
0,5
1,1
2,5
3,1
4,5
5,1
6,5
7,1
8,5
9,1","
Index,Response
0,3
1,4
2,1
3,2
4,1
5,2
6,1
7,2
8,1
9,2","
Index, Response
0, 1
1, 5
2, 1
3, 4
4, 5
5, 4
6, 1
7, 5
8, 4
9, 5","
Index, Response
0, 3
1, 1
2, 5
3, 1
4, 4
5, 2
6, 5
7, 1
8, 4
9, 5","
Index, Response
0, 5
1, 1
2, 5
3, 1
4, 5
5, 1"
83,"
Index,Response
0,5
1,1
2,4
3,2
4,5
5,1
6,4
7,2
8,4
9,2","
Index, Response
0, 5
1, 1
2, 5
3, 1
4, 5
5, 5
6, 5
7, 5
8, 4
9, 2","
Index,Response
0,2
1,5
2,1
3,4
4,2
5,5
6,2
7,4
8,5
9,4","
Index, Response
0, 5
1, 1
2, 4
3, 1
4, 5
5, 2","
Index, Response
0, 5
1, 1
2, 5
3, 1
4, 5
5, 1"
84,"
Index,Response
0,4
1,1
2,5
3,2
4,5
5,2
6,5
7,2
8,4
9,2","
Index, Response
0, 5
1, 1
2, 5
3, 1
4, 5
5, 5
6, 4
7, 4
8, 5
9, 2","
Index, Response
0, 2
1, 5
2, 1
3, 4
4, 2
5, 5
6, 2
7, 5
8, 4
9, 5","
Index, Response
0, 5
1, 1
2, 4
3, 1
4, 5
5, 2
6, 5
7, 1
8, 4
9, 5","
Index, Response
0, 5
1, 1
2, 5
3, 1
4, 5
5, 1"
85,"
Index, Response
0, 4
1, 1
2, 5
3, 2
4, 5
5, 1
6, 4
7, 2
8, 4
9, 2","
Index, Response
0, 5
1, 1
2, 5
3, 1
4, 5
5, 5
6, 4
7, 4
8, 5
9, 4","
Index, Response
0, 2 
1, 5
2, 1 
3, 4
4, 1
5, 5 
6, 2
7, 5 
8, 4
9, 5","
Index, Response
0, 4
1, 1
2, 5
3, 1
4, 5
5, 2
6, 5
7, 1
8, 5
9, 5","
Index, Response
0, 5
1, 1
2, 5
3, 1
4, 5
5, 1"
86,"
Index,Response
0, 5
1, 1
2, 4
3, 2
4, 5
5, 1
6, 5
7, 2
8, 4
9, 2","
Index	Response
0, 4
1, 1
2, 5
3, 2
4, 5
5, 2
6, 4
7, 4
8, 2
9, 1","
Index	Response
0, 2
1, 5
2, 1
3, 4
4, 2
5, 5
6, 1
7, 4
8, 4
9, 5","
Index, Response
0, 4
1, 2
2, 5
3, 1
4, 5
5, 3
6, 5
7, 1
8, 5
9, 4","
Index, Response
0, 5
1, 1
2, 5
3, 1
4, 5
5, 1
6, 5
7, 5
8, 4
9, 5"
87,"
Index, Response
0, 4
1, 5
2, 4
3, 1
4, 5
5, 2
6, 4
7, 1
8, 2
9, 5","
Index, Response
0, 5
1, 4
2, 1
3, 2
4, 1
5, 2
6, 1
7, 2
8, 1
9, 4","
Index, Response
0, 1
1, 5
2, 1
3, 4
4, 2
5, 5
6, 1
7, 5
8, 4
9, 5","
Index,  Response
0,     4
1,     1
2,     5
3,     2
4,     3
5,     2
6,     5
7,     1
8,     4
9,     5","
Index, Response
0, 5
1, 1
2, 5
3, 1
4, 5
5, 1"
88,"
Index,Response
0,4
1,1
2,5
3,2
4,5
5,2
6,5
7,2
8,4
9,2","
Index, Response
0, 5
1, 1
2, 5
3, 1
4, 5
5, 5
6, 4
7, 4
8, 5
9, 4","
Index, Response
0, 2
1, 5
2, 1
3, 4
4, 2
5, 5
6, 2
7, 4
8, 5
9, 5","
Index, Response
0, 4
1, 2
2, 5
3, 1
4, 4
5, 2
6, 5
7, 1
8, 5
9, 5","
Index	Response
0, 5
1, 1
2, 5
3, 1
4, 4
5, 1"
89,"
Index,Response
0,4
1,1
2,5
3,2
4,5
5,2
6,5
7,2
8,4
9,2","
Index, Response
0, 2
1, 5
2, 1
3, 2
4, 1 
5, 2 
6, 3
7, 1
8, 2
9, 1","
Index,Response
0,2
1,5
2,1
3,4
4,2
5,5
6,1
7,3
8,4
9,5","
Index, Response
0, 4
1, 2
2, 5
3, 1
4, 5
5, 2
6, 4
7, 1
8, 5
9, 4","
Index, Response
0, 5
1, 1
2, 5
3, 1
4, 5
5, 1
6, 5
7, 5
8, 4
9, 5"
90,"
Index,Response
0,4
1,1
2,5
3,2
4,5
5,2
6,5
7,2
8,4
9,2","
Index, Response
0, 2
1, 5
2, 1
3, 2
4, 1
5, 2
6, 4
7, 4
8, 1
9, 1","
Index, Response
0, 1
1, 5
2, 1
3, 4
4, 3
5, 5
6, 1
7, 4
8, 5
9, 5","
Index, Response
0, 3
1, 4
2, 5
3, 1
4, 5
5, 2
6, 4
7, 1
8, 5
9, 4","
Index	Response
0, 5
1, 1
2, 5
3, 2
4, 5
5, 1
6, 5
7, 4
8, 4
9, 5"
91,"
Index, Response 
0, 4
1, 1 
2, 5 
3, 1 
4, 5 
5, 2
6, 5
7, 1 
8, 5 
9, 2","
Index	Response
0, 5
1, 4
2, 5
3, 1
4, 5
5, 2
6, 4
7, 5
8, 2
9, 1","
Index, Response
0, 2
1, 5
2, 1
3, 4
4, 1
5, 5
6, 2
7, 4
8, 5
9, 5","
Index, Response
0, 4
1, 1
2, 5
3, 2
4, 5
5, 2
6, 4
7, 1
8, 5
9, 5","
Index	Response
0, 5
1, 1
2, 5
3, 1
4, 5
5, 1
6, 4
7, 5
8, 3
9, 5"
92,"
Index, Response
0, 4
1, 1
2, 5
3, 2
4, 5
5, 2
6, 5
7, 2
8, 4
9, 2","
Index, Response
0, 5
1, 1
2, 5
3, 1
4, 5
5, 5
6, 4
7, 4
8, 5
9, 3","
Index, Response
0, 2 
1, 5 
2, 1 
3, 4 
4, 2 
5, 3 
6, 2 
7, 4 
8, 4 
9, 5","
Index	Response
0, 4
1, 1
2, 5
3, 1
4, 5
5, 2
6, 4
7, 1
8, 5
9, 5","
Index, Response
0, 5
1, 1
2, 5
3, 1
4, 5
5, 1"
93,"
Index, Response
0, 4
1, 1
2, 5
3, 2
4, 5
5, 2
6, 4
7, 2
8, 4
9, 2","
Index	Response
0, 5
1, 1
2, 4
3, 1
4, 2
5, 3
6, 4
7, 5
8, 2
9, 4","
Index	Response
0, 5
1, 4
2, 1
3, 4
4, 3
5, 4
6, 1
7, 5
8, 5
9, 5","
Index, Response
0, 4
1, 1
2, 5
3, 1
4, 5
5, 2
6, 5
7, 1
8, 5
9, 5","
Index, Response
0, 5
1, 1
2, 5
3, 1
4, 5
5, 1"
94,"
Index   Response
0, 4
1, 1
2, 5
3, 2
4, 5
5, 2
6, 5
7, 2
8, 4
9, 2","
Index, Response
0, 4
1, 1
2, 5
3, 2
4, 5
5, 2
6, 4
7, 4
8, 1
9, 3","
Index, Response
0, 2
1, 5
2, 1
3, 4
4, 1
5, 5
6, 1
7, 4
8, 5
9, 5","
Index,Response
0,3
1,1
2,5
3,1
4,4
5,2
6,4
7,1
8,5
9,5","
Index, Response
0, 4
1, 1
2, 5
3, 1
4, 5
5, 1
6, 4
7, 5
8, 3
9, 5"
95,"
Index,Response
0,4
1,1
2,5
3,2
4,5
5,1
6,5
7,2
8,4
9,2","
Index, Response
0, 3
1, 4
2, 5
3, 2
4, 5
5, 3
6, 4
7, 5
8, 2
9, 1","
Index, Response
0, 1
1, 5
2, 1
3, 4
4, 2
5, 5
6, 1
7, 4
8, 4
9, 5","
Index,Response
0,1
1,5
2,4
3,1
4,4
5,2
6,4
7,1
8,5
9,4","
Index,Response
0,5
1,1
2,5 
3,1
4,5
5,1"
96,"
Index	Response
0, 4
1, 1
2, 5
3, 2
4, 5
5, 2
6, 5
7, 2
8, 4
9, 2","
Index, Response
0, 5
1, 1
2, 5
3, 1
4, 5
5, 5
6, 4
7, 4
8, 5
9, 5","
Index, Response
0, 1
1, 5
2, 1
3, 4
4, 2
5, 5
6, 1
7, 5
8, 4
9, 5","
Index,Response
0,4
1,1
2,5
3,1
4,5
5,2
6,4
7,1
8,5
9,5","
Index, Response
0, 5
1, 1
2, 5
3, 1
4, 5
5, 1"
97,"
Index,Response
0,4
1,1
2,5
3,2
4,5
5,1
6,5
7,2
8,4
9,2","
Index, Response
0, 4
1, 1
2, 5
3, 2
4, 5
5, 1
6, 4
7, 4
8, 1
9, 2","
Index, Response
0, 2
1, 5
2, 1
3, 4
4, 2
5, 5
6, 2
7, 5
8, 4
9, 5","
Index, Response
0, 5
1, 1
2, 4
3, 1
4, 5
5, 2","
Index,Response
0,5
1,1
2,5
3,1
4,5
5,1"
98,"
Index, Response
0, 5
1, 1
2, 5
3, 1
4, 4
5, 1
6, 4
7, 1
8, 4
9, 2","
Index, Response
0, 2
1, 5
2, 4
3, 1
4, 3
5, 2
6, 1
7, 3
8, 4
9, 3","
Index,Response
0,2
1,5
2,1
3,4
4,1
5,5
6,1
7,4
8,5
9,5","
Index,Response
0,1
1,5
2,4
3,2
4,5
5,3
6,4
7,2
8,5
9,4","
Index, Response
0, 5
1, 1
2, 5
3, 1
4, 5
5, 1"
99,"
Index, Response
0, 4
1, 1
2, 5
3, 2
4, 5
5, 2
6, 5
7, 2
8, 5
9, 2","
Index, Response
0, 5
1, 4
2, 5
3, 1
4, 5
5, 2","
Index, Response
0, 1
1, 5
2, 1
3, 4
4, 2
5, 5
6, 1
7, 4
8, 5
9, 5","
Index, Response
0, 3
1, 1
2, 4
3, 1
4, 5
5, 2
6, 4
7, 1
8, 5
9, 4","
Index, Response
0, 5
1, 1
2, 5
3, 1
4, 5
5, 1
6, 4
7, 5
8, 4
9, 5"
100,"
Index, Response
0, 5
1, 1
2, 5
3, 1
4, 5
5, 1
6, 5
7, 1
8, 5
9, 1","
Index,Response
0,1
1,3
2,4
3,2
4,1
5,5
6,4
7,2
8,1
9,3","
Index,Response
0,2
1,5
2,1
3,4
4,2
5,5
6,2
7,4
8,5
9,5","
Index, Response
0, 4
1, 1
2, 5
3, 2
4, 5
5, 3
6, 5
7, 2
8, 5
9, 4","
Index,Response
0,5
1,1
2,5
3,1
4,5
5,1
6,4
7,5
8,3
9,5"
101,"
Index,Response
0,5
1,1
2,4
3,2
4,5
5,1
6,4
7,2
8,4
9,2","
Index, Response
0, 5
1, 1
2, 5
3, 1
4, 4
5, 5
6, 4
7, 4
8, 5
9, 2","
Index,Response
0, 2
1, 5
2, 1
3, 5
4, 4
5, 5
6, 2
7, 4
8, 5
9, 5","
Index	Response
0,	2
1,	5
2,	4
3,	1
4,	3
5,	2
6,	4
7,	1
8,	3
9,	4","
Index, Response
0, 5
1, 1
2, 5
3, 1
4, 4
5, 1"
102,"
Index,Response
0,5
1,1
2,4
3,2
4,5
5,1
6,5
7,2
8,4
9,2","
Index, Response
0, 5
1, 1
2, 5
3, 1
4, 5
5, 5
6, 3
7, 5
8, 4
9, 2","
Index, Response
0, 1
1, 5
2,1
3,4
4,2
5, 5
6, 1
7, 4
8, 5
9, 5","
Index, Response
0, 4
1, 1
2, 5
3, 1
4, 5
5, 2
6, 4
7, 1
8, 5
9, 5","
Index,Response
0,5
1,1
2,5
3,1
4,5
5,1"
103,"
Index,Response
0,5
1,1
2,4
3,2
4,5
5,1
6,5
7,2
8,4
9,2","
Index, Response
0, 5
1, 1
2, 5
3, 1
4, 5
5, 5
6, 4
7, 5
8, 5
9, 4","
Index, Response
0, 1
1, 5
2, 1
3, 4
4, 5
5, 5
6, 1
7, 4
8, 4
9, 5","
Index, Response
0, 4
1, 2
2, 5
3, 1
4, 5
5, 2
6, 4
7, 1
8, 5
9, 5","
Index,Response
0,5
1,2
2,5
3,1
4,4
5,2"
104,"
Index,Response
0,4
1,1
2,5
3,2
4,5
5,2
6,4
7,2
8,4
9,1","
Index, Response
0, 4
1, 1
2, 5
3, 2
4, 5
5, 4","
Index,Response
0,1
1,5
2,1
3,4
4,2
5,5
6,1
7,5
8,4
9,5","
Index,Response
0,2
1,5
2,3
3,1
4,4
5,2
6,4
7,1
8,3
9,5","
Index,Response
0,5
1,1
2,5
3,2
4,5
5,2
6,4
7,3
8,3
9,5"
105,"
    Index, Response
    0, 5
    1, 4
    2, 5
    3, 2
    4, 5
    5, 2
    6, 5
    7, 2
    8, 5
    9, 3","
Index,Response
0,3
1,4
2,1
3,2
4,1
5,3
6,2
7,1
8,3
9,1","
Index, Response
0, 2
1, 5
2, 1
3, 4
4, 2
5, 5
6, 1
7, 4
8, 5
9, 5","
Index, Response
0, 3
1, 2
2, 5
3, 1
4, 4
5, 2
6, 5
7, 1
8, 4
9, 5","
Index	Response
0, 5 
1, 1 
2, 5
3, 1
4, 5
5, 1"
106,"
    Index, Response
    0, 4
    1, 4
    2, 5
    3, 2
    4, 5
    5, 2
    6, 5
    7, 2
    8, 4
    9, 3","
    Index, Response
    0, 2
    1, 5
    2, 3
    3, 1
    4, 4
    5, 2
    6, 4
    7, 3
    8, 4
    9, 1","
Index, Response
0, 1
1, 5
2, 1
3, 4
4, 3
5, 5
6, 1
7, 4
8, 5
9, 5","
Index	Response
0, 4
1, 1
2, 5
3, 2
4, 5
5, 2
6, 4
7, 1
8, 5
9, 4","
Index, Response
0, 5
1, 1
2, 5
3, 1
4, 5
5, 1
6, 5
7, 4
8, 3
9, 5"
107,"
Index,Response
0,4
1,2
2,5
3,1
4,4
5,2
6,5
7,1
8,4
9,1","
Index	Response
0, 5
1, 4
2, 2
3, 1
4, 5
5, 2
6, 3
7, 4
8, 1
9, 2","
Index	Response
0, 3
1, 4
2, 1
3, 5
4, 4 
5, 5 
6, 2 
7, 5
8, 4
9, 5","
Index	Response
0, 4
1, 1
2, 5
3, 2
4, 5
5, 2
6, 4
7, 1
8, 5
9, 5","
Index,Response
0,5
1,1
2,5
3,1
4,5
5,1"
108,"
Index,Response
0,5
1,1
2,5
3,1
4,5
5,1
6,5
7,1
8,5
9,1","
Index, Response
0, 5
1, 1
2, 5
3, 1
4, 5
5, 5
6, 5
7, 5
8, 4
9, 2","
Index, Response
0, 2
1, 4
2, 1
3, 5
4, 3
5, 4
6, 1
7, 5
8, 4
9, 5","
Index	Response
0, 4
1, 1
2, 5
3, 1
4, 4
5, 2
6, 5
7, 1
8, 5
9, 5","
Index, Response
0, 5
1, 1 
2, 5
3, 1
4, 5
5, 1
6, 4
7, 5
8, 4
9, 5"
109,"
Index, Response
0, 5
1, 1
2, 5
3, 1
4, 5
5, 1
6, 5 
7, 1
8, 5
9, 1","
Index, Response
0, 5
1, 1
2, 5
3, 1
4, 5
5, 5","
Index, Response
0, 2
1, 5
2, 1
3, 4
4, 1
5, 5
6, 2
7, 5
8, 4
9, 5","
Index, Response
0, 3
1, 1
2, 5
3, 2
4, 4
5, 2
6, 5
7, 1
8, 4
9, 5","
Index,Response
0,5
1,1
2,5
3,1
4,5
5,1"
110,"
    Index	Response
    0, 5
    1, 1
    2, 4
    3, 2
    4, 5
    5, 2
    6, 4
    7, 2
    8, 4
    9, 3","
Index, Response
0, 3 
1, 1
2, 5
3, 2
4, 5
5, 1
6, 5
7, 4
8, 5
9, 2","
Index, Response
0, 2
1, 5
2, 1
3, 4
4, 1
5, 5
6, 2
7, 4
8, 5
9, 5","
    Index, Response
    0, 4
    1, 2
    2, 4
    3, 1
    4, 5
    5, 2
    6, 4
    7, 1
    8, 5
    9, 4","
Index, Response
0, 5
1, 1
2, 5
3, 1
4, 5
5, 1
6, 4
7, 5
8, 3
9, 5"
111,"
Index, Response
0, 4
1, 1
2, 5
3, 2
4, 5
5, 2
6, 4
7, 2
8, 1
9, 3","
Index,Response
0,3
1,1
2,5
3,2
4,5
5,3
6,4
7,4
8,3
9,1","
Index,Response
0,1
1,5
2,1
3,4
4,2
5,5
6,1
7,4
8,5
9,5","
Index, Response 
0, 4 
1, 1 
2, 5 
3, 1 
4, 3 
5, 2 
6, 4 
7, 1 
8, 4 
9, 5","
Index	Response
0, 5
1, 1
2, 5
3, 2
4, 5
5, 1
6, 4
7, 5
8, 3
9, 5"
112,"
Index,Response
0,5
1,1
2,4
3,2
4,5
5,1
6,4
7,2
8,3
9,4","
Index, Response
0, 4
1, 1
2, 5
3, 2
4, 5
5, 3
6, 5
7, 4
8, 3
9, 1","
Index,Response
0,2
1,5
2,1
3,4
4,1
5,5
6,2
7,5
8,4
9,5","
Index, Response
0, 3
1, 5
2, 4
3, 1
4, 5
5, 2
6, 4
7, 1
8, 4
9, 5","
Index,Response
0,5
1,2
2,5
3,1
4,5
5,2
6,4
7,4
8,3
9,5"
113,"
Index,Response
0,5
1,1
2,4
3,2
4,5
5,1
6,4
7,2
8,5
9,1","
Index, Response
0, 2
1, 5
2, 1
3, 2
4, 1
5, 2
6, 3
7, 1
8, 2
9, 1","
Index, Response
0, 2
1, 5
2, 1
3, 4
4, 2
5, 5
6, 1
7, 4
8, 5
9, 4","
Index, Response
0, 3
1, 1
2, 5
3, 1
4, 5
5, 2
6, 4
7, 1
8, 5
9, 4","
Index	Response
0, 4
1, 1
2, 5
3, 1
4, 5
5, 1
6, 4
7, 5
8, 3
9, 5"
114,"
Index, Response
0, 5
1, 1
2, 4
3, 1
4, 5
5, 1
6, 4
7, 1
8, 4
9, 2","
Index, Response
0, 4
1, 1
2, 5
3, 2
4, 5
5, 3
6, 5
7, 3
8, 5
9, 4","
Index, Response
0, 1
1, 5
2, 1
3, 5
4, 4
5, 5
6, 1
7, 5
8, 5
9, 5","
Index, Response
0, 4
1, 1
2, 5
3, 1
4, 5
5, 2
6, 5
7, 1
8, 5
9, 5","
Index, Response
0, 5
1, 1
2, 5
3, 1
4, 5
5, 1"
115,"
Index, Response
0, 5
1, 1
2, 4
3, 2
4, 5
5, 1
6, 4
7, 2
8, 3
9, 1","
Index, Response
0, 3
1, 4
2, 5
3, 1
4, 5
5, 2
6, 4
7, 3
8, 2
9, 1","
Index,Response
0,2
1,5
2,1
3,4
4,2
5,5
6,2
7,4
8,5
9,5","
Index	Response
0, 4
1, 1
2, 5
3, 2
4, 5
5, 2
6, 4
7, 1
8, 4
9, 5","
Index, Response
0, 5
1, 1
2, 5
3, 1
4, 5
5, 1"
116,"
Index,Response
0,4
1,1
2,5
3,2
4,5
5,2
6,5
7,2
8,4
9,2","
Index, Response
0, 5
1, 1
2, 5
3, 1
4, 5
5, 5
6, 4
7, 5
8, 4
9, 4","
Index, Response
0, 2
1, 5
2, 1
3, 4
4, 1
5, 5
6, 2
7, 5
8, 4
9, 5","
Index, Response
0, 5
1, 1
2, 4
3, 1
4, 5
5, 2
6, 4
7, 1
8, 5
9, 4","
Index	Response
0, 5
1, 1
2, 5
3, 1
4, 5
5, 1
6, 5
7, 4
8, 3
9, 5"
117,"
    Index, Response
0, 5
1, 1
2, 4
3, 2
4, 4
5, 1
6, 5
7, 2
8, 4
9, 2","
Index	Response
0, 2
1, 5
2, 1
3, 2
4, 1
5, 2
6, 4
7, 4
8, 2
9, 1","
Index, Response
0, 2
1, 5
2, 1
3, 4
4, 2
5, 5
6, 2
7, 5
8, 4
9, 5","
Index	Response
0, 4
1, 1
2, 5
3, 2
4, 5
5, 2
6, 4
7, 1
8, 5
9, 5","
Index	Response
0, 4
1, 1
2, 5
3, 1
4, 5
5, 1
6, 4
7, 5
8, 3
9, 5"
118,"
Index,Response
0, 4
1, 1
2, 5
3, 2
4, 5
5, 1
6, 5
7, 2
8, 4
9, 2","
Index, Response
0, 2
1, 5
2, 1
3, 2
4, 1
5, 2
6, 4
7, 3
8, 2
9, 1","
Index,Response
0, 2
1, 5
2, 1
3, 4
4, 2
5, 5
6, 2
7, 4
8, 4
9, 5","
Index, Response
0, 4
1, 1
2, 5
3, 2
4, 5 
5, 3
6, 4
7, 2
8, 5
9, 5","
Index, Response
0, 5
1, 1
2, 5
3, 1
4, 5
5, 1"
119,"
Index,Response
0,5
1,1
2,4
3,2
4,5
5,1
6,4
7,2
8,5
9,2","
Index, Response
0, 5
1, 1
2, 5
3, 1
4, 5
5, 5
6, 4
7, 4
8, 5
9, 4","
Index,Response
0,2
1,5
2,1
3,4
4,1
5,5
6,2
7,5
8,4
9,5","

Index, Response
0, 4
1, 1
2, 5
3, 1
4, 5
5, 2
6, 5
7, 1
8, 4
9, 5","
    Index, Response
    0, 4
    1, 1
    2, 5
    3, 1
    4, 5
    5, 1
    6, 4
    7, 5
    8, 4
    9, 5"
120,"
Index, Response
0, 5
1, 1
2, 4
3, 2
4, 5
5, 1
6, 4
7, 2
8, 5
9, 4","
Index, Response
0, 5
1, 1
2, 5
3, 1
4, 5
5, 5
6, 4
7, 4
8, 5
9, 5","
Index	Response
0, 2
1, 4
2, 1
3, 5
4, 3
5, 4
6, 2
7, 5
8, 4
9, 5","
Index, Response
0, 4
1, 1
2, 5
3, 1
4, 4
5, 2
6, 5
7, 1
8, 5
9, 4","
Index,Response
0,4
1,1
2,5
3,1
4,5
5,1
6,4
7,4
8,3
9,5"
121,"
Index	Response
0	4
1	2
2	5
3	1
4	4
5	2
6	5
7	1
8	3
9	1","
Index	Response
0, 4
1, 1
2, 4
3, 1
4, 5
5, 4
6, 5
7, 5
8, 4
9, 2","
Index, Response
0, 1
1, 5
2, 1
3, 4
4, 3
5, 5
6, 1
7, 4
8, 5
9, 5","
Index, Response
0, 4
1, 1
2, 5
3, 1
4, 5
5, 2
6, 4
7, 1
8, 5
9, 5","
Index, Response
0, 5
1, 1
2, 5
3, 1
4, 5
5, 1
6, 5
7, 5
8, 4
9, 5"
122,"
Index,Response
0, 4
1, 1 
2, 5
3, 2
4, 5
5, 1
6, 5
7, 2
8, 4
9, 2","
Index,Response
0,2
1,1
2,5
3,2
4,4
5,3
6,4
7,3
8,1
9,2","
Index	Response
0, 2
1, 5
2, 1
3, 5
4, 4
5, 5
6, 2
7, 5
8, 5
9, 4","
Index,Response
0,3
1,2
2,4
3,1
4,5
5,2
6,4
7,1
8,5
9,4","
Index, Response
0, 4
1, 1
2, 5
3, 1
4, 5
5, 1
6, 4
7, 5
8, 3
9, 5"
123,"
Index,Response
 0,5
 1,1
 2,4
 3,1
 4,5
 5,1
 6,4
 7,1
 8,4
 9,1","
Index	Response
0, 5
1, 1
2, 4
3, 1
4, 4
5, 5
6, 3
7, 4
8, 2
9, 1","
Index,Response
0, 2
1, 5
2, 1
3, 4
4, 2
5, 5
6, 2
7, 5
8, 4
9, 5","
Index	Response
0, 3
1, 2
2, 5
3, 1
4, 4
5, 2
6, 4
7, 1
8, 5
9, 5","
Index,Response
0,5 
1,1
2,5
3,1
4,5
5,1
6,4
7,5
8,4
9,5"
124,"
Index, Response
0, 4
1, 1
2, 5
3, 2
4, 5
5, 2
6, 4
7, 2
8, 4
9, 1","
Index, Response
0, 5 
1, 1
2, 5
3, 1
4, 5
5, 5
6, 4
7, 3
8, 5
9, 5","
    Index, Response
    0, 3
    1, 4
    2, 1
    3, 4
    4, 3
    5, 5
    6, 2
    7, 4
    8, 4
    9, 5","
Index,Response
0,4
1,2
2,5
3,1
4,5
5,2
6,4
7,1
8,5
9,5","
Index,Response
0,5
1,1
2,5
3,1
4,5
5,1
6,5
7,5
8,3
9,5"
125,"
Index,Response
0,4
1,1
2,5
3,2
4,5
5,2
6,5
7,2
8,4
9,2","
Index, Response
0, 3
1, 4
2, 5
3, 1
4, 5
5, 2
6, 5
7, 4
8, 2
9, 1","
Index, Response
0, 2
1, 5
2, 1
3, 4
4, 3
5, 5
6, 2
7, 4
8, 5
9, 4","
Index	Response
0, 4
1, 1
2, 5
3, 1
4, 5
5, 2
6, 5 
7, 1
8, 5
9, 5","
Index,Response
0,5
1,1
2,5
3,1
4,5
5,1"
126,"
Index,Response
0,4
1,1
2,5
3,2
4,5
5,1
6,4
7,2
8,4
9,2","
Index,Response
0,3
1,4
2,1
3,2
4,4
5,3
6,2
7,5
8,1
9,4","
Index	Response
0,	2
1,	4
2,	1
3,	3
4,	5
5,	4
6,	2
7,	5
8,	4
9,	5","
Index,Response
0,4
1,1
2,5
3,1
4,5
5,2
6,4
7,1
8,5
9,4","
Index,Response
0,5
1,1
2,5
3,1
4,5
5,1"
127,"
Index,Response
0,5
1,2
2,4
3,2
4,5
5,2
6,5
7,2
8,4
9,2","
Index, Response
0, 5
1, 1
2, 5
3, 1
4, 5
5, 5
6, 5
7, 5
8, 5
9, 4","
Index, Response
0, 2
1, 5
2, 1
3, 4
4, 1
5, 5
6, 2
7, 4
8, 5
9, 4","
Index,Response
0, 1 
1, 5 
2, 4 
3, 2
4, 5 
5, 3 
6, 4 
7, 1 
8, 4 
9, 3","
Index, Response
0, 5
1, 1
2, 5
3, 1
4, 5
5, 1"
