,E,N,A,C,O
0,"
Index, Response
0, 4
1, 5
2, 4
3, 2 
4, 5
5, 5
6, 4
7, 2
8, 4
9, 5","
Index,Response
0,2
1,5
2,1
3,2
4,1
5,2
6,3
7,2
8,1
9,3","
Index,Response
0,2
1,4
2,1
3,4
4,3
5,5
6,1
7,5
8,4
9,5","
Index,Response
0,5
1,1
2,5
3,1
4,5
5,2
6,5
7,1
8,5
9,5","
Index	Response
0, 4
1, 1
2, 5
3, 1
4, 5
5, 1
6, 5
7, 4
8, 5
9, 5"
1,"
Index,Response
0,4
1,1
2,5
3,2
4,4
5,2
6,5
7,2
8,5
9,2","
Index, Response
0, 3
1, 5
2, 2
3, 4
4, 1
5, 2
6, 3
7, 2
8, 1
9, 2","
Index, Response
0, 1
1, 5
2, 1
3, 4
4, 5
5, 5
6, 1
7, 5
8, 4
9, 5","
Index,Response
0,5
1,1
2,5
3,1
4,5
5,2","
Index,Response
0,4
1,1
2,5
3,1
4,5
5,1
6,4
7,4
8,5
9,5"
2,"
Index, Response
0, 4
1, 5
2, 4
3, 2
4, 5
5, 2
6, 4
7, 2
8, 4
9, 2","
Index,Response
0,1 
1,5 
2,2 
3,4 
4,2 
5,2 
6,3
7,3
8,2 
9,1","
Index	Response
0, 2
1, 5
2, 1
3, 4
4, 2
5, 5
6, 2
7, 5
8, 4
9, 5","
Index,Response
0,4
1,1
2,5
3,1
4,5
5,2
6,4
7,1
8,5
9,5","
Index, Response
0, 4
1, 1
2, 5
3, 1
4, 5
5, 1
6, 5
7, 4
8, 5
9, 5"
3,"
Index,Response
0,4
1,5
2,4
3,1
4,5
5,2
6,4
7,1
8,3
9,2","
Index,Response
0,3
1,5
2,1
3,4
4,1
5,2
6,4
7,2
8,1
9,2","
Index, Response
0, 1
1, 5
2, 1
3, 4
4, 2
5, 5
6, 1 
7, 5 
8, 4 
9, 5","
Index, Response
0, 4
1, 1
2, 5
3, 1
4, 5
5, 2
6, 5
7, 1
8, 5
9, 5","
Index,Response
0,5
1,1
2,4
3,2
4,5
5,1
6,5
7,4
8,4
9,5"
4,"
Index	Response
0, 4
1, 1
2, 5
3, 2
4, 5
5, 1
6, 5
7, 2
8, 4
9, 2","
Index	Response
0, 2
1, 5
2, 1
3, 4
4, 1
5, 2
6, 3
7, 2
8, 1
9, 2","
Index, Response
0, 1
1, 5
2, 1
3, 4
4, 2
5, 5
6, 1
7, 4
8, 5
9, 4","
Index, Response
0, 5
1, 1
2, 5
3, 1
4, 5
5, 1
6, 5
7, 1
8, 5
9, 5","
Index	Response
0, 4
1, 1
2, 5
3, 1
4, 5
5, 1
6, 4
7, 5
8, 4
9, 5"
5,"
Index,Response
0,4
1,2
2,4
3,2
4,5
5,1
6,5
7,2
8,4
9,2","
Index, Response
0, 2
1, 5
2, 1
3, 4
4, 1
5, 2
6, 1
7, 2
8, 1
9, 2","
Index,Response
0,1
1,5
2,1
3,5
4,3
5,5
6,1
7,4
8,5
9,5","
Index,Response
0,4
1,1
2,5
3,1
4,5
5,2
6,5
7,1
8,5
9,5","
Index	Response
0, 4
1, 1
2, 5
3, 1
4, 5
5, 1
6, 4
7, 5
8, 4
9, 5"
6,"
Index,Response
0,2
1,5 
2,4
3,1
4,3
5,2
6,4
7,2
8,1
9,5","
Index, Response
0, 2
1, 5
2, 1
3, 1
4, 2
5, 2
6, 3
7, 3
8, 2
9, 2","
Index,Response
0,1
1,5
2,1
3,4
4,2
5,5
6,1
7,4
8,5
9,5","
Index,Response
0,4
1,1
2,5
3,1
4,5
5,2
6,5
7,1
8,5
9,4","
Index	Response
0, 4
1, 1
2, 5
3, 1
4, 5
5, 1
6, 5
7, 4
8, 4
9, 5"
7,"
Index,Response
0,2
1,5
2,4
3,2
4,5
5,2
6,4
7,2
8,4
9,2","
Index,Response
0,2
1,5
2,1
3,4
4,1
5,2
6,1
7,2
8,2
9,1","
Index,Response
0,2
1,5
2,1
3,4
4,1
5,5
6,2
7,5
8,5
9,4","
Index, Response
0, 5
1, 1
2, 5
3, 1
4, 5
5, 1
6, 5
7, 1
8, 5
9, 5","
Index,Response
0,5
1,1
2,5
3,1
4,5
5,1
6,4
7,4
8,5
9,5"
8,"
Index,Response
0,2
1,5
2,4
3,2
4,5
5,1
6,5
7,2
8,4
9,1","
Index,Response
0, 1
1, 4
2, 1
3, 5
4, 2
5, 3","
Index,Response
0,2
1,5
2,1
3,4
4,1
5,5
6,2
7,5
8,4
9,5","
Index,Response
0,5
1,1
2,5
3,1
4,5
5,1
6,5
7,1
8,5
9,5","
Index	Response
0, 4
1, 2
2, 5
3, 1
4, 5
5, 1
6, 4
7, 5
8, 5
9, 5"
9,"
Index, Response
0, 2
1, 5
2, 4
3, 1
4, 5
5, 1
6, 4
7, 1
8, 2
9, 5","
Index, Response
0, 2 
1, 5 
2, 1 
3, 4 
4, 1 
5, 2 
6, 4 
7, 2 
8, 1 
9, 2","
Index,Response
0,2
1,4
2,1
3,4
4,3
5,5
6,1
7,5
8,4
9,5","
Index,Response
0,4
1,1
2,5
3,1
4,5
5,2","
Index,Response
0,4
1,1
2,5
3,1
4,5
5,1
6,4
7,4
8,5
9,5"
10,"
Index,Response
0,4
1,5
2,4
3,2
4,4
5,5
6,3
7,2
8,3
9,5","
Index,Response
0, 4
1, 5
2, 2
3, 1
4, 2
5, 4","
Index,Response
0,1
1,5
2,1
3,4
4,2
5,5
6,2
7,5
8,4
9,5","
Index, Response
 0, 5
 1, 1
 2, 5
 3, 1
 4, 5
 5, 2
 6, 5
 7, 1
 8, 5
 9, 5","
Index,Response
0,4
1,1
2,5
3,1
4,5
5,1
6,4
7,5
8,5
9,5"
11,"
Index,Response
0,3
1,5
2,4
3,1
4,5
5,2
6,4
7,1
8,3
9,2","
Index, Response
0, 4
1, 5
2, 1
3, 2
4, 1
5, 2
6, 1
7, 1
8, 1
9, 2","
Index,Response
0, 1
1, 5
2, 1
3, 5
4, 4
5, 5
6, 1
7, 5
8, 5
9, 5","
Index,Response
0,4
1,1
2,5
3,1
4,5
5,2
6,5
7,1
8,5
9,5","
Index	Response
0, 4
1, 1
2, 5
3, 1
4, 5
5, 1
6, 4
7, 5
8, 4
9, 5"
12,"
Index, Response
0, 4
1, 5
2, 4
3, 2
4, 5
5, 2
6, 4
7, 2
8, 5
9, 2","
Index,Response
0,2
1,5
2,1
3,4
4,1
5,2
6,1
7,2
8,2
9,1","
Index,Response
0,2
1,5
2,1
3,4
4,2
5,5
6,2
7,5
8,4
9,5","
Index,Response
0,4
1,1
2,5
3,1
4,5
5,2
6,5
7,1
8,5
9,5","
Index	Response
0, 4
1, 1
2, 5
3, 2
4, 5
5, 1
6, 4
7, 5
8, 5
9, 5"
13,"
Index, Response
0, 2
1, 5
2, 4
3, 1
4, 5
5, 2
6, 4
7, 1
8, 3
9, 2","
Index, Response
0, 4
1, 5
2, 1
3, 2
4, 1
5, 2","
Index,Response
0,2
1,5
2,1
3,4
4,2
5,5
6,2
7,5
8,4
9,5","
Index, Response
0, 4
1, 1
2, 5
3, 1
4, 5
5, 2
6, 5
7, 1
8, 5
9, 4","
    Index	Response
    0, 4
    1, 1
    2, 5
    3, 1
    4, 5
    5, 1
    6, 4
    7, 4
    8, 5
    9, 5"
14,"
Index,Response
0,3
1,4
2,4
3,2
4,5
5,2
6,4
7,2
8,3
9,2","
Index	Response
0, 4
1, 5
2, 1
3, 2
4, 1
5, 2
6, 3
7, 1
8, 1
9, 2","
Index, Response
0, 1
1, 5
2, 1
3, 4
4, 5
5, 5
6, 1
7, 5
8, 4
9, 5","
Index, Response
0, 5
1, 1
2, 5
3, 1
4, 5
5, 1
6, 5
7, 1
8, 5
9, 5","
Index,Response
0, 4
1, 2
2, 5
3, 1
4, 5
5, 1"
15,"
Index, Response
0, 4
1, 5
2, 4
3, 2
4, 5
5, 2
6, 4
7, 2
8, 5
9, 1","
Index, Response
0, 1
1, 5
2, 1
3, 5
4, 1
5, 1","
Index,Response
0,1
1,5
2,1
3,4
4,2
5,5
6,2
7,5
8,4
9,5","
Index, Response
0, 4
1, 1 
2, 5
3, 1
4, 5
5, 2
6, 5
7, 1
8, 5
9, 5","
Index, Response
0, 4
1, 1
2, 5
3, 1
4, 5
5, 1
6, 4
7, 5
8, 5
9, 5"
16,"
Index,Response
0,2
1,4
2,3
3,2
4,5
5,1
6,4
7,2
8,4
9,1","
Index, Response
0, 2
1, 5
2, 1
3, 4
4, 1
5, 2
6, 1
7, 2
8, 1
9, 2","
Index, Response
0, 1
1, 5
2, 1
3, 5
4, 4
5, 5
6, 1
7, 5
8, 5
9, 5","
Index,Response
0,4
1,1
2,5 
3,1
4,5
5,2
6,5
7,1
8,5
9,5","
Index,Response
0,5
1,1
2,5
3,1
4,4
5,1"
17,"
Index,Response
0,1
1,4
2,4
3,2
4,5
5,2
6,4
7,2
8,4
9,2","
Index, Response
0, 3
1, 5
2, 1
3, 4
4, 1
5, 2
6, 1
7, 1
8, 3
9, 2","
Index, Response
0, 2
1, 5
2, 1
3, 4
4, 2
5, 5
6, 2
7, 5
8, 4
9, 5","
Index, Response
0, 5
1, 1
2, 5
3, 1
4, 5
5, 1
6, 5
7, 1
8, 5
9, 5","
Index, Response
0, 4
1, 1
2, 5
3, 1
4, 5
5, 1
6, 4
7, 5
8, 4
9, 5"
18,"
Index, Response
0, 4
1, 5
2, 3
3, 2
4, 4
5, 2
6, 4
7, 2
8, 3
9, 5","
Index	Response
0, 3
1, 5
2, 2
3, 4
4, 1
5, 2
6, 3
7, 2
8, 1
9, 1","
Index,Response
0,1
1,5
2,1
3,4
4,2
5,5
6,1
7,5
8,4
9,5","
Index,Response
0,4
1,1
2,5
3,1
4,5
5,2
6,5
7,1
8,5
9,5","
Index, Response
0, 4
1, 1
2, 5
3, 2
4, 5
5, 1
6, 4
7, 4
8, 5
9, 5"
19,"
Index, Response
0, 4
1, 4
2, 5
3, 1
4, 3
5, 1
6, 5
7, 1
8, 3
9, 5","
Index,Response
0,3
1,5
2,1
3,4
4,1
5,2
6,3
7,2
8,2
9,1","
Index	Response
0, 4
1, 5
2, 1
3, 5
4, 2
5, 5
6, 1
7, 5
8, 5
9, 5","
Index, Response
0, 4
1, 1
2, 5
3, 1
4, 5
5, 2
6, 5
7, 1
8, 5
9, 5","
Index, Response
0, 4
1, 1
2, 5
3, 1
4, 5
5, 1
6, 4
7, 5
8, 4
9, 5"
20,"
Index,Response
0,4
1,3
2,4
3,1
4,5
5,2
6,5
7,1
8,3
9,2","
Index, Response
0, 2
1, 5
2, 1
3, 2
4, 1
5, 2
6, 1
7, 1
8, 1
9, 2","
Index,Response
0,2
1,5
2,1
3,4
4,2
5,5
6,1
7,4
8,5
9,5","
Index,Response
0,5
1,1
2,5
3,1
4,5
5,2","
Index,Response
0,4
1,1
2,5
3,1
4,5
5,1
6,4
7,4
8,5
9,5"
21,"
Index,Response
0,2
1,5
2,4
3,1
4,5
5,2
6,4
7,1
8,3
9,2","
Index, Response
0, 3
1, 5
2, 1
3, 2
4, 1
5, 2
6, 3
7, 1
8, 3
9, 2","
Index,Response
0,1
1,5
2,1
3,5
4,2
5,5
6,1
7,4
8,5
9,5","
   Index, Response
    0, 4
    1, 1
    2, 5
    3, 1
    4, 5
    5, 2
    6, 5
    7, 1
    8, 5
    9, 4","
Index,Response
0,4
1,1
2,5
3,1
4,5
5,1
6,5
7,4
8,4
9,5"
22,"
Index	Response
0, 3
1, 4
2, 5
3, 2
4, 5
5, 4
6, 5
7, 2
8, 4
9, 3","
Index, Response
0, 2
1, 5
2, 1
3, 4
4, 1
5, 2
6, 1
7, 2
8, 1
9, 2","
Index, Response
0, 1
1, 5
2, 1
3, 4
4, 2
5, 5
6, 1
7, 4
8, 5
9, 5","
Index,Response
0,5
1,1
2,5
3,1
4,5
5,2
6,5
7,1
8,5
9,5","
Index	Response
0, 4
1, 1
2, 5
3, 1
4, 5
5, 1
6, 4
7, 5
8, 5
9, 5"
23,"
Index, Response
0, 4
1, 5
2, 4
3, 2
4, 5
5, 2
6, 4
7, 2
8, 4
9, 5","
Index	Response
0, 2
1, 5
2, 1
3, 2
4, 1
5, 2
6, 3
7, 2
8, 1
9, 1","
Index,Response
0, 1
1, 5
2, 1
3, 4
4, 3
5, 5
6, 2
7, 5
8, 4
9, 5","
Index,Response
0,4
1,1
2,5
3,1
4,5
5,2
6,5
7,1
8,5
9,5","
Index	Response
0, 4
1, 1
2, 5
3, 1
4, 5
5, 1
6, 4
7, 5
8, 4
9, 5"
24,"
Index,Response
0,2
1,5
2,4
3,1
4,5
5,1
6,4
7,1
8,3
9,2","
Index	Response
0, 4
1, 5
2, 1
3, 2
4, 1
5, 2","
Index	Response
0,	5
1,	4
2,	1
3,	5
4,	2
5,	5
6,	1
7,	4
8,	5
9,	4","
Index	Response
0, 4
1, 1
2, 5
3, 1
4, 5
5, 2
6, 5
7, 1
8, 5
9, 5","
Index,Response
0,5
1,1
2,5
3,1
4,4
5,1"
25,"
    Index, Response
    0, 4
    1, 4
    2, 5
    3, 2
    4, 4
    5, 2
    6, 5
    7, 2
    8, 4
    9, 2","
Index, Response
0, 2
1, 5
2, 1
3, 1
4, 2
5, 2
6, 2
7, 2
8, 2
9, 1","
Index,Response
0,1
1,5
2,1
3,4
4,2
5,5
6,1
7,4
8,5
9,4","
Index,Response
0,5
1,1
2,5
3,1
4,5
5,1
6,5
7,1
8,5
9,5","
Index	Response
0, 4
1, 1
2, 5
3, 1
4, 5
5, 1
6, 5
7, 4
8, 4
9, 5"
26,"
Index,Response
0,2
1,5
2,4
3,1
4,5
5,1
6,4
7,1
8,3
9,5","
Index,Response
0,2
1,5
2,1
3,4
4,1
5,2
6,1
7,2
8,2
9,3","
Index,Response
0,1
1,5
2,1
3,4
4,3
5,5
6,1
7,5
8,4
9,5","
Index, Response
0, 4
1, 1
2, 5
3, 1
4, 5
5, 2
6, 5
7, 1
8, 5
9, 5","
Index,Response
0,4
1,1
2,5
3,1
4,5
5,1
6,4
7,5
8,5
9,5"
27,"
Index,Response
0,2
1,5
2,4
3,1
4,5
5,2
6,4
7,1
8,4
9,1","
Index, Response
0, 4
1, 5
2, 1
3, 2
4, 1
5, 3","
Index, Response
0, 1
1, 5
2, 1
3, 4
4, 3
5, 5
6, 1
7, 5
8, 5
9, 5","
Index,Response
0,4
1,1
2,5
3,1
4,5
5,2
6,5
7,1
8,5
9,5","
Index, Response
0, 4
1, 1
2, 5
3, 1
4, 5
5, 1
6, 5
7, 4
8, 5
9, 5"
28,"
Index,Response
0,4
1,5
2,4
3,1
4,5
5,2
6,4
7,1
8,5
9,2","
Index,Response
0,2
1,5
2,1
3,3
4,1
5,2
6,1
7,2
8,2
9,1","
Index,Response
0,2
1,4
2,1
3,5
4,4
5,5
6,1
7,3
8,5
9,5","
Index, Response
0, 5
1, 1
2, 5
3, 1
4, 5
5, 1
6, 5
7, 1
8, 5
9, 5","
Index,Response
0,4
1,1
2,5
3,1
4,5
5,1
6,4
7,5
8,4
9,5"
29,"
Index, Response 
0, 4
1, 5
2, 4
3, 2
4, 5
5, 2
6, 5
7, 2
8, 4
9, 2","
Index,Response
0,2
1,5
2,1
3,4
4,1
5,2
6,1
7,2
8,2
9,3","
Index, Response
0, 1
1, 5
2, 1
3, 5
4, 4
5, 5
6, 1
7, 5
8, 5
9, 5","
Index, Response
0, 5
1, 1
2, 5
3, 1
4, 5
5, 1
6, 5
7, 1
8, 5
9, 5","
Index,Response
0,4
1,1
2,5
3,1
4,5
5,1
6,4
7,5
8,5
9,5"
30,"
Index,Response
0,2
1,5
2,4
3,2
4,5
5,2
6,4
7,2
8,4
9,2","
Index, Response
0, 2
1, 5
2, 1
3, 4
4, 1
5, 2
6, 3
7, 2
8, 1
9, 3","
Index,Response
0,3
1,5
2,1
3,4
4,4
5,5
6,1
7,4
8,5
9,5","
Index, Response
0, 4
1, 1
2, 5
3, 1
4, 5
5, 2
6, 5
7, 1
8, 5
9, 5","
Index	Response
0, 4
1, 1
2, 5
3, 1
4, 5
5, 1
6, 5
7, 5
8, 4
9, 5"
31,"
Index,Response
0,2
1,5
2,4
3,2
4,5
5,2
6,4
7,2
8,4
9,2","
Index, Response
0, 3
1, 5
2, 1
3, 4
4, 1
5, 2
6, 3
7, 1
8, 2
9, 1","
Index,Response
0,2
1,5
2,1
3,4
4,1
5,5
6,2
7,5
8,4
9,5","
Index	Response
0, 5
1, 1
2, 5 
3, 1
4, 5
5, 1
6, 5
7, 1
8, 5
9, 5","
Index,Response
0,4
1,1
2,5
3,1
4,5
5,1
6,4
7,5
8,4
9,5"
32,"
Index, Response
0, 4 
1, 1 
2, 5
3, 2
4, 4
5, 2 
6, 5
7, 1
8, 5
9, 2","
Index, Response
0, 4
1, 5
2, 2
3, 1
4, 2
5, 3","
Index, Response
0, 1
1, 5
2, 1
3, 4
4, 3
5, 5
6, 1
7, 5
8, 4
9, 5","
Index, Response
0,4
1,1
2,5
3,1
4,5
5,2
6,5
7,1
8,5
9,5","
Index, Response
0, 4
1, 1
2, 5
3, 1
4, 5
5, 1
6, 4
7, 5
8, 5
9, 5"
33,"
Index,Response
0,2
1,4
2,3
3,1
4,5
5,2
6,4
7,1
8,3
9,2","
Index, Response
0, 2
1, 5 
2, 1
3, 4
4, 2
5, 1
6, 2
7, 1
8, 2 
9, 3","
Index, Response
0, 1
1, 5
2, 1
3, 5
4, 4
5, 5
6, 1
7, 5
8, 5
9, 5","
Index,Response
0,5
1,1
2,5
3,1
4,5
5,1","
Index,Response
0,4
1,1
2,5
3,1
4,5
5,1
6,5
7,4
8,5
9,5"
34,"
Index, Response
0, 2
1, 4
2, 3
3, 1
4, 5
5, 2
6, 4
7, 1
8, 3
9, 2","
Index, Response
0, 2
1, 5
2, 1
3, 4
4, 1
5, 2
6, 1
7, 2
8, 1
9, 2","
Index, Response
0, 1
1, 5
2, 1
3, 4
4, 3
5, 5
6, 1
7, 4
8, 5
9, 5","
Index,Response
0,4
1,1
2,5
3,1
4,5
5,2
6,5
7,1
8,5
9,5","
Index,Response
0,4
1,1
2,5
3,1
4,5
5,1
6,4
7,4
8,5
9,5"
35,"
Index,Response
0,4
1,5
2,4
3,2
4,5
5,2
6,5
7,2
8,4
9,2","
Index	Response
0, 2
1, 5
2, 1
3, 2
4, 1
5, 4","
Index,Response
0,3
1,5
2,1
3,4
4,2
5,5
6,1
7,4
8,5
9,4","
Index, Response
0, 5
1, 1
2, 5
3, 1
4, 5
5, 1
6, 5
7, 1
8, 5
9, 5","
Index, Response
0, 5
1, 1
2, 5
3, 1
4, 5
5, 1"
36,"
Index,Response
0, 4
1, 1
2, 5
3, 2
4, 5
5, 2
6, 5
7, 2
8, 4
9, 2","
Index, Response
0, 2
1, 5
2, 1
3, 4
4, 2
5, 3
6, 1
7, 2
8, 3
9, 2","
Index,Response
0,1
1,5
2,1
3,4
4,2
5,5
6,2
7,5
8,4
9,5","
Index	Response
0, 5
1, 1
2, 5
3, 1
4, 5
5, 1
6, 5
7, 1
8, 5
9, 5","
Index, Response
0, 5
1, 1
2, 5
3, 1
4, 5
5, 1"
37,"
Index,Response
0,3
1,2
2,4
3,2
4,5
5,2
6,4
7,2
8,3
9,2","
Index	Response
0, 3
1, 5
2, 1
3, 4
4, 1
5, 2
6, 1
7, 2
8, 1
9, 2","
Index	Response
0, 3
1, 5 
2, 1
3, 4
4, 2
5, 5
6, 2
7, 5
8, 4
9, 5","
Index,Response
0,4
1,1
2,5
3,1
4,5
5,2
6,5
7,1
8,5
9,4","
Index, Response
0, 4
1, 1
2, 5
3, 1
4, 5
5, 1"
38,"
Index,Response
0,2
1,5
2,4
3,1
4,5
5,1
6,4
7,1
8,3
9,4","
Index, Response
0, 1
1, 5
2, 1
3, 2
4, 1
5, 2
6, 3
7, 4
8, 1
9, 3","
Index,Response
0,1
1,5
2,1
3,4
4,2
5,5
6,2
7,5
8,4
9,5","
Index,Response
0, 4
1, 1
2, 5
3, 1
4, 5
5, 2
6, 5
7, 1
8, 5
9, 5","
Index,Response
0,4
1,1
2,5
3,1
4,5
5,1
6,5
7,4
8,5
9,5"
39,"
Index,Response
0,4
1,5
2,4
3,2
4,5
5,2
6,4
7,2
8,4
9,2","
Index	Response
0,	2
1,	5
2,	1
3,	3
4,	1
5,	2
6,	3
7,	3
8,	1
9,	2","
Index,Response
0,2
1,5
2,1
3,4
4,2
5,5
6,1
7,4
8,5
9,5","
Index, Response
0,4
1,1
2,5
3,1
4,5
5,2
6,5
7,1
8,5
9,5","
Index,Response
0,4
1,1
2,5
3,1
4,5
5,1
6,4
7,5
8,5
9,5"
40,"
Index,Response
0,2
1,1
2,4
3,2
4,5
5,1
6,4
7,2
8,3
9,1","
Index,Response
0,2
1,5
2,1
3,1
4,2
5,2
6,3
7,2
8,2
9,4","
Index, Response
0, 1
1, 5
2, 1
3, 5
4, 4
5, 5
6, 1
7, 5
8, 4
9, 5","
Index,Response
0,5
1,1
2,5
3,1
4,5
5,2
6,5
7,1
8,5
9,5","
Index,Response
0,5
1,1
2,5
3,1
4,5
5,1
6,4
7,5
8,4
9,5"
41,"
Index, Response
0,2
1,4
2,4
3,2
4,5
5,2
6,5
7,2
8,4
9,2","
Index, Response
0, 2
1, 5
2, 1
3, 4
4, 1
5, 2
6, 1
7, 2
8, 1
9, 2","
Index,Response
0,1
1,5
2,1
3,4
4,2
5,5
6,1
7,5
8,4
9,5","
Index, Response
0, 5
1, 1
2, 5
3, 1
4, 5
5, 1
6, 5
7, 1
8, 5
9, 5","
Index, Response
0, 4
1, 1
2, 5
3, 1
4, 5
5, 1
6, 5
7, 4
8, 5
9, 5"
42,"
Index,Response
 0, 4
 1, 5
 2, 4
 3, 2
 4, 5
 5, 2
 6, 4
 7, 2
 8, 4
 9, 5","
Index, Response
0, 2 
1, 5 
2, 2 
3, 4 
4, 1 
5, 2","
Index,Response
0,2
1,4
2,1
3,3
4,2
5,5
6,1
7,5
8,4
9,5","
Index,Response
0,5
1,1
2,5
3,1 
4,5
5,2
6,5
7,1
8,5
9,5","
Index,Response
0,4
1,1
2,5
3,1
4,5
5,1
6,4
7,4
8,5
9,5"
43,"
Index,Response
0,4
1,5
2,4
3,2
4,5
5,2
6,4
7,2
8,4
9,5","
Index	Response
0, 4
1, 5
2, 1
3, 1
4, 2
5, 2
6, 1
7, 3
8, 2
9, 2","
Index, Response
0, 1 
1, 5 
2, 1 
3, 4 
4, 5 
5, 4 
6, 2 
7, 5 
8, 4 
9, 5","
Index,Response
0,5
1,1
2,5
3,1
4,5
5,2","
Index,Response
0,4
1,1
2,5
3,1
4,5
5,1
6,5
7,4
8,5
9,5"
44,"
Index,Response
0,2
1,3
2,4
3,1
4,5
5,3
6,4
7,2
8,3
9,2","
Index, Response
0, 2
1, 5
2, 1
3, 2
4, 1 
5, 1","
Index, Response
0, 1
1, 5
2, 1
3, 4
4, 5
5, 5
6, 1
7, 4
8, 5
9, 5","
Index, Response
0, 5
1, 1 
2, 5
3, 1
4, 5
5, 1 
6, 5
7, 1 
8, 5
9, 5","
Index, Response
0, 4
1, 1
2, 5
3, 1
4, 5
5, 1
6, 4
7, 5
8, 4
9, 5"
45,"
Index,Response
0,4
1,5
2,4
3,1
4,5
5,2
6,4
7,1
8,3
9,5","
Index, Response
0, 2 
1, 5 
2, 1 
3, 4 
4, 1 
5, 2 
6, 3 
7, 3 
8, 2 
9, 4","
Index,Response
0,1
1,5
2,1
3,4
4,2
5,5
6,1
7,5
8,4
9,5","
Index	Response
0, 5
1, 1
2, 5
3, 1
4, 5
5, 1
6, 5
7, 1
8, 5
9, 5","
Index,Response
0,4
1,1
2,5
3,1
4,5
5,1
6,4
7,4
8,5
9,5"
46,"
Index,Response
0,2
1,5
2,4
3,1
4,5
5,1
6,4
7,2
8,4
9,1","
Index	Response
0, 2
1, 5
2, 1
3, 4
4, 2
5, 1
6, 3
7, 2
8, 1
9, 2","
Index, Response
0, 2
1, 5 
2, 1
3, 4
4, 2
5, 5 
6, 1
7, 5
8, 4
9, 5","
Index, Response
0, 4
1, 1
2, 5
3, 1
4, 5 
5, 4
6, 5
7, 1
8, 5
9, 5","
Index, Response
0, 4
1, 1
2, 5
3, 1
4, 4
5, 1"
47,"
Index, Response
0, 4
1, 5
2, 4
3, 2
4, 5
5, 2
6, 4
7, 2
8, 4
9, 5","
Index, Response
0, 2
1, 5
2, 1
3, 4
4, 1
5, 2
6, 1
7, 2
8, 1
9, 2","
Index,Response
0,2
1,5
2,1
3,4
4,2
5,5
6,2
7,5
8,4
9,5","
Index, Response
0, 5
1, 1
2, 5
3, 1
4, 5
5, 1
6, 5
7, 1
8, 5
9, 5","
Index, Response
0, 5
1, 1
2, 5
3, 1
4, 5
5, 1
6, 5
7, 4
8, 5
9, 5"
48,"
Index, Response
0, 2
1, 5
2, 4
3, 1
4, 3
5, 2
6, 4
7, 1
8, 3
9, 5","
Index,Response
0,2
1,5
2,1
3,4
4,1
5,2
6,3
7,3
8,2
9,1","
Index	Response
0	1
1	5
2	1
3	5
4	2
5	5
6	1
7	5
8	5
9	5","
Index,Response
0,4
1,1
2,5
3,1
4,5
5,2
6,5
7,1
8,5
9,5","
Index, Response
0, 4
1, 1
2, 5
3, 1
4, 5 
5, 1
6, 4
7, 5 
8, 5
9, 5"
49,"
Index, Response
0, 4 
1, 1 
2, 5 
3, 2 
4, 4 
5, 2 
6, 5 
7, 2 
8, 4 
9, 2","
Index,Response
0,2
1,5
2,1
3,1
4,2
5,3
6,2
7,1
8,2
9,2","
Index, Response
0, 1
1, 5
2, 1
3, 4
4, 2
5, 5
6, 1
7, 5
8, 4
9, 5","
Index	Response
0, 5
1, 1
2, 5
3, 1
4, 5
5, 2
6, 5
7, 1
8, 5
9, 5","
Index, Response
0, 4
1, 1
2, 5
3, 1
4, 5
5, 1
6, 4
7, 4
8, 5
9, 5"
50,"
Index, Response
0, 4
1, 1
2, 5
3, 1
4, 5
5, 2
6, 4
7, 1
8, 3
9, 2","
Index	Response
0, 2
1, 5
2, 1
3, 2
4, 1
5, 2
6, 1
7, 1
8, 1
9, 2","
Index,Response
0,2
1,5
2,1
3,4
4,2
5,5
6,1
7,4
8,5
9,5","
Index,Response
0,4
1,1
2,5
3,1
4,5
5,2
6,5
7,1
8,5
9,5","
    Index, Response
    0, 4
    1, 1
    2, 5
    3, 1
    4, 5
    5, 1
    6, 4
    7, 5
    8, 4
    9, 5"
51,"
Index,Response
0,1
1,5
2,4
3,2
4,5
5,2
6,4
7,2
8,4
9,2","
Index, Response
0, 2
1, 5
2, 1
3, 4
4, 1
5, 2
6, 1
7, 2
8, 2
9, 1","
Index	Response
0, 4
1, 5
2, 1
3, 5
4, 3
5, 5
6, 1
7, 5
8, 4
9, 5","
Index,Response
0,4
1,1
2,5
3,1
4,5
5,2
6,5
7,1
8,5
9,5","
Index,Response
0,4
1,1
2,5
3,1
4,5
5,1
6,4
7,4
8,5
9,5"
52,"
Index,Response
0,2
1,5
2,4
3,2
4,4
5,2
6,4
7,2
8,3
9,5","
Index,Response
0,2
1,5
2,1
3,4
4,1
5,2
6,2
7,1
8,2
9,1","
Index,Response
0,1
1,5
2,1
3,4
4,1
5,5
6,1
7,5
8,4
9,5","
Index, Response
0, 4
1, 1
2, 5
3, 1
4, 5
5, 4
6, 5
7, 1
8, 5
9, 5","
Index	Response
0, 4
1, 1
2, 5
3, 1
4, 5
5, 1
6, 4
7, 5
8, 4
9, 5"
53,"
Index, Response
0, 4
1, 5
2, 4
3, 1
4, 5 
5, 1
6, 4
7, 1
8, 4
9, 5","
Index, Response
0, 2 
1, 5
2, 1
3, 4
4, 1
5, 2
6, 3
7, 2
8, 1
9, 2","
    Index,Response
    0,2
    1,5
    2,1
    3,4
    4,2
    5,5
    6,2
    7,4
    8,5
    9,5","
Index,Response
0,4
1,1
2,5
3,1
4,5
5,2
6,5
7,1
8,5
9,5","
Index,Response
0,5
1,1
2,5
3,1
4,5
5,1
6,4
7,5
8,4
9,5"
54,"
Index,Response
0,1
1,3
2,4
3,2
4,5
5,1
6,4
7,2
8,1","
Index	Response
0, 2
1, 5
2, 1
3, 2
4, 1
5, 2
6, 1
7, 1
8, 1
9, 1","
Index	Response
0, 2
1, 5
2, 1
3, 5
4, 5
5, 4
6, 2
7, 4
8, 5
9, 5","
Index	Response
0, 5
1, 1
2, 4
3, 1
4, 5
5, 2
6, 5
7, 1
8, 4
9, 5","
Index,Response
0,4
1,1
2,5
3,1
4,5
5,1
6,4
7,5
8,5
9,5"
55,"
Index,Response
0,3
1,4
2,5
3,1
4,5
5,2
6,5
7,1
8,4
9,2","
Index, Response
0, 2
1, 5
2, 1
3, 4
4, 1
5, 2
6, 1
7, 1
8, 2
9, 1","
Index	Response 
0, 4
1, 5
2, 1
3, 5
4, 4
5, 5
6, 1
7, 5
8, 5
9, 5","
Index, Response
0, 5
1, 1
2, 5
3, 1
4, 5
5, 1
6, 5
7, 1
8, 5
9, 5","
Index	Response
0, 5
1, 1
2, 5
3, 1
4, 5
5, 1
6, 5
7, 5
8, 5
9, 5"
56,"
Index,Response
0,4
1,5
2,4
3,1
4,5
5,2
6,4
7,1
8,3
9,2","
Index, Response
0, 2
1, 5
2, 1
3, 4
4, 1
5, 2
6, 1
7, 2
8, 1
9, 2","
Index,Response
0,1
1,5
2,1
3,5
4,3
5,5
6,1
7,5
8,5
9,5","
Index,Response
0,4
1,1
2,5
3,1
4,5
5,2
6,5
7,1
8,5
9,4","
Index, Response
0, 4 
1, 1
2, 5
3, 1
4, 5
5, 1
6, 5
7, 4
8, 5
9, 5"
57,"
Index,Response
0,2
1,3
2,4
3,5
4,4
5,2
6,4
7,5
8,3
9,5","
Index,Response
0,2
1,5
2,1
3,2
4,1
5,1
6,2
7,2
8,1
9,2","
Index,Response
0,2
1,5
2,1
3,4
4,2
5,5
6,2
7,5
8,4
9,5","
Index,Response
0,5
1,1
2,5
3,1
4,5
5,2
6,5
7,1
8,5
9,5","
Index	Response
0, 5
1, 1
2, 5
3, 1
4, 5
5, 1
6, 5
7, 5
8, 5
9, 5"
58,"
Index,Response
0,2
1,5
2,4
3,2
4,5
5,1
6,4
7,2
8,5
9,1","
Index,Response
0,2
1,5
2,1
3,2
4,1
5,3
6,2
7,1
8,2
9,1","
Index,Response
0,2
1,5
2,1
3,4
4,1
5,5
6,2
7,5
8,4
9,5","
Index,Response
0,5
1,1
2,5
3,1
4,5
5,2","
Index, Response
0, 5
1, 1
2, 5
3, 1
4, 5
5, 1
6, 5
7, 4
8, 5
9, 5"
59,"
Index, Response
0, 4
1, 1
2, 5
3, 2
4, 4
5, 1
6, 5
7, 2
8, 4
9, 1","
Index	Response
0, 2
1, 5
2, 1
3, 4
4, 1
5, 2
6, 3
7, 3
8, 2
9, 1","
Index,Response
0, 1
1, 5
2, 1
3, 4
4, 2
5, 5
6, 1
7, 4
8, 5
9, 5","
Index	Response
0, 4
1, 1
2, 5
3, 1
4, 5
5, 2
6, 5
7, 1
8, 5
9, 5","
Index,Response
0,4
1,1
2,5
3,1
4,5
5,1
6,4
7,5
8,5
9,5"
60,"
Index,Response
0,3
1,2
2,4
3,2
4,5
5,2
6,4
7,2
8,4
9,1","
Index,Response
0,2
1,5
2,1
3,1
4,2
5,3
6,4
7,2
8,2
9,3","
Index, Response
0, 1
1, 5
2, 1
3, 4
4, 5
5, 5
6, 1
7, 5
8, 4
9, 5","
Index, Response
0, 4
1, 1
2, 5
3, 1
4, 5
5, 2
6, 5
7, 1
8, 5
9, 5","
Index, Response
0, 4
1, 1
2, 5
3, 1
4, 5
5, 1
6, 4
7, 5
8, 5
9, 4"
61,"
Index, Response
0, 2
1, 5
2, 4
3, 2
4, 5
5, 4
6, 3
7, 1
8, 3
9, 5","
Index,Response
0,2
1,5
2,1
3,4
4,1
5,2
6,3
7,3
8,2
9,3","
Index, Response
0, 2
1, 5
2, 1
3, 4
4, 3
5, 5
6, 2
7, 5
8, 4
9, 5","
Index,Response
0,4
1,1
2,5
3,1
4,5
5,3
6,5
7,1
8,5
9,5","
Index, Response
0, 4
1, 1
2, 5
3, 1
4, 5
5, 2
6, 5
7, 4
8, 5
9, 5"
62,"
Index, Response
0, 3
1, 4
2, 5
3, 1
4, 4
5, 1
6, 5
7, 2
8, 4
9, 1","
Index, Response
0, 3
1, 5
2, 1
3, 4
4, 1 
5, 2","
Index,Response
0,2
1,4
2,1
3,5
4,4
5,5
6,2
7,4
8,4
9,5","
Index,Response
0,5
1,1
2,5
3,1
4,5
5,2","
Index,Response
0,4
1,1
2,5
3,1
4,5
5,1
6,5
7,4
8,5
9,5"
63,"
Index	Response
0, 4
1, 1
2, 5
3, 2
4, 5
5, 2
6, 4
7, 1
8, 3
9, 2","
Index,Response
0,3
1,5
2,2
3,1
4,4
5,2","
Index	 Response
0,	2
1,	5
2,	1
3,	4
4,	3
5,	5
6,	3
7,	4
8,	5
9,	5","
Index,Response
0,5
1,1
2,5
3,1
4,5
5,2","
Index,Response
0,4
1,1
2,5
3,1
4,5
5,1
6,4
7,5
8,4
9,5"
64,"
    
Index, Response
0, 2
1, 5
2, 4
3, 1
4, 5
5, 2
6, 4
7, 1
8, 3
9, 4","
Index,Response
0,2
1,5
2,1
3,2
4,1
5,2
6,1
7,1
8,1
9,3","
Index, Response
 0, 1
 1, 5
 2, 1
 3, 5
 4, 5
 5, 5
 6, 1
 7, 5
 8, 5
 9, 5","
Index,Response
0,5
1,1
2,5
3,1
4,5
5,2","
Index	Response
0, 5
1, 1
2, 5
3, 1
4, 5
5, 1
6, 5
7, 5
8, 4
9, 5"
65,"
Index, Response
0, 4
1, 1
2, 5
3, 2
4, 5
5, 2
6, 5
7, 2
8, 4
9, 1","
Index	Response
0, 4
1, 5
2, 2
3, 1
4, 2
5, 3
6, 2
7, 2
8, 3
9, 2","
Index,Response
0,3
1,4
2,1
3,5
4,4
5,5
6,1
7,5
8,4
9,5","
Index, Response
0, 4
1, 1
2, 5
3, 1
4, 5
5, 2
6, 5
7, 1
8, 5
9, 5","
    Index, Response
    0, 4
    1, 1
    2, 5
    3, 1
    4, 5
    5, 1
    6, 4
    7, 4
    8, 5
    9, 5"
66,"
Index, Response
0, 4
1, 5
2, 4
3, 2
4, 5
5, 5
6, 4
7, 2
8, 4
9, 2","
Index, Response
0,  2
1, 4
2, 2
3, 4
4, 2
5, 2
6, 3
7, 3
8, 2
9, 2","
Index,Response
0,1
1,5
2,1
3,4
4,2
5,5
6,1
7,5
8,3
9,5","
Index, Response
0, 5
1, 1
2, 5
3, 1
4, 5
5, 1
6, 5
7, 1
8, 5
9, 5","
Index,Response
0,4
1,1
2,5
3,1
4,5
5,1
6,5
7,4
8,3
9,5"
67,"
Index, Response
0, 5
1, 1
2, 4
3, 1
4, 5
5, 1
6, 4
7, 1
8, 3
9, 1","
Index	Response
0, 2
1, 5
2, 1
3, 4
4, 1
5, 2
6, 1
7, 1
8, 1
9, 2","
Index	Response
0,	4
1,	5
2,	1
3,	5
4,	2
5,	5
6,	2
7,	4
8,	5
9,	4","
Index,Response
0,4
1,1
2,5
3,1
4,5
5,2
6,5
7,1
8,5
9,5","
Index	Response
0,3
1,1
2,5
3,1
4,4
5,2
6,4
7,5
8,4
9,5"
68,"
Index,Response
0,2
1,5
2,4
3,1
4,5
5,1
6,4
7,1
8,3
9,2","
Index  Response
0, 3
1, 5
2, 2
3, 4
4, 1
5, 2
6, 1
7, 2
8, 1
9, 1","
Index,Response
0,2
1,5
2,1
3,4
4,3
5,5
6,2
7,4
8,5
9,5","
Index,Response
0,5
1,1
2,5
3,1
4,5
5,2","
Index, Response
0, 4
1, 1
2, 5
3, 1
4, 5
5, 1
6, 4
7, 4
8, 5
9, 5"
69,"
Index,Response
0,2
1,5
2,4
3,1
4,5
5,1
6,4
7,1
8,5
9,2","
Index,Response
0,1
1,5
2,1
3,2
4,1
5,2
6,1
7,1
8,1
9,2","
Index, Response
0, 2
1, 5
2, 1
3, 4
4, 2
5, 5
6, 2
7, 4
8, 5
9, 4","
Index, Response
0, 4
1, 1
2, 5
3, 1
4, 5
5, 2
6, 5
7, 1
8, 5
9, 5","
Index,Response
0,5
1,1
2,5
3,1
4,5
5,1
6,4
7,3
8,4
9,5"
70,"
Index	Response
0, 4
1, 1
2, 5
3, 2
4, 4
5, 1
6, 5
7, 2
8, 5
9, 1","
Index, Response
0, 4
1, 5
2, 1
3, 2
4, 1
5, 2
6, 3
7, 1
8, 1
9, 3","
Index	Response
0, 2
1, 5
2, 1
3, 4
4, 2
5, 5
6, 2
7, 4
8, 5
9, 5","
Index, Response
0, 5
1, 1
2, 5
3, 1
4, 5
5, 1
6, 5
7, 1
8, 5
9, 5","
Index,Response
0,4
1,1
2,5
3,1
4,5
5,1
6,4
7,5
8,4
9,5"
71,"
Index,Response
0,1
1,2
2,4
3,2
4,5
5,2
6,3
7,1
8,4
9,2","
Index	Response
0, 2
1, 5
2, 1
3, 2
4, 1
5, 2
6, 1
7, 1
8, 1
9, 2","
Index,Response
0,2
1,4
2,1
3,5
4,4
5,5
6,2
7,5
8,4
9,5","
Index,Response
0,4
1,1
2,5
3,1
4,5
5,3
6,5
7,1
8,5
9,5","
Index,Response
0,4
1,1
2,5
3,1
4,5
5,1
6,5
7,4
8,5
9,5"
72,"
Index,Response
0,2
1,5
2,4
3,1
4,3
5,2
6,4
7,1
8,3
9,2","
Index, Response
0, 2
1, 5
2, 1
3, 4
4, 2
5, 1
6, 2
7, 2
8, 3
9, 2","
Index, Response
0, 1
1, 5
2, 1
3, 5
4, 4
5, 5
6, 1
7, 5
8, 5
9, 5","
Index, Response
0, 5
1, 1
2, 5
3, 1
4, 5
5, 1
6, 5
7, 1
8, 5
9, 5","
Index, Response
0, 4
1, 1
2, 5
3, 1
4, 5
5, 1
6, 5
7, 4
8, 4
9, 5"
73,"
Index,Response
0,4
1,4
2,5
3,1
4,4
5,2
6,5
7,1
8,5
9,2","
Index, Response
0, 2
1, 5
2, 1
3, 4
4, 1
5, 2
6, 1
7, 2
8, 1
9, 2","
Index	Response
0, 2
1, 5
2, 1
3, 4
4, 2
5, 5
6, 1
7, 5
8, 4
9, 5","
Index, Response
0, 5
1, 1
2, 5
3, 1
4, 5
5, 1","
Index,Response
0,4
1,2
2,5
3,1
4,5
5,1
6,4
7,4
8,5
9,5"
74,"
Index,Response
0,3
1,5
2,4
3,1
4,4
5,1
6,4
7,1
8,3
9,5","
Index, Response
0, 2
1, 5
2, 1
3, 1
4, 2
5, 2
6, 2
7, 1
8, 2
9, 2","
Index,Response
0, 1
1, 5
2, 1
3, 4
4, 2
5, 5
6, 1
7, 5
8, 4
9, 5","
Index	Response
0, 5
1, 1
2, 5
3, 1
4, 5
5, 2
6, 5
7, 1
8, 5
9, 5","
Index, Response
0, 4
1, 1
2, 5
3, 1
4, 5
5, 1
6, 5
7, 4
8, 5
9, 5"
75,"
Index,Response
0,4
1,5
2,4
3,2
4,5
5,2
6,4
7,2
8,4
9,2","
Index, Response
0, 2
1, 5
2, 1
3, 2
4, 1
5, 2
6, 3
7, 2
8, 1
9, 1","
Index	Response
0, 4
1, 5
2, 1
3, 4
4, 3
5, 5
6, 2
7, 5
8, 4
9, 5","
Index,Response
0,4
1,1
2,5
3,1
4,5
5,2
6,5
7,1
8,4
9,5","
Index,Response
0,4
1,1
2,5
3,1
4,4
5,1"
76,"
Index	Response
0, 4
1, 1
2, 5
3, 2
4, 5
5, 1
6, 4
7, 2
8, 4
9, 2","
Index,Response
0,2
1,5
2,1
3,4
4,1
5,2
6,3
7,3
8,1
9,2","
Index,Response
0, 1
1, 5
2, 1
3, 4
4, 2
5, 5
6, 1
7, 5
8, 4
9, 5","
Index,Response
0,4
1,1
2,5
3,1
4,5
5,2
6,4
7,1
8,5
9,5","
Index,Response
0,4
1,1
2,5
3,1
4,5
5,1
6,4
7,4
8,5
9,5"
77,"
Index,Response
0,4
1,4
2,4
3,2
4,4
5,2
6,4
7,2
8,4
9,2","
Index,Response
0,2
1,5
2,1
3,4
4,1
5,2
6,3
7,3
8,1
9,2","
Index,Response
0,1
1,5
2,1
3,4
4,3
5,5
6,1
7,5
8,4
9,5","
Index,Response
0,4
1,1
2,5
3,1
4,5
5,2
6,5
7,1
8,5
9,5","
Index	Response
0, 5
1, 1
2, 5
3, 1
4, 5
5, 1
6, 5
7, 4
8, 5
9, 5"
78,"
Index, Response
0, 4
1, 3
2, 5
3, 2
4, 5
5, 2
6, 4
7, 2
8, 4
9, 2","
Index	Response
0, 2
1, 5
2, 1
3, 4
4, 1
5, 2
6, 1
7, 2
8, 1
9, 2","
Index, Response
0, 2
1, 5
2, 1
3, 4
4, 2
5, 5
6, 2
7, 5
8, 4
9, 5","
Index, Response
0, 5
1, 1
2, 5
3, 1
4, 5
5, 1
6, 5
7, 1
8, 5
9, 5","
Index,Response
0,4
1,1
2,5
3,1
4,5
5,1
6,5
7,4
8,5
9,5"
79,"
Index,Response
0,2
1,5
2,4
3,2
4,4
5,1
6,4
7,2
8,5
9,1","
Index,Response
0,3
1,5
2,2
3,1
4,2
5,3","
Index,Response
0,1
1,5
2,1
3,5
4,3
5,5
6,1
7,4
8,5
9,5","
Index,Response
0, 5
1, 1
2, 5
3, 1
4, 5
5, 1 
6, 5
7, 1
8, 5
9, 5","
Index,Response
0,4
1,1
2,5
3,1
4,5
5,1
6,4
7,5
8,4
9,5"
80,"
Index,Response
0,3
1,4
2,5
3,1
4,5
5,2
6,4
7,1
8,3
9,4","
Index, Response 
0, 2 
1, 5 
2, 1 
3, 4 
4, 1
5, 2
6, 3
7, 2
8, 1
9, 2","
Index	Response
0,	5
1,	5
2,	1
3,	5
4,	4
5,	5
6,	2
7,	5
8,	5
9,	5","
Index, Response
0, 4
1, 1
2, 5
3, 1
4, 5
5, 2
6, 5
7, 1
8, 5
9, 5","
Index, Response
0, 4
1, 1
2, 5
3, 1
4, 5
5, 1
6, 4
7, 5
8, 5
9, 5"
81,"
Index,Response
0,4
1,3
2,4
3,1
4,5
5,2
6,5
7,1
8,4
9,2","
Index, Response
0, 2
1, 5
2, 1
3, 2
4, 1
5, 2
6, 1
7, 1
8, 2
9, 1","
Index,Response
0, 5
1, 5
2, 1
3, 5
4, 4
5, 5
6, 1
7, 5
8, 5
9, 5","
Index, Response
0, 5
1, 1
2, 5
3, 1
4, 5
5, 1
6, 5
7, 1
8, 5
9, 5","
Index,Response
0,4
1,1
2,5
3,1
4,5
5,1
6,4
7,5
8,5
9,5"
82,"
Index,Response
0,2
1,1
2,4
3,2
4,5
5,1
6,4
7,2
8,5
9,1","
Index,Response
0,2
1,5
2,1
3,3
4,1
5,2
6,3
7,1
8,2
9,1","
Index, Response
0, 1
1, 5
2, 1
3, 5
4, 5
5, 5
6, 1
7, 5
8, 5
9, 5","
Index,Response
0,4
1,1
2,5
3,1
4,5
5,2
6,5
7,1
8,5
9,5","
Index	Response
0, 4
1, 2
2, 5
3, 1
4, 5
5, 1
6, 5
7, 4
8, 5
9, 5"
83,"
Index,Response
0,2
1,4
2,3
3,2
4,5
5,2
6,5
7,2
8,4
9,1","
Index, Response
0, 2 
1, 5
2, 1
3, 4
4, 2
5, 1
6, 2
7, 2
8, 1
9, 2","
Index,Response
0,1
1,5
2,1
3,4
4,2
5,5
6,1
7,4
8,5
9,5","
Index,Response
0,4
1,1
2,5
3,1
4,5
5,2
6,5
7,1
8,5
9,5","
Index,Response
0,4
1,1
2,5
3,1
4,5
5,1
6,5
7,4
8,5
9,5"
84,"
Index  Response
0, 4
1, 1
2, 5
3, 2
4, 5
5, 1 
6, 5
7, 2
8, 4
9, 2","
Index	Response
0, 2
1, 5
2, 1
3, 4
4, 1
5, 2
6, 1
7, 1
8, 1
9, 2","
Index,Response
0,2
1,4
2,1
3,5
4,4
5,5
6,1
7,5
8,4
9,5","
Index,Response
0,5
1,1
2,5
3,1
4,5
5,2","
Index, Response
0, 5
1, 1
2, 5
3, 1
4, 5
5, 1
6, 5
7, 5
8, 5
9, 5"
85,"
Index	Response
0, 4
1, 1
2, 5
3, 2
4, 5
5, 1
6, 4
7, 2
8, 3
9, 4","
Index   Response
0, 4
1, 5
2, 2
3, 1
4, 2
5, 3
6, 2
7, 2
8, 3
9, 2","
Index, Response
0, 1
1, 5
2, 1
3, 4
4, 2
5, 5
6, 1
7, 5
8, 4
9, 5","
Index, Response
0, 4
1, 1
2, 5
3, 1
4, 5
5, 2
6, 5
7, 1
8, 5
9, 5","

Index,Response
0,4
1,1
2,5
3,1
4,5
5,1
6,5
7,4
8,5
9,5"
86,"
Index,Response
0,2
1,5
2,4
3,1
4,4
5,5
6,2
7,1
8,3
9,4","
Index,Response
0,2
1,5
2,1
3,2
4,1
5,2
6,2
7,1
8,1
9,1","
Index, Response
0, 2
1, 5
2, 1
3, 4
4, 2
5, 5
6, 2
7, 5
8, 4
9, 5","
Index,Response
0,4
1,1
2,5
3,1
4,5
5,2
6,5
7,1
8,5
9,5","
Index	Response
0, 4
1, 1
2, 5
3, 1
4, 5
5, 1
6, 5
7, 4
8, 5
9, 5"
87,"
Index,Response
0,3
1,4
2,4
3,2
4,5
5,2
6,5
7,2
8,4
9,2","
Index,Response 
0,3
1,5
2,1
3,2
4,1
5,2
6,3
7,1
8,2
9,1","
Index, Response
0, 1
1, 5
2, 1
3, 4
4, 3
5, 5
6, 1
7, 5
8, 4
9, 5","
Index, Response
0, 4
1, 1
2, 5
3, 1
4, 5
5, 2
6, 5
7, 1
8, 5
9, 5","
Index	Response
0, 4
1, 1
2, 5
3, 1
4, 5
5, 1
6, 4
7, 5
8, 5
9, 5"
88,"
Index,Response
0,3
1,4
2,4
3,1
4,5
5,2
6,5
7,1
8,4
9,2","
Index, Response
0, 2
1, 5
2, 1
3, 2
4, 1
5, 2
6, 1
7, 1
8, 1
9, 2","
Index,Response
0,2
1,5
2,1
3,5
4,2
5,5
6,1
7,4
8,5
9,5","
Index,Response
0,5
1,1
2,5
3,1
4,5
5,2","
Index,Response
0,5
1,1
2,5
3,1
4,5
5,1
6,5
7,5
8,5
9,5"
89,"
Index,Response
0,2
1,5
2,4
3,1
4,3
5,1
6,4
7,2
8,5
9,1","
Index,Response
0,1
1,5
2,2
3,4
4,1
5,2
6,3
7,2
8,1
9,3","
    Index, Response
    0, 4
    1, 5
    2, 1
    3, 5
    4, 5
    5, 5
    6, 3
    7, 5
    8, 4
    9, 5","
Index, Response
0, 5
1, 1
2, 5
3, 1
4, 5
5, 1
6, 5
7, 1
8, 5
9, 5","
Index,Response
0,4
1,1
2,5
3,1
4,5
5,1
6,5
7,4
8,5
9,5"
90,"
Index,Response
0,2
1,5
2,4
3,1
4,3
5,2
6,4
7,1
8,3
9,2","
Index, Response
0, 2
1, 5
2, 1
3, 4
4, 1
5, 2
6, 1
7, 2
8, 1
9, 2","
Index,Response
0,1
1,5
2,1
3,4
4,2
5,5
6,2
7,5
8,4
9,5","
Index, Response
0, 5
1, 1
2, 5
3, 1
4, 5
5, 1
6, 5
7, 1
8, 5
9, 5","
Index,Response
0,4
1,1
2,5
3,1
4,5
5,1
6,4
7,5
8,5
9,5"
91,"
Index,Response
0,4
1,3
2,5
3,2
4,4
5,2
6,5
7,2
8,4
9,3","
Index,Response
0,2
1,5
2,1
3,2
4,1
5,1
6,2
7,1
8,2
9,1","
Index,Response
0,1
1,5
2,1
3,4
4,2
5,5
6,1
7,5
8,4
9,5","
Index,Response
0, 5
1, 1
2, 5
3, 1
4, 5
5, 2","
Index,Response
0,4
1,1
2,5
3,1
4,4
5,1"
92,"
Index,Response
0,2
1,5
2,4
3,1
4,5
5,1
6,3
7,1
8,3
9,5","
Index,Response
0,3
1,5
2,1
3,2
4,1
5,2
6,4
7,3
8,1
9,2","
Index,Response
0,2
1,5
2,1
3,4
4,2
5,5
6,1
7,5
8,4
9,5","
Index, Response
0, 5
1, 1
2, 5
3, 1
4, 5
5, 1
6, 5
7, 1
8, 5
9, 5","
Index,Response
0,4
1,1
2,5
3,1
4,5
5,1
6,4
7,5
8,5
9,5"
93,"
Index, Response
0, 4
1, 5
2, 4
3, 2
4, 5
5, 2
6, 4
7, 2
8, 4
9, 5","
Index,Response
0,2
1,5
2,1
3,4
4,1
5,2
6,1
7,2
8,1
9,2","
Index,Response
0,2
1,4
2,1
3,5
4,4
5,5
6,1
7,5
8,5
9,4","
Index	Response
0, 5
1, 1
2, 5
3, 1
4, 5
5, 1
6, 5
7, 1
8, 5
9, 5","
Index,Response
0,4
1,1
2,5
3,1
4,5
5,1
6,4
7,4
8,5
9,5"
94,"
Index,Response
0,2
1,5
2,4
3,1
4,5
5,2
6,4
7,1
8,3
9,2","
Index,Response
0,2
1,5
2,1
3,4
4,1
5,2
6,3
7,1
8,2
9,4","
Index, Response
0, 1
1, 5
2, 1
3, 5
4, 4
5, 5
6, 1
7, 5
8, 5
9, 5","
Index,Response
0,5
1,1
2,5
3,1
4,5
5,2","
Index,Response
0,4
1,1
2,5
3,1
4,5
5,1
6,4
7,5
8,4
9,5"
95,"
Index, Response
0, 2
1, 5
2, 4
3, 1
4, 3
5, 2
6, 4
7, 1
8, 3
9, 5","
Index, Response
0, 2
1, 5
2, 1
3, 2
4, 1
5, 2
6, 1
7, 1
8, 2
9, 1","
Index,Response
0,2
1,4
2,1
3,5
4,4
5,5
6,1
7,5
8,4
9,5","
Index,Response
0,4
1,1
2,5
3,1
4,5
5,2
6,5
7,1
8,5
9,5","
Index,Response
0,4
1,1
2,5
3,1
4,5
5,1
6,4
7,4
8,5
9,5"
96,"
Index,Response
0,3
1,4
2,5
3,2
4,5
5,2
6,4
7,2
8,4
9,2","
Index	Response
0, 2
1, 5
2, 1
3, 4
4, 1
5, 2
6, 1
7, 2
8, 1
9, 2","
Index, Response
0, 1
1, 5
2, 1
3, 4
4, 3
5, 5
6, 1
7, 5
8, 4
9, 5","
Index,Response
0,4
1,1
2,5
3,1
4,5
5,2
6,5
7,1
8,5
9,5","
Index, Response
0, 4
1, 1
2, 5
3, 1
4, 5
5, 1
6, 5
7, 4
8, 4 
9, 5"
97,"
Index,Response
0,2
1,4
2,3
3,1
4,5
5,2
6,4
7,1
8,3
9,2","
Index, Response
0, 2
1, 5
2, 1
3, 4
4, 1
5, 2
6, 1
7, 2
8, 1
9, 2","
Index	Response
0,	2
1,	4
2,	1
3,	5
4,	4
5,	5
6,	2
7,	5
8,	4
9,	5","
Index, Response
0, 4
1, 1 
2, 5
3, 1 
4, 5
5, 2
6, 5
7, 1
8, 5
9, 5","
Index, Response
0, 4
1, 1
2, 5
3, 1
4, 5
5, 1
6, 4
7, 5
8, 5
9, 5"
98,"
Index,Response
0, 4
1, 5
2, 4
3, 1
4, 5
5, 2
6, 4
7, 1
8, 5
9, 2","
Index, Response
0, 2
1, 5
2, 1
3, 1
4, 2
5, 2
6, 2
7, 2
8, 1
9, 2","
Index	Response
0,	3
1,	5
2,	2
3,	4
4,	1
5,	5
6,	2
7,	4
8,	4
9,	5","
Index	Response
0, 5
1, 1
2, 5
3, 1
4, 5
5, 1
6, 5
7, 1
8, 5
9, 5","
Index, Response
0, 4
1, 1
2, 5
3, 1
4, 5
5, 1
6, 4
7, 4
8, 5
9, 5"
99,"
Index,Response
0, 4
1, 1
2, 5
3, 2
4, 4
5, 1
6, 5
7, 2
8, 4
9, 2","
Index, Response
0, 4
1, 5
2, 1
3, 2
4, 1
5, 2
6, 3
7, 1
8, 4
9, 1","
Index,Response
0,1
1,5
2,1
3,4
4,2
5,5
6,1
7,5
8,4
9,5","
Index, Response
0, 4
1, 1
2, 5
3, 1
4, 5
5, 2
6, 5
7, 1
8, 5
9, 5","
    Index, Response
    0, 4
    1, 1
    2, 5
    3, 1
    4, 5
    5, 1
    6, 4
    7, 4
    8, 5
    9, 5"
100,"
Index,Response
0,2
1,5
2,4
3,1
4,5
5,2
6,4
7,1
8,3
9,2","
Index, Response
0, 4
1, 5
2, 1
3, 2
4, 1
5, 2","
Index, Response
0, 2
1, 5
2, 1
3, 4
4, 3
5, 5
6, 2
7, 5
8, 4
9, 5","
Index, Response
0, 4
1, 1
2, 5
3, 1
4, 5
5, 2
6, 5
7, 1
8, 5
9, 4","
    Index, Response
    0, 4
    1, 1
    2, 5
    3, 1
    4, 5
    5, 1
    6, 5
    7, 4
    8, 4
    9, 5"
101,"
Index,Response
0,4
1,5
2,4
3,2
4,5
5,2
6,5
7,2
8,4
9,2","
Index, Response
0, 1
1, 5
2, 1
3, 4
4, 1
5, 1","
Index,Response
0,1
1,5
2,1
3,4
4,3
5,5
6,1
7,5
8,4
9,5","
Index,Response
0,5
1,1
2,5
3,1
4,5
5,2","
Index	Response
0, 4
1, 1
2, 5
3, 2
4, 5
5, 1
6, 5
7, 4
8, 5
9, 5"
102,"
Index, Response
0, 4
1, 5
2, 4
3, 2
4, 4
5, 2
6, 4
7, 2
8, 4
9, 5","
Index, Response
0, 4
1, 5
2, 2
3, 1
4, 2
5, 3","
Index	Response
0, 2
1, 5
2, 1
3, 4
4, 3
5, 5
6, 2
7, 5
8, 4
9, 5","
Index,Response
0,5
1,1
2,5
3,1
4,5
5,2","
Index, Response
0, 4
1, 1
2, 5
3, 1
4, 5
5, 1"
103,"
Index,Response
0,2
1,5
2,4
3,2
4,5
5,1
6,4
7,2
8,5
9,1","
Index, Response
0, 2
1, 5
2, 1
3, 1
4, 4
5, 2
6, 4
7, 1
8, 3
9, 4","
Index,Response
0,1
1,5
2,1
3,4
4,1
5,5
6,1
7,4
8,5
9,5","
Index, Response
0, 5
1, 1
2, 5
3, 1
4, 5
5, 1
6, 5
7, 1
8, 5
9, 5","
Index, Response
0, 4
1, 1
2, 5
3, 2
4, 5
5, 1
6, 4
7, 4
8, 5
9, 5"
104,"
Index, Response
0, 3
1, 5
2, 4
3, 1
4, 4
5, 2
6, 4
7, 1
8, 2
9, 5","
Index	Response
0,	4
1,	5
2,	1
3,	2 
4,	1 
5,	2 
6,	3 
7,	3 
8,	1 
9,	2","
Index,Response
0, 1
1, 5
2, 1
3, 4
4, 5
5, 5
6, 1
7, 5
8, 4
9, 5","
Index,Response
0,5
1,1
2,5
3,1
4,5
5,1","
Index, Response
0, 4
1, 1
2, 5
3, 1
4, 5
5, 1
6, 5
7, 4
8, 5
9, 5"
105,"
Index, Response
0, 4
1, 4
2, 5
3, 1
4, 5
5, 1
6, 5
7, 1
8, 3
9, 1","
Index	Response
0, 4
1, 5
2, 2
3, 1
4, 2
5, 3
6, 2
7, 3
8, 2
9, 2","
Index,Response
0,1
1,5
2,1
3,4
4,2
5,5
6,1
7,4
8,5
9,5","
Index,Response
0,5
1,1
2,5
3,1
4,5
5,2","
Index,Response
0,4
1,1
2,5
3,1
4,5
5,1
6,5
7,4
8,5
9,5"
106,"
Index,Response
0,2
1,3
2,4
3,2
4,5
5,1
6,4
7,2
8,4
9,3","
Index,Response
0,3
1,4
2,1
3,2
4,1
5,2
6,3
7,1
8,1
9,2","
Index,Response
0,2
1,5
2,1
3,4
4,2
5,5
6,2
7,4
8,5
9,5","
Index,Response
0,4
1,1
2,5
3,1
4,5
5,2
6,5
7,1
8,5
9,5","
Index	Response
0, 5
1, 1
2, 5
3, 1
4, 4
5, 1"
107,"
Index,Response
0,2
1,5
2,4
3,1
4,5
5,2
6,4
7,1
8,3
9,5","
Index,Response
0,2
1,5
2,1
3,3
4,2
5,3
6,2
7,2
8,2
9,2","
Index, Response
0, 1
1, 5
2, 1
3, 4
4, 2
5, 5
6, 1
7, 5
8, 4
9, 5","
Index,Response
0,4
1,1
2,5
3,1
4,5
5,2
6,5
7,1
8,5
9,5","
Index,Response
0,4
1,1
2,5
3,1
4,5
5,1
6,4
7,5
8,5
9,5"
108,"
Index,Response
0,4
1,3
2,5
3,1
4,5
5,2
6,5
7,1
8,4
9,2","
Index, Response
0, 2
1, 5
2, 1
3, 2
4, 1
5, 2
6, 3
7, 3
8, 1
9, 1","
Index,Response
0,2
1,4
2,1
3,4
4,2
5,5
6,1
7,5
8,4
9,5","
Index,Response
0,5
1,1
2,5
3,1
4,5
5,1
6,5
7,1
8,5
9,5","
Index,Response
0,4
1,1
2,5
3,1
4,5
5,1
6,4
7,5
8,4
9,5"
109,"
Index,Response
0,2
1,5
2,4
3,1
4,5
5,2
6,4
7,1
8,3
9,2","
Index, Response
0, 2
1, 5
2, 1
3, 2
4, 1
5, 1
6, 1
7, 1
8, 1
9, 2","
    Index, Response
    0, 5
    1, 5
    2, 1
    3, 5
    4, 5
    5, 5
    6, 2
    7, 5
    8, 5
    9, 5","
    Index, Response
    0, 5
    1, 1
    2, 5
    3, 1
    4, 5
    5, 2
    6, 5
    7, 1
    8, 5
    9, 5","
Index,Response
0,4
1,1
2,5
3,1
4,4
5,1"
110,"
Index, Response
0, 2
1, 5
2, 4
3, 1
4, 5
5, 1
6, 4
7, 1
8, 2
9, 5","
Index	Response
0, 2
1, 5
2, 1
3, 2
4, 1
5, 2
6, 1
7, 1
8, 1
9, 2","
Index,Response
0,5
1,4
2,1
3,5
4,4
5,5
6,1
7,5
8,4
9,5","
Index, Response
0, 5
1, 1
2, 5
3, 1
4, 5
5, 2
6, 5
7, 1
8, 5
9, 5","
Index,Response
0,3
1,2
2,4
3,1
4,5
5,1
6,5
7,4
8,5
9,5"
111,"
Index,Response
0,3
1,4
2,5
3,2
4,5
5,2
6,4
7,2
8,3
9,4","
Index,Response
0,1
1,5
2,1
3,4
4,2
5,1
6,2
7,1
8,2
9,2","
Index,Response
0,2
1,5
2,1
3,4
4,2
5,5
6,2
7,5
8,4
9,5","
Index	Response
0, 4
1, 1
2, 5
3, 1
4, 5
5, 2
6, 5
7, 1
8, 5
9, 5","
Index, Response
0, 4
1, 1
2, 5
3, 1
4, 5
5, 1"
112,"
Index,Response
0,2
1,1
2,4
3,1
4,5
5,1
6,4
7,1
8,2
9,1","
Index, Response
0, 2
1, 5
2, 1
3, 2
4, 1
5, 1
6, 1
7, 1
8, 1
9, 2","
Index,Response
0,1
1,5
2,1
3,4
4,1
5,5
6,1
7,5
8,4
9,5","
Index, Response
0, 5
1, 1
2, 5
3, 1
4, 5
5, 1
6, 5
7, 1
8, 5
9, 5","
Index, Response
0, 4
1, 1
2, 5
3, 1
4, 5
5, 1
6, 5
7, 4
8, 5
9, 5"
113,"
Response:
Index, Response
0, 2
1, 5
2, 4
3, 1
4, 4
5, 5
6, 2
7, 1
8, 3
9, 5","
Index, Response
0, 5
1, 4
2, 1
3, 2
4, 1
5, 2
6, 1
7, 2
8, 1
9, 2","
Index,Response
0,1
1,5
2,1
3,4
4,2
5,5
6,1
7,4
8,5
9,5","
    Index, Response
    0, 4
    1, 1
    2, 5
    3, 1
    4, 5
    5, 4
    6, 5
    7, 1
    8, 5
    9, 5","
Index,Response
0,4
1,1
2,5
3,1
4,5
5,1
6,5
7,4
8,5
9,5"
114,"
 Index, Response
 0, 3
 1, 4
 2, 5 
 3, 2
 4, 4
 5, 2
 6, 5
 7, 2
 8, 5
 9, 2","
Index,Response
0,2
1,5
2,1
3,2
4,1
5,2
6,3
7,3
8,2
9,1","
Index,Response
0,2
1,5
2,1
3,4
4,1
5,5
6,1
7,4
8,5
9,5","
Index, Response
0, 4
1, 1
2, 5
3, 1
4, 5
5, 4
6, 5
7, 1
8, 5
9, 5","
Index,Response
0,4
1,1
2,5
3,1
4,5
5,1
6,4
7,5
8,5
9,5"
115,"
Index,Response
0,3
1,1
2,4
3,2
4,5
5,2
6,5
7,2
8,4
9,2","
Index,Response
0,2
1,5
2,1
3,2
4,1
5,1
6,1
7,1
8,1
9,2","
Index,Response
0, 1
1, 5
2, 1
3, 4
4, 2
5, 5
6, 1
7, 5
8, 5
9, 5","
    Index, Response
    0, 4
    1, 1
    2, 5
    3, 1
    4, 5
    5, 2
    6, 5
    7, 1
    8, 5
    9, 4","
Index,Response
0,4
1,1
2,5
3,1
4,5
5,1
6,4
7,5
8,4
9,5"
116,"
Index, Response
0, 5
1, 1
2, 4
3, 1
4, 5
5, 1
6, 4
7, 1
8, 4
9, 1","
    Index, Response
    0, 4
    1, 5 
    2, 1
    3, 2
    4, 1
    5, 2
    6, 3
    7, 1
    8, 2
    9, 1","
Index,Response
0,2
1,5
2,1
3,4
4,3
5,5
6,2
7,5
8,4
9,5","
Index,Response
0,5
1,1
2,5
3,1
4,5
5,2
6,5
7,1
8,5
9,5","
Index, Response
0, 4
1, 1
2, 5
3, 1
4, 5
5, 1
6, 4
7, 5
8, 4
9, 5"
117,"
Index,Response
0,2
1,5
2,4
3,2
4,4
5,5
6,3
7,1
8,3
9,2","
Index, Response
0, 2
1, 5
2, 1
3, 4
4, 1
5, 2
6, 3
7, 3
8, 2
9, 1","
Index, Response
0, 1
1, 5
2, 1
3, 5
4, 4
5, 5
6, 1
7, 5
8, 5
9, 5","
Index	Response
0, 4
1, 1
2, 5
3, 1
4, 5
5, 2
6, 5
7, 1
8, 5
9, 5","
Index, Response
0, 4
1, 1
2, 5
3, 1
4, 5
5, 1
6, 5
7, 4
8, 5
9, 5"
118,"
Index,Response
0,4
1,5
2,4
3,1
4,4
5,5
6,4
7,1
8,4
9,5","
Index	Response
0, 2
1, 5
2, 1
3, 4
4, 1
5, 2
6, 3
7, 3
8, 1
9, 2","
Index	Response
0, 2
1, 5
2, 1
3, 4
4, 2
5, 5
6, 2
7, 4
8, 4
9, 5","
Index, Response
0, 4
1, 1
2, 5
3, 1 
4, 5
5, 2","
Index,Response
0,4
1,1
2,5
3,1
4,5
5,1
6,4
7,5
8,5
9,5"
119,"
Index, Response
0, 4
1, 5
2, 4
3, 1
4, 5
5, 1
6, 4
7, 1
8, 4
9, 2","
Index	Response
0, 2
1, 5
2, 1
3, 4
4, 1
5, 2
6, 3
7, 2
8, 1
9, 2","
Index,Response
0,2
1,5
2,1
3,4
4,2
5,5
6,1
7,4
8,5
9,5","
Index, Response
0, 4
1, 1
2, 5
3, 1
4, 5
5, 2
6, 5
7, 1
8, 5
9, 5","
Index,Response
0,4
1,1
2,5
3,1
4,4
5,1"
120,"
Index	Response
0, 4
1, 1
2, 4
3, 2
4, 5
5, 1
6, 5
7, 2
8, 3
9, 4","
Index, Response
0, 4
1, 5
2, 1
3, 2
4, 1
5, 1","
Index, Response
0, 1
1, 5
2, 1
3, 4
4, 2
5, 5
6, 1
7, 4
8, 4
9, 5","
Index,Response
0,4
1,1
2,5
3,1
4,5
5,2
6,5
7,1
8,5
9,5","
  Index, Response
  0, 4 
  1, 1 
  2, 5 
  3, 1 
  4, 5 
  5, 1"
121,"
Index,Response
0,2
1,5
2,4
3,1
4,4
5,2
6,4
7,1
8,3
9,2","
Index,Response
0,2
1,5
2,1
3,2
4,1
5,2
6,1
7,1
8,2
9,1","
Index,Response
0,1
1,5
2,1
3,4
4,3
5,5
6,1
7,5
8,4
9,5","
    Index	Response
    0, 4
    1, 1
    2, 5
    3, 1
    4, 5
    5, 4
    6, 5
    7, 1
    8, 5
    9, 5","
Index,Response
0, 5
1, 1
2, 5
3, 1
4, 5
5, 1
6, 5
7, 4
8, 4
9, 5"
122,"
Index, Response
0, 4
1, 1
2, 5
3, 1
4, 5
5, 1
6, 5
7, 1
8, 4
9, 1","
Index,Response
0,2
1,5
2,1
3,4
4,1
5,2
6,3
7,3
8,2
9,4","
Index,Response
0,1
1,5
2,1
3,5
4,2
5,5
6,1
7,5
8,5
9,5","
Index, Response
0, 4
1, 1
2, 5
3, 1
4, 5
5, 2
6, 5
7, 1
8, 5
9, 4","
Index,Response
0,4
1,1
2,5
3,1
4,5
5,1
6,5
7,5
8,4
9,5"
123,"
Index, Response
0, 2
1, 5
2, 4
3, 2
4, 5
5, 1
6, 4
7, 1
8, 3
9, 5","
Index,Response
0,2
1,5
2,1
3,3
4,1
5,2
6,1
7,2
8,1
9,2","
Index,Response
0,1
1,5
2,1
3,4
4,2
5,5
6,1
7,4
8,5
9,5","
Index, Response
0, 5
1, 1 
2, 5
3, 1 
4, 5
5, 2 
6, 5
7, 1
8, 5
9, 5","
Index,Response
0,4
1,1
2,5
3,1
4,5
5,1
6,4
7,5
8,5
9,5"
124,"
Index,Response
0,2
1,5 
2,4
3,2
4,5
5,2
6,4
7,2
8,3
9,2","
Index,Response
0,2
1,5 
2,1
3,4
4,1
5,2
6,1
7,1
8,1
9,2","
Index,Response
0,1
1,5
2,1
3,4
4,1
5,5
6,1
7,5
8,4
9,5","
Index, Response
0, 4
1, 1
2, 5
3, 1
4, 5
5, 2
6, 5
7, 1
8, 5
9, 5","
Index,Response
0,4
1,1
2,5
3,1
4,5
5,1
6,4
7,5
8,4
9,5"
125,"
Index,Response
0,2
1,5
2,4
3,1
4,4
5,1
6,4
7,1
8,3
9,5","
Index, Response
0, 3
1, 5
2, 1
3, 2
4, 1
5, 3
6, 2
7, 1
8, 2
9, 1","
Index, Response
0, 1
1, 5
2, 1
3, 4
4, 2
5, 5
6, 1
7, 5
8, 5
9, 5","
Index,Response
0,4
1,1
2,5
3,1
4,5
5,2
6,5
7,1
8,5
9,5","
Index 	Response
0, 5
1, 1
2, 5
3, 1
4, 5
5, 1
6, 5
7, 4
8, 4
9, 5"
126,"
Index	Response
0, 2
1, 5
2, 4
3, 1
4, 4
5, 5
6, 2
7, 1
8, 3
9, 5","
Index, Response
0, 2
1, 5
2, 1
3, 4
4, 1
5, 2
6, 1
7, 2
8, 1
9, 2","
Index,Response
0,2
1,5
2,1
3,4
4,1
5,5
6,2
7,4
8,5
9,5","
Index,Response
0,4
1,1
2,5
3,1
4,5
5,2
6,5
7,1
8,5
9,5","
Index,Response
0,4
1,1
2,5
3,1
4,5
5,1
6,4
7,5
8,4
9,5"
127,"
Index, Response
0, 2
1, 5
2, 4
3, 2
4, 4
5, 2
6, 3
7, 2
8, 3
9, 5","
Index,Response
0,2
1,5
2,1
3,4
4,1
5,2
6,3
7,3
8,2
9,1","
Index	Response
0, 2
1, 5
2, 1
3, 4
4, 2
5, 5
6, 2
7, 5
8, 4
9, 5","
Index, Response
0, 5
1, 1
2, 5
3, 1
4, 5
5, 1
6, 5
7, 1
8, 5
9, 5","
Index,Response
0,5
1,1
2,5
3,1
4,5
5,1"
