,E,N,A,C,O
0,"
0,2
1,4
2,5
3,1
4,5
5,1
6,3
7,5
8,2
9,4","
0,5
1,1
2,5
3,1
4,5
5,5
6,4
7,4
8,5
9,5","
0,2
1,4
2,1
3,5
4,4
5,5
6,1
7,5
8,4
9,5","
0,4
1,1
2,5
3,1
4,5
5,4
6,5
7,1
8,5
9,5","
0,4
1,1
2,5
3,1
4,5
5,1
6,4
7,5
8,4
9,5"
1,"
0,2
1,5
2,4
3,1
4,3
5,2
6,4
7,1
8,3
9,5","
0,5
1,1
2,5
3,1
4,5
5,5
6,5
7,5
8,5
9,5","
0,5
1,4
2,2
3,5
4,4
5,5
6,2
7,5
8,5
9,5","
0,4
1,1
2,5
3,1
4,5
5,2
6,4
7,1
8,5
9,5","
0,3
1,1
2,5
3,1
4,5
5,1
6,4
7,3
8,5
9,5"
2,"
0,1
1,5
2,3
3,2
4,4
5,1
6,4
7,2
8,5
9,1","
0,5
1,1
2,5
3,1
4,5
5,5
6,5
7,5
8,5
9,4","
0,1
1,5
2,1
3,4
4,1
5,5
6,1
7,4
8,5
9,5","
0,4
1,1
2,5
3,1
4,5
5,2
6,4
7,1
8,5
9,5","
0,4
1,1
2,5
3,1
4,5
5,1
6,4
7,5
8,4
9,5"
3,"
0,1
1,5
2,4
3,1
4,5
5,2
6,4
7,2
8,4
9,1","
0,5
1,1
2,5
3,1
4,5
5,5
6,5
7,5
8,5
9,5","
0,2
1,4
2,1
3,4
4,3
5,5
6,1
7,5
8,4
9,5","
0,4
1,1
2,5
3,1
4,5
5,2
6,5
7,1
8,5
9,5","
0,4
1,1
2,5
3,1
4,5
5,1
6,4
7,4
8,5
9,5"
4,"
0,2
1,5
2,4
3,1
4,3
5,2
6,4
7,2
8,1
9,4","
0,4
1,1
2,5
3,2
4,5
5,5
6,5
7,5
8,4
9,1","
0,2
1,4
2,1
3,3
4,2
5,4
6,1
7,5
8,4
9,5","
0,4
1,1
2,5
3,1
4,5
5,4
6,5
7,1
8,5
9,5","
0,4
1,1
2,5
3,1
4,5
5,1
6,4
7,5
8,5
9,5"
5,"
0,2
1,5
2,3
3,2
4,4
5,2
6,4
7,2
8,1
9,3","
0,5
1,1
2,5
3,1
4,5
5,5
6,5
7,5
8,5
9,5","
0,3
1,4
2,2
3,5
4,2
5,4
6,1
7,5
8,4
9,5","
0,4
1,1
2,5
3,1
4,5
5,2
6,5
7,1
8,5
9,5","
0,4
1,1
2,5
3,1
4,5
5,1
6,4
7,4
8,5
9,5"
6,"
0,2
1,5
2,4
3,2
4,1
5,5
6,4
7,2
8,3
9,5","
0,5
1,1
2,5
3,1
4,5
5,5
6,5
7,5
8,5
9,5","
0,1
1,4
2,1
3,5
4,4
5,5
6,1
7,3
8,4
9,5","
0,4
1,1
2,5
3,1
4,5
5,2
6,5
7,1
8,5
9,5","
0,5
1,1
2,5
3,1
4,4
5,1"
7,"
0,2
1,5
2,4
3,2
4,2
5,1
6,4
7,2
8,3
9,5","
0,5
1,1
2,5
3,1
4,5
5,5
6,5
7,5
8,5
9,5","
0,2
1,5
2,1
3,4
4,2
5,5
6,2
7,5
8,4
9,5","
0,4
1,1
2,5
3,1
4,5
5,2
6,5
7,1
8,5
9,5","
0,4
1,1
2,5
3,1
4,5
5,1
6,4
7,5
8,4
9,5"
8,"
0,2
1,1
2,4
3,2
4,5
5,1
6,5
7,2
8,4
9,1","
0,5
1,1
2,5
3,1
4,5
5,5
6,5
7,5
8,5
9,5","
0,1
1,5
2,1
3,4
4,3
5,5
6,1
7,5
8,4
9,5","
0,4
1,1
2,5
3,1
4,5
5,2
6,4
7,1
8,5
9,5","
0,4
1,1
2,5
3,1
4,5
5,1
6,5
7,4
8,4
9,5"
9,"
0,2
1,5
2,4
3,1
4,3
5,1
6,4
7,1
8,2
9,5","
0,5
1,1
2,5
3,1
4,5
5,5
6,5
7,5
8,5
9,5","
0,1
1,4
2,1
3,5
4,5
5,4
6,1
7,5
8,4
9,5","
0,5
1,1
2,5
3,1
4,5
5,1
6,5
7,1
8,5
9,5","
0,4
1,1
2,5
3,1
4,5
5,1
6,4
7,3
8,4
9,5"
10,"
0,2
1,5
2,4
3,1
4,3
5,2
6,4
7,1
8,3
9,5","
0,5
1,1
2,5
3,1
4,5
5,5
6,5
7,5
8,5
9,5","
0,2
1,4
2,1
3,5
4,4
5,5
6,2
7,5
8,4
9,5","
0,3
1,1
2,4
3,1
4,5
5,2
6,4
7,1
8,5
9,4","
0,4
1,1
2,5
3,1
4,5
5,1
6,4
7,5
8,5
9,4"
11,"
0,4
1,5
2,3
3,1
4,5
5,2
6,5
7,1
8,4
9,1","
0,5
1,1
2,5
3,1
4,5
5,5
6,5
7,5
8,5
9,5","
0,5
1,4
2,1
3,5
4,3
5,4
6,1
7,5
8,4
9,5","
0,4
1,2
2,5
3,1
4,5
5,4
6,5
7,1
8,5
9,4","
0,3
1,2
2,4
3,1
4,5
5,2
6,4
7,5
8,4
9,5"
12,"
0,3
1,5
2,2
3,1
4,4
5,5
6,2
7,1
8,4
9,5","
0,5
1,1
2,5
3,1
4,5
5,5
6,5
7,5
8,5
9,5","
0,2
1,4
2,1
3,5
4,4
5,5
6,2
7,5
8,4
9,5","
0,4
1,1
2,5
3,1
4,4
5,2
6,5
7,1
8,5
9,5","
0,4
1,1
2,5
3,1
4,5
5,1
6,5
7,4
8,5
9,5"
13,"
0,1
1,5
2,4
3,2
4,5
5,2
6,5
7,2
8,4
9,2","
0,5
1,1
2,5
3,1
4,5
5,5
6,5
7,5
8,5
9,5","
0,1
1,5
2,1
3,4
4,2
5,5
6,1
7,4
8,5
9,4","
0,5
1,1
2,4
3,1
4,5
5,2
6,4
7,1
8,4
9,5","
0,4
1,1
2,5
3,1
4,4
5,1
6,4
7,2
8,5
9,5"
14,"
0,1
1,5
2,4
3,2
4,5
5,2
6,4
7,2
8,4
9,2","
0,5
1,1
2,5
3,1
4,5
5,5
6,5
7,5
8,5
9,5","
0,1
1,4
2,1
3,5
4,4
5,5
6,1
7,5
8,5
9,5","
0,3
1,1
2,4
3,1
4,5
5,2
6,5
7,1
8,4
9,5","
0,4
1,1
2,5
3,1
4,5
5,1"
15,"
0,4
1,5
2,4
3,1
4,2
5,5
6,3
7,1
8,2
9,5","
0,5
1,1
2,5
3,1
4,5
5,5
6,5
7,5
8,5
9,5","
0,5
1,4
2,1
3,5
4,4
5,5
6,1
7,5
8,5
9,4","
0,4
1,1
2,5
3,1
4,4
5,2
6,5
7,1
8,5
9,5","
0,4
1,1
2,5
3,1
4,5
5,1
6,5
7,4
8,5
9,5"
16,"
0,2
1,5
2,4
3,2
4,1
5,5
6,3
7,2
8,4
9,5","
0,2
1,4
2,5
3,1
4,2
5,3
6,2
7,1
8,3
9,5","
0,1
1,5
2,1
3,4
4,3
5,5
6,1
7,4
8,5
9,4","
0,4
1,1
2,5
3,1
4,5
5,2
6,5
7,1
8,5
9,5","
0,4
1,1
2,5
3,1
4,5
5,1
6,4
7,5
8,5
9,5"
17,"
0,2
1,5
2,4
3,1
4,3
5,1
6,4
7,2
8,1
9,5","
0,5
1,1
2,5
3,1
4,5
5,5
6,5
7,5
8,5
9,5","
0,2
1,4
2,1
3,5
4,3
5,5
6,1
7,4
8,5
9,4","
0,4
1,1
2,5
3,1
4,5
5,2","
0,4
1,1
2,5
3,1
4,5
5,1
6,5
7,4
8,5
9,5"
18,"
0,2
1,5
2,4
3,1
4,3
5,1
6,4
7,2
8,3
9,5","
0,5
1,1
2,5
3,1
4,5
5,5
6,5
7,5
8,5
9,5","
0,1
1,5
2,1
3,4
4,2
5,5
6,1
7,5
8,5
9,5","
0,4
1,2
2,5
3,1
4,5
5,3
6,5
7,1
8,4
9,5","
0,4
1,1
2,5
3,1
4,3
5,2
6,4
7,4
8,5
9,5"
19,"
0,4
1,5
2,2
3,1
4,4
5,5
6,4
7,1
8,2
9,5","
0,5
1,1
2,5
3,1
4,5
5,5
6,5
7,5
8,5
9,5","
0,3
1,4
2,1
3,5
4,4
5,5
6,1
7,5
8,4
9,5","
0,4
1,1
2,5
3,1
4,5
5,2
6,5
7,1
8,5
9,5","
0,5
1,1
2,5
3,1
4,5
5,1
6,5
7,4
8,5
9,5"
20,"
0,2
1,5
2,4
3,2
4,1
5,3
6,4
7,2
8,1
9,5","
0,5
1,1
2,5
3,1
4,5
5,5
6,5
7,5
8,5
9,5","
0,3
1,4
2,1
3,5
4,4
5,5
6,1
7,5
8,4
9,5","
0,4
1,1
2,5
3,1
4,5
5,2
6,4
7,1
8,5
9,4","
0,4
1,1
2,5
3,1
4,5
5,1
6,4
7,5
8,5
9,5"
21,"
0,2
1,5
2,4
3,1
4,3
5,2
6,4
7,1
8,2
9,5","
0,5
1,1
2,5
3,1
4,5
5,5
6,5
7,5
8,5
9,5","
0,2
1,4
2,1
3,5
4,4
5,5
6,1
7,3
8,5
9,4","
0,4
1,1
2,5
3,1
4,5
5,2
6,5
7,1
8,5
9,5","
0,4
1,1
2,5
3,1
4,5
5,1
6,4
7,4
8,5
9,5"
22,"
0,2
1,1
2,4
3,2
4,5
5,1
6,3
7,4
8,2
9,1","
0,5
1,1
2,5
3,1
4,5
5,5
6,5
7,5
8,5
9,5","
0,2
1,4
2,1
3,3
4,5
5,5
6,1
7,4
8,4
9,5","
0,4
1,1
2,5
3,1
4,5
5,2
6,5
7,1
8,5
9,5","
0,4
1,1
2,5
3,1
4,4
5,1"
23,"
0,3
1,5
2,4
3,2
4,5
5,2
6,4
7,2
8,4
9,5","
0,5
1,1
2,5
3,1
4,5
5,5
6,5
7,5
8,5
9,5","
0,2
1,4
2,1
3,5
4,2
5,5
6,1
7,4
8,5
9,4","
0,4
1,1
2,5
3,1
4,5
5,2
6,5
7,1
8,4
9,5","
0,4
1,1
2,5
3,1
4,5
5,1
6,4
7,5
8,5
9,5"
24,"
0,2
1,4
2,5
3,2
4,5
5,1
6,5
7,2
8,4
9,1","
0,5
1,1
2,5
3,1
4,5
5,5
6,5
7,5
8,5
9,5","
0,2
1,4
2,1
3,5
4,4
5,5
6,1
7,3
8,5
9,5","
0,4
1,1
2,5
3,1
4,5
5,2
6,5
7,1
8,5
9,4","
0,3
1,1
2,5
3,1
4,4
5,1"
25,"
0,1
1,5
2,3
3,2
4,4
5,1
6,4
7,2
8,5
9,1","
0,5
1,1
2,5
3,1
4,5
5,5
6,5
7,5
8,5
9,5","
0,1
1,5
2,1
3,4
4,3
5,5
6,1
7,4
8,5
9,5","
0,4
1,1
2,5
3,1
4,5
5,2
6,5
7,1
8,5
9,5","
0,4
1,1
2,5
3,1
4,5
5,1
6,4
7,4
8,5
9,5"
26,"
0,1
1,4
2,4
3,2
4,4
5,2
6,4
7,2
8,3
9,2","
0,5
1,1
2,5
3,1
4,5
5,5
6,5
7,5
8,5
9,5","
0,1
1,5
2,1
3,4
4,2
5,5
6,1
7,3
8,4
9,5","
0,4
1,1
2,5
3,1
4,5
5,2
6,5
7,1
8,5
9,5","
0,4
1,1
2,5
3,1
4,5
5,1
6,4
7,5
8,5
9,5"
27,"
0,2
1,5
2,4
3,1
4,3
5,1
6,4
7,1
8,2
9,5","
0,5
1,1
2,5
3,1
4,5
5,5
6,5
7,5
8,5
9,5","
0,1
1,5
2,1
3,4
4,1
5,5
6,1
7,5
8,4
9,5","
0,4
1,1
2,5
3,1
4,5
5,2
6,5
7,1
8,5
9,5","
0,4
1,1
2,5
3,1
4,5
5,1
6,4
7,5
8,4
9,5"
28,"
0,2
1,5
2,4
3,2
4,3
5,1
6,4
7,2
8,3
9,5","
0,5
1,1
2,5
3,1
4,5
5,5
6,5
7,5
8,5
9,5","
0,4
1,5
2,1
3,4
4,2
5,5
6,2
7,5
8,5
9,5","
0,4
1,1
2,5
3,1
4,5
5,2
6,5
7,1
8,5
9,4","
0,4
1,1
2,5
3,1
4,4
5,1
6,4
7,2
8,5
9,4"
29,"
0,2
1,4
2,4
3,1
4,5
5,2
6,5
7,1
8,3
9,4","
01
15
21
32
41
52
61
71
81
91","
0,2
1,5
2,1
3,4
4,1
5,5
6,1
7,5
8,4
9,5","
0,4
1,1
2,5
3,1
4,5
5,2
6,4
7,1
8,5
9,5","
0,4
1,1
2,5
3,1
4,5
5,1
6,4
7,5
8,4
9,5"
30,"
0,2
1,4
2,3
3,1
4,5
5,2
6,4
7,1
8,3
9,2","
0,5
1,1
2,5
3,1
4,5
5,5
6,5
7,5
8,5
9,5","
0,2
1,5
2,1
3,4
4,1
5,5
6,2
7,5
8,4
9,5","
0,4
1,1
2,5
3,1
4,5
5,2
6,5
7,1
8,5
9,5","
0,5
1,1
2,5
3,1
4,5
5,1"
31,"
0,2
1,4
2,5
3,1
4,3
5,4
6,2
7,1
8,3
9,4","
0,5
1,1
2,5
3,1
4,5
5,5
6,5
7,5
8,5
9,5","
0,1
1,5
2,1
3,4
4,5
5,5
6,1
7,5
8,4
9,5","
0,4
1,1
2,5
3,2
4,5
5,4
6,5
7,2
8,4
9,5","
0,4
1,1
2,5
3,1
4,5
5,1
6,4
7,4
8,5
9,5"
32,"
0,1
1,4
2,5
3,2
4,5
5,1
6,4
7,2
8,4
9,2","
0,5
1,1
2,5
3,1
4,5
5,5
6,5
7,5
8,5
9,5","
0,1
1,5
2,1
3,4
4,2
5,5
6,1
7,5
8,4
9,5","
0,5
1,1
2,5
3,1
4,5
5,2
6,5
7,1
8,5
9,5","
0,4
1,1
2,5
3,1
4,5
5,1
6,4
7,4
8,5
9,5"
33,"
0,2
1,5
2,4
3,1
4,3
5,2
6,4
7,1
8,5
9,3","
0,5
1,2
2,5
3,1
4,4
5,2
6,5
7,5
8,4
9,5","
0,1
1,4
2,1
3,5
4,5
5,4
6,1
7,5
8,5
9,5","
0,4
1,1
2,5
3,1
4,5
5,2
6,5
7,1
8,5
9,5","
0,5
1,1
2,5
3,1
4,5
5,1
6,5
7,5
8,5
9,5"
34,"
0,2
1,5
2,4
3,1
4,3
5,2
6,3
7,1
8,2
9,5","
0,5
1,1
2,5
3,1
4,5
5,5
6,5
7,5
8,5
9,5","
0,1
1,5
2,1
3,4
4,3
5,5
6,1
7,5
8,4
9,5","
0,4
1,1
2,5
3,1
4,5
5,2
6,5
7,1
8,5
9,5","
0,4
1,1
2,5
3,1
4,5
5,1
6,4
7,5
8,5
9,5"
35,"
0,2
1,5
2,4
3,1
4,3
5,2
6,4
7,1
8,2
9,5","
0,5
1,1
2,5
3,1
4,5
5,5
6,5
7,5
8,5
9,5","
0,1
1,5
2,1
3,5
4,4
5,5
6,1
7,5
8,4
9,5","
0,4
1,1
2,5
3,1
4,5
5,2
6,5
7,1
8,5
9,4","
0,4
1,2
2,5
3,1
4,4
5,2
6,4
7,5
8,4
9,5"
36,"
0,2
1,5
2,4
3,1
4,3
5,1
6,4
7,2
8,1
9,5","
0,5
1,1
2,5
3,1
4,5
5,5
6,5
7,5
8,5
9,5","
0,1
1,5
2,1
3,5
4,4
5,5
6,1
7,5
8,5
9,5","
0,5
1,1
2,5
3,1
4,5
5,1
6,5
7,1
8,5
9,5","
0,4
1,1
2,5
3,1
4,5
5,1
6,4
7,5
8,4
9,5"
37,"
0,2
1,5
2,3
3,4
4,4
5,5
6,3
7,1
8,4
9,5","
0,5
1,1
2,5
3,1
4,5
5,5
6,5
7,5
8,5
9,5","
0,1
1,5
2,1
3,4
4,2
5,5
6,1
7,4
8,5
9,5","
0,4
1,1
2,5
3,1
4,5
5,3
6,5
7,1
8,5
9,5","
0,4
1,1
2,5
3,1
4,5
5,1
6,4
7,4
8,5
9,5"
38,"
0,2
1,5
2,4
3,1
4,3
5,1
6,2
7,1
8,4
9,5","
0,5
1,1
2,5
3,1
4,5
5,5
6,5
7,5
8,5
9,5","
0,2
1,4
2,1
3,3
4,2
5,4
6,1
7,5
8,4
9,5","
0,5
1,1
2,5
3,1
4,5
5,1
6,5
7,1
8,5
9,5","
0,4
1,2
2,5
3,1
4,5
5,1
6,4
7,3
8,4
9,5"
39,"
0,2
1,5
2,4
3,1
4,4
5,1
6,5
7,1
8,2
9,5","
0,5
1,1
2,5
3,1
4,5
5,5
6,5
7,5
8,5
9,5","
0,1
1,4
2,1
3,5
4,2
5,5
6,1
7,5
8,5
9,4","
0,4
1,2
2,5
3,1
4,5
5,3
6,5
7,1
8,5
9,4","
0,4
1,1
2,5
3,1
4,5
5,1
6,4
7,5
8,4
9,5"
40,"
0,1
1,3
2,5
3,2
4,4
5,1
6,5
7,2
8,4
9,1","
0,5
1,1
2,5
3,1
4,5
5,5
6,5
7,5
8,5
9,5","
0,1
1,5
2,1
3,4
4,2
5,5
6,1
7,4
8,4
9,5","
0,4
1,1
2,5
3,1
4,5
5,2
6,5
7,1
8,5
9,5","
0,5
1,1
2,5
3,1
4,5
5,1"
41,"
0,2
1,5
2,4
3,1
4,3
5,2
6,4
7,1
8,2
9,5","
0,5
1,1
2,5
3,1
4,5
5,5","
0,1
1,5
2,1
3,5
4,2
5,5
6,1
7,4
8,5
9,4","
0,4
1,1
2,5
3,1
4,5
5,2
6,4
7,1
8,5
9,5","
0,4
1,1
2,5
3,1
4,5
5,1
6,4
7,5
8,5
9,5"
42,"
0,2
1,5
2,4
3,1
4,3
5,1
6,4
7,1
8,2
9,5","
0,5
1,1
2,5
3,1
4,5
5,5
6,5
7,5
8,5
9,5","
0,4
1,5
2,1
3,5
4,4
5,5
6,2
7,5
8,4
9,5","
04
11
25
31
45
52
65
71
85
95","
0,3
1,1
2,4
3,1
4,5
5,2
6,5
7,4
8,5
9,4"
43,"
0,2
1,5
2,4
3,1
4,4
5,1
6,3
7,2
8,1
9,5","
0,5
1,1
2,5
3,1
4,5
5,5
6,5
7,5
8,5
9,5","
0,1
1,5
2,1
3,5
4,4
5,5
6,1
7,5
8,5
9,5","
0,4
1,1
2,5
3,1
4,5
5,2
6,5
7,1
8,5
9,5","
0,3
1,1
2,5
3,1
4,4
5,2"
44,"
0,2
1,5
2,3
3,1
4,4
5,2
6,4
7,1
8,2
9,5","
0,5
1,1
2,5
3,1
4,5
5,5
6,5
7,5
8,5
9,5","
0,2
1,4
2,1
3,5
4,4
5,5
6,2
7,4
8,5
9,4","
0,5
1,1
2,5
3,1
4,5
5,1
6,5
7,1
8,5
9,5","
0,3
1,1
2,5
3,1
4,4
5,1"
45,"
0,2
1,5
2,4
3,1
4,3
5,5
6,2
7,1
8,4
9,1","
0,5
1,1
2,5
3,1
4,5
5,5
6,5
7,5
8,5
9,5","
0,2
1,4
2,1
3,3
4,2
5,4
6,2
7,5
8,3
9,4","
0,4
1,1
2,5
3,1
4,5
5,2
6,5
7,1
8,5
9,4","
0,4
1,1
2,5
3,1
4,5
5,1
6,4
7,5
8,5
9,5"
46,"
0,1
1,5
2,4
3,2
4,5
5,2
6,4
7,2
8,1
9,2","
0,5
1,1
2,5
3,1
4,5
5,5
6,5
7,5
8,5
9,5","
0,1
1,5
2,1
3,4
4,3
5,5
6,1
7,5
8,5
9,4","
0,4
1,1
2,5
3,1
4,5
5,2
6,5
7,1
8,5
9,5","
0,3
1,1
2,5
3,1
4,5
5,1
6,4
7,4
8,5
9,5"
47,"
0,2
1,5
2,4
3,1
4,3
5,2
6,4
7,1
8,3
9,2","
0,5
1,1
2,5
3,1
4,5
5,5
6,5
7,5
8,5
9,5","
0,4
1,5
2,1
3,5
4,4
5,5
6,1
7,4
8,5
9,5","
0,4
1,1
2,5
3,1
4,5
5,2
6,5
7,1
8,5
9,4","
0,4
1,1
2,5
3,1
4,5
5,1
6,4
7,5
8,5
9,5"
48,"
0,2
1,5
2,3
3,1
4,4
5,2
6,4
7,1
8,3
9,5","
0,5
1,1
2,5
3,1
4,5
5,5
6,5
7,5
8,5
9,5","
0,3
1,5
2,1
3,4
4,2
5,5
6,1
7,4
8,4
9,5","
0,5
1,1
2,5
3,1
4,5
5,1
6,5
7,1
8,5
9,5","
0,4
1,1
2,5
3,1
4,5
5,1
6,4
7,5
8,5
9,5"
49,"
0,2
1,5
2,4
3,1
4,4
5,1
6,3
7,1
8,2
9,5","
0,5
1,1
2,5
3,1
4,5
5,5
6,5
7,5
8,5
9,5","
0,2
1,4
2,1
3,4
4,3
5,5
6,1
7,5
8,4
9,5","
0,4
1,1
2,5
3,1
4,4
5,2
6,5
7,1
8,5
9,5","
0,4
1,1
2,5
3,1
4,4
5,1"
50,"
0,1
1,5
2,4
3,1
4,5
5,1
6,4
7,1
8,2
9,3","
0,5
1,1
2,5
3,1
4,5
5,5
6,5
7,5
8,5
9,5","
0,2
1,4
2,1
3,5
4,4
5,5
6,1
7,3
8,5
9,5","
0,4
1,1
2,5
3,1
4,5
5,2
6,4
7,1
8,5
9,5","
0,4
1,1
2,5
3,1
4,5
5,1"
51,"
0,3
1,4
2,4
3,1
4,5
5,2
6,5
7,1
8,2
9,3","
0,5
1,1
2,5
3,1
4,5
5,5
6,5
7,5
8,5
9,5","
0,1
1,5
2,1
3,4
4,2
5,5
6,1
7,4
8,4
9,5","
0,4
1,1
2,5
3,1
4,3
5,2
6,5
7,1
8,4
9,5","
0,4
1,1
2,5
3,1
4,4
5,1
6,5
7,4
8,5
9,4"
52,"
0,2
1,5
2,3
3,1
4,4
5,2
6,4
7,1
8,3
9,5","
0,5
1,1
2,5
3,1
4,5
5,5
6,5
7,5
8,5
9,5","
0,1
1,5
2,1
3,4
4,3
5,5
6,1
7,5
8,4
9,5","
0,4
1,1
2,5
3,1
4,5
5,2
6,5
7,1
8,5
9,5","
0,4
1,1
2,5
3,1
4,5
5,1
6,4
7,3
8,5
9,5"
53,"
0,2
1,4
2,3
3,1
4,5
5,1
6,4
7,1
8,2
9,4","
0,5
1,1
2,5
3,1
4,5
5,5
6,5
7,5
8,5
9,5","
0,1
1,5
2,1
3,5
4,4
5,5
6,1
7,5
8,5
9,5","
0,5
1,1
2,4
3,1
4,5
5,2
6,5
7,1
8,4
9,5","
0,4
1,1
2,5
3,2
4,5
5,1
6,4
7,4
8,5
9,5"
54,"
0,1
1,5
2,4
3,2
4,5
5,2
6,5
7,2
8,4
9,2","
0,5
1,1
2,5
3,1
4,5
5,5
6,5
7,5
8,5
9,5","
0,2
1,4
2,1
3,3
4,2
5,4
6,2
7,3
8,4
9,5","
0,4
1,1
2,5
3,1
4,5
5,2
6,5
7,1
8,5
9,5","
0,4
1,1
2,5
3,1
4,5
5,1
6,4
7,4
8,5
9,5"
55,"
0,2
1,5
2,4
3,1
4,3
5,2
6,4
7,1
8,2
9,5","
0,4
1,1
2,5
3,1
4,4
5,5
6,5
7,5
8,4
9,2","
0,1
1,5
2,1
3,4
4,2
5,5
6,1
7,5
8,4
9,5","
0,4
1,1
2,5
3,1
4,5
5,2
6,5
7,1
8,5
9,5","
0,4
1,2
2,5
3,1
4,5
5,1
6,4
7,4
8,4
9,5"
56,"
0,4
1,5
2,3
3,1
4,5
5,2
6,4
7,1
8,2
9,5","
0,5
1,1
2,5
3,1
4,5
5,5
6,4
7,4
8,5
9,5","
0,4
1,5
2,1
3,5
4,4
5,5
6,1
7,5
8,5
9,5","
0,4
1,1
2,5
3,1
4,5
5,2
6,5
7,1
8,5
9,5","
0,4
1,1
2,5
3,1
4,5
5,1
6,5
7,4
8,5
9,5"
57,"
0,2
1,5
2,4
3,1
4,3
5,2
6,4
7,1
8,2
9,5","
0,5
1,1
2,5
3,1
4,5
5,5
6,5
7,5
8,5
9,5","
0,2
1,4
2,1
3,5
4,4
5,5
6,2
7,5
8,4
9,5","
0,4
1,1
2,5
3,1
4,5
5,2
6,4
7,1
8,5
9,5","
0,4
1,1
2,5
3,1
4,5
5,1
6,4
7,4
8,5
9,5"
58,"
0,2
1,5
2,4
3,1
4,3
5,1
6,4
7,2
8,3
9,5","
0,5
1,1
2,5
3,1
4,5
5,5
6,5
7,5
8,5
9,5","
0,1
1,5
2,1
3,4
4,1
5,5
6,1
7,5
8,5
9,5","
0,5
1,1
2,4
3,1
4,5
5,2
6,4
7,1
8,5
9,4","
0,5
1,1
2,5
3,1
4,5
5,1"
59,"
0,1
1,5
2,4
3,2
4,5
5,2
6,4
7,2
8,4
9,2","
0,5
1,1
2,5
3,1
4,5
5,5
6,5
7,5
8,5
9,5","
0,2
1,4
2,1
3,5
4,4
5,5
6,2
7,5
8,4
9,4","
0,4
1,1
2,5
3,1
4,5
5,2
6,4
7,1
8,5
9,5","
0,4
1,1
2,5
3,1
4,4
5,1
6,5
7,4
8,5
9,5"
60,"
0,1
1,3
2,4
3,2
4,5
5,2
6,4
7,2
8,5
9,1","
0,5
1,1
2,5
3,1
4,5
5,5
6,5
7,5
8,5
9,5","
0,1
1,5
2,1
3,4
4,3
5,5
6,1
7,4
8,5
9,5","
0,5
1,1
2,5
3,1
4,5
5,1
6,5
7,1
8,5
9,5","
0,4
1,1
2,5
3,2
4,5
5,1
6,5
7,4
8,5
9,5"
61,"
0,2
1,5
2,4
3,1
4,3
5,2
6,4
7,1
8,3
9,2","
0,5
1,1
2,5
3,1
4,5
5,5
6,5
7,5
8,5
9,5","
0,2
1,4
2,1
3,5
4,3
5,5
6,1
7,4
8,5
9,4","
0,4
1,1
2,5
3,1
4,5
5,3
6,5
7,1
8,5
9,5","
0,4
1,1
2,5
3,1
4,5
5,1
6,4
7,5
8,4
9,5"
62,"
0,4
1,4
2,5
3,2
4,2
5,1
6,3
7,2
8,5
9,1","
0,5
1,1
2,5
3,1
4,5
5,5
6,5
7,5
8,5
9,5","
0,2
1,4
2,1
3,4
4,2
5,5
6,1
7,5
8,4
9,5","
0,4
1,1
2,5
3,1
4,5
5,2
6,5
7,1
8,5
9,5","
0,4
1,1
2,5
3,1
4,4
5,1"
63,"
0,2
1,5
2,4
3,1
4,3
5,2
6,4
7,2
8,1
9,5","
0,5
1,1
2,5
3,1
4,5
5,5
6,4
7,4
8,5
9,5","
0,2
1,4
2,1
3,4
4,2
5,3
6,1
7,5
8,4
9,5","
0,4
1,1
2,5
3,1
4,5
5,2
6,5
7,1
8,5
9,4","
0,4
1,1
2,5
3,1
4,5
5,1
6,4
7,4
8,5
9,5"
