,E,N,A,C,O
0,"
0,4
1,1
2,5
3,2
4,5
5,1
6,4
7,2
8,4
9,2","
0,5
1,1
2,5
3,1
4,5
5,5
6,4
7,4
8,5
9,2","
0,2
1,5
2,1
3,4
4,2
5,4
6,1
7,5
8,4
9,5","
0,4
1,2
2,5
3,1
4,5
5,1
6,4
7,1
8,4
9,5","
0,5
1,1
2,5
3,1
4,5
5,1"
1,"
0,5
1,1
2,4
3,2
4,4
5,1
6,5
7,2
8,5
9,2","
0,5
1,1
2,5
3,1
4,4
5,2
6,4
7,5
8,2
9,3","
0,2
1,5
2,1
3,4
4,1
5,5
6,2
7,5
8,4
9,5","
0,4
1,1
2,5
3,2
4,5
5,2
6,4
7,1
8,5
9,5","
0,5
1,2
2,5
3,1
4,5
5,1
6,4
7,4
8,3
9,5"
2,"
0,4
1,1
2,5
3,2
4,5
5,1
6,5
7,2
8,4
9,2","
0,4
1,1
2,5
3,2
4,5
5,3
6,4
7,5
8,2
9,1","
0,2
1,5
2,1
3,4
4,2
5,5
6,2
7,5
8,4
9,5","
0,4
1,1
2,5
3,2
4,5
5,3
6,5
7,2
8,5
9,4","
0,5
1,1
2,5
3,1
4,5
5,1"
3,"
0,4
1,1
2,5
3,2
4,5
5,2
6,4
7,2
8,1
9,3","
0,5
1,4
2,5
3,1
4,5
5,2
6,4
7,3
8,2
9,1","
0,2
1,5
2,1
3,4
4,2
5,5
6,2
7,4
8,5
9,4","
0,4
1,1
2,5
3,1
4,5
5,2
6,4
7,1
8,5
9,5","
05
11
25
31
45
51
64
75
82
95"
4,"
0,4
1,1
2,5
3,2
4,5
5,2
6,4
7,1
8,3
9,2","
0,4
1,1
2,5
3,1
4,5
5,2
6,4
7,4
8,5
9,2","
0,1
1,5
2,1
3,5
4,4
5,5
6,1
7,4
8,5
9,5","
0,4
1,1
2,5
3,2
4,5
5,3
6,5
7,2
8,5
9,4","
0,4
1,1
2,5
3,2
4,5
5,1
6,4
7,4
8,3
9,5"
5,"
0,5
1,1
2,4
3,2
4,5
5,1
6,4
7,2
8,5
9,2","
0,3
1,4
2,5
3,2
4,5
5,1
6,5
7,4
8,2
9,1","
0,2
1,5
2,1
3,4
4,1
5,5
6,2
7,4
8,5
9,5","
0,3
1,1
2,5
3,2
4,5
5,2
6,4
7,1
8,5
9,4","
Response:
0,4
1,1
2,5
3,1
4,5
5,1
6,4
7,5
8,3
9,5"
6,"
0,4
1,1
2,5
3,1
4,4
5,1
6,5
7,1
8,5
9,1","
0,5
1,1
2,4
3,1
4,4
5,2
6,3
7,2
8,3
9,5","
0,4
1,5
2,1
3,5
4,2
5,5
6,1
7,4
8,5
9,5","
0,4
1,2
2,5
3,1
4,5
5,2
6,4
7,1
8,5
9,4","
0,5
1,1
2,5
3,1
4,5
5,1"
7,"
0,4
1,1
2,5
3,2
4,5
5,2
6,5
7,2
8,4
9,2","
0,5
1,1
2,5
3,1
4,4
5,2","
0,3
1,4
2,1
3,4
4,3
5,5
6,1
7,5
8,4
9,5","
0,4
1,1
2,5
3,2
4,5
5,2
6,4
7,1
8,5
9,5","
0,5
1,1
2,5
3,1
4,5
5,1"
8,"
0,4
1,1
2,5
3,2
4,5
5,1
6,5
7,2
8,4
9,2","
0,5
1,1
2,5
3,1
4,5
5,5
6,4
7,4
8,5
9,2","
0,2
1,5
2,1
3,4
4,3
5,5
6,2
7,4
8,5
9,5","
0,1
1,5
2,4
3,1
4,2
5,3
6,5
7,1
8,4
9,5","
0,5
1,1
2,5
3,1
4,5
5,1"
9,"
0,4
1,1
2,5
3,2
4,5
5,2
6,5
7,2
8,4
9,2","
0,4
1,1
2,5
3,1
4,4
5,2","
0,2
1,5
2,1
3,4
4,2
5,5
6,2
7,4
8,5
9,4","
0,4
1,1
2,5
3,2
4,5
5,2
6,5
7,1
8,5
9,5","
0,5
1,1
2,5
3,1
4,4
5,1"
10,"
0,4
1,2
2,5
3,2
4,5
5,1
6,4
7,2
8,5
9,2","
0,5
1,3
2,5
3,1
4,5
5,2
6,4
7,4
8,2
9,1","
0,2
1,5
2,1
3,4
4,1
5,5
6,1
7,4
8,5
9,5","
0,2
1,5
2,4
3,1
4,5
5,2
6,4
7,1
8,5
9,4","
0,5
1,2
2,5
3,1
4,5
5,2
6,4
7,4
8,3
9,5"
11,"
0,5
1,1
2,4
3,2
4,5
5,1
6,5
7,2
8,4
9,3","
0,2
1,5
2,1
3,4
4,1
5,2
6,3
7,4
8,1
9,2","
0,1
1,5
2,1
3,4
4,2
5,5
6,1
7,4
8,5
9,4","
0,2
1,4
2,4
3,1
4,5
5,2
6,4
7,1
8,5
9,5","
0,5
1,1
2,5
3,1
4,5
5,1
6,4
7,5
8,4
9,5"
12,"
0,4
1,1
2,5
3,2
4,5
5,2
6,5
7,2
8,4
9,2","
04
11
24
32
44
51
64
73
83
91","
0,2
1,4
2,1
3,3
4,2
5,4
6,1
7,5
8,4
9,5","
0,4
1,1
2,5
3,1
4,5
5,3
6,5
7,1
8,5
9,5","
0,5
1,1
2,5
3,1
4,5
5,1"
13,"
0,5
1,1
2,4
3,2
4,5
5,2
6,4
7,2
8,5
9,1","
0,2
1,5
2,1
3,2
4,4
5,1
6,3
7,4
8,1
9,3","
0,2
1,5
2,1
3,4
4,2
5,4
6,1
7,5
8,4
9,5","
0,4
1,1
2,5
3,1
4,4
5,2
6,5
7,1
8,5
9,5","
0,5
1,1
2,5
3,1
4,5
5,1"
14,"
0,5
1,1
2,5
3,1
4,5
5,1
6,5
7,1
8,4
9,2","
0,3
1,4
2,5
3,2
4,1
5,2","
0,2
1,5
2,1
3,4
4,2
5,5
6,1
7,4
8,4
9,5","
0,4
1,1
2,5
3,1
4,5
5,2
6,5
7,1
8,5
9,4","
0,5
1,1
2,5
3,1
4,5
5,1"
15,"
0,4
1,1
2,5
3,2
4,5
5,2
6,4
7,2
8,4
9,3","
0,3
1,4
2,4
3,2
4,1
5,2
6,1
7,3
8,2
9,1","
0,1
1,5
2,1
3,4
4,2
5,4
6,1
7,4
8,5
9,5","
0,2
1,5
2,4
3,1
4,4
5,2
6,5
7,1
8,4
9,4","
0,4
1,1
2,5
3,1
4,5
5,1"
16,"
0,5
1,1
2,4
3,2
4,5
5,1
6,4
7,2
8,5
9,2","
05
11
24
31
44
52
64
73
82
95","
0,2
1,5
2,1
3,4
4,2
5,5
6,1
7,5
8,4
9,5","
0,4
1,2
2,5
3,1
4,5
5,3
6,4
7,1
8,5
9,5","
0,4
1,1
2,5
3,1
4,4
5,1"
17,"
0,4
1,1
2,5
3,2
4,5
5,2
6,4
7,2
8,4
9,2","
0,5
1,1
2,5
3,1
4,5
5,5
6,4
7,4
8,5
9,4","
0,4
1,5
2,1
3,4
4,5
5,5
6,3
7,4
8,5
9,4","
0,5
1,1
2,5
3,1
4,5
5,2","
0,4
1,1
2,5
3,1
4,5
5,1
6,4
7,5
8,3
9,5"
18,"
05
11
24
32
45
51
64
72
85
91","
0,5
1,1
2,4
3,1
4,4
5,2
6,4
7,3
8,2
9,1","
0,5
1,4
2,1
3,4
4,3
5,5
6,1
7,4
8,4
9,5","
0,1
1,4
2,5
3,1
4,4
5,2
6,5
7,1
8,5
9,5","
0,5
1,1
2,5
3,1
4,5
5,1"
19,"
0,4
1,2
2,5
3,1
4,5
5,1
6,4
7,2
8,4
9,1","
0,2
1,5
2,1
3,2
4,1
5,2
6,1
7,1
8,2
9,1","
0,1
1,5
2,1
3,4
4,2
5,5
6,1
7,4
8,5
9,5","
0,4
1,1
2,5
3,2
4,5
5,2
6,4
7,1
8,5
9,4","
0,4
1,1
2,5
3,1
4,5
5,1"
20,"
0,4
1,1
2,5
3,2
4,5
5,1
6,4
7,2
8,4
9,2","
0,4
1,1
2,5
3,2
4,5
5,3
6,4
7,4
8,1
9,2","
0,1
1,5
2,1
3,5
4,3
5,5
6,1
7,4
8,5
9,4","
0,4
1,1
2,5
3,2
4,5
5,2
6,4
7,1
8,4
9,5","
0,5
1,1
2,5
3,1
4,4
5,1"
21,"
0,4
1,1
2,5
3,2
4,4
5,1
6,5
7,2
8,4
9,2","
0,5
1,1
2,5
3,1
4,5
5,5
6,4
7,4
8,5
9,5","
0,1
1,5
2,1
3,4
4,5
5,4
6,1
7,5
8,4
9,5","
0,3
1,1
2,5
3,2
4,5
5,2
6,4
7,1
8,4
9,5","
0,5
1,1
2,5
3,1
4,5
5,1"
22,"
0,4
1,1
2,5
3,2
4,4
5,2
6,5
7,2
8,4
9,3","
0,5
1,1
2,5
3,1
4,2
5,2
6,4
7,4
8,2
9,3","
0,1
1,5
2,1
3,4
4,2
5,5
6,1
7,5
8,4
9,5","
0,4
1,1
2,5
3,1
4,5
5,2
6,5
7,1
8,5
9,5","
0,4
1,1
2,5
3,1
4,5
5,1
6,4
7,5
8,4
9,5"
23,"
0,5
1,1
2,5
3,2
4,4
5,1
6,4
7,2
8,3
9,4","
0,5
1,1
2,5
3,1
4,5
5,5
6,5
7,5
8,4
9,2","
0,2
1,4
2,1
3,5
4,5
5,4
6,2
7,5
8,4
9,3","
0,5
1,1
2,4
3,1
4,2
5,3
6,4
7,1
8,4
9,4","
0,5
1,1
2,5
3,1
4,5
5,1"
24,"
0,5
1,1
2,4
3,2
4,5
5,1
6,4
7,2
8,5
9,2","
0,3
1,1
2,5
3,1
4,5
5,3
6,4
7,4
8,3
9,2","
0,2
1,4
2,1
3,4
4,3
5,5
6,2
7,4
8,5
9,5","
0,5
1,1
2,5
3,1
4,5
5,2","
0,5
1,1
2,5
3,1
4,4
5,1"
25,"
0,5
1,1
2,5
3,1
4,4
5,1
6,4
7,1
8,3
9,2","
0,4
1,1
2,5
3,1
4,5
5,2
6,4
7,5
8,2
9,3","
0,1
1,5
2,1
3,4
4,2
5,5
6,1
7,5
8,4
9,4","
0,4
1,1
2,5
3,2
4,5
5,1
6,4
7,2
8,5
9,5","
0,5
1,1
2,5
3,1
4,5
5,1"
26,"
0,5
1,1
2,4
3,2
4,5
5,2
6,4
7,1
8,3
9,2","
0,4
1,1
2,5
3,2
4,5
5,1
6,5
7,4
8,1
9,2","
0,1
1,5
2,1
3,4
4,3
5,5
6,1
7,4
8,5
9,5","
0,1
1,4
2,5
3,1
4,4
5,2
6,5
7,1
8,4
9,5","
0,5
1,1
2,5
3,1
4,5
5,1
6,5
7,5
8,4
9,5"
27,"
0,4
1,1
2,5
3,2
4,5
5,1
6,5
7,2
8,4
9,2","
0,5
1,1
2,5
3,1
4,5
5,5
6,5
7,5
8,4
9,2","
0,2
1,5
2,1
3,4
4,3
5,4
6,2
7,5
8,5
9,4","
0,4
1,2
2,5
3,1
4,5
5,3
6,4
7,2
8,5
9,4","
0,5
1,1
2,5
3,1
4,5
5,1
6,5
7,5
8,4
9,5"
28,"
0,5
1,1
2,4
3,2
4,5
5,1
6,4
7,2
8,3
9,1","
0,3
1,4
2,5
3,2
4,5
5,1
6,4
7,2
8,1
9,4","
0,1
1,5
2,1
3,4
4,3
5,5
6,1
7,5
8,4
9,5","
0,5
1,1
2,5
3,1
4,5
5,2","
0,5
1,1
2,5
3,1
4,5
5,1"
29,"
0,4
1,1
2,5
3,2
4,5
5,2
6,5
7,2
8,4
9,2","
0,5
1,1
2,5
3,1
4,5
5,5
6,4
7,4
8,5
9,5","
0,1
1,5
2,1
3,4
4,5
5,4
6,1
7,5
8,4
9,5","
0,4
1,1
2,5
3,2
4,5
5,2
6,4
7,1
8,5
9,5","
0,4
1,1
2,5
3,1
4,5
5,1
6,4
7,5
8,2
9,5"
30,"
0,4
1,1
2,5
3,2
4,5
5,2
6,5
7,2
8,4
9,2","
0,4
1,1
2,5
3,2
4,5
5,1
6,4
7,4
8,5
9,5","
0,1
1,5
2,1
3,5
4,4
5,5
6,1
7,5
8,5
9,5","
0,4
1,1
2,5
3,2
4,5
5,2
6,4
7,2
8,5
9,4","
0,4
1,2
2,5
3,1
4,5
5,1"
31,"
0,4
1,1
2,5
3,1
4,5
5,1
6,4
7,1
8,4
9,2","
0,3
1,4
2,1
3,2
4,5
5,3
6,4
7,2
8,1
9,5","
0,2
1,4
2,1
3,4
4,2
5,4
6,2
7,3
8,4
9,5","
0,3
1,1
2,4
3,2
4,5
5,2
6,4
7,1
8,5
9,4","
0,5
1,1
2,5
3,1
4,5
5,1"
32,"
0,5
1,1
2,5
3,1
4,5
5,1
6,5
7,1
8,5
9,1","
0,5
1,4
2,5
3,1
4,5
5,2
6,4
7,3
8,2
9,1","
0,2
1,5
2,1
3,4
4,1
5,5
6,1
7,3
8,5
9,4","
0,4
1,2
2,4
3,1
4,5
5,2
6,4
7,2
8,5
9,4","
0,5
1,1
2,5
3,1
4,5
5,1"
33,"
0,4
1,1
2,5
3,2
4,5
5,2
6,4
7,2
8,1
9,3","
0,3
1,4
2,2
3,1
4,5
5,2
6,4
7,3
8,2
9,5","
0,2
1,5
2,1
3,4
4,3
5,5
6,2
7,5
8,4
9,5","
0,4
1,1
2,5
3,2
4,5
5,3
6,5
7,2
8,4
9,5","
0,5
1,1
2,5
3,1
4,5
5,1"
34,"
0,4
1,5
2,4
3,1
4,5
5,2
6,4
7,1
8,2
9,5","
0,5
1,1
2,4
3,2
4,5
5,1
6,4
7,4
8,2
9,1","
0,1
1,5
2,1
3,4
4,2
5,5
6,1
7,4
8,3
9,4","
0,4
1,2
2,5
3,1
4,5
5,2
6,4
7,1
8,5
9,4","
0,5
1,1
2,5
3,1
4,5
5,1
6,4
7,5
8,4
9,5"
35,"
0,4
1,5
2,4
3,2
4,5
5,2
6,5
7,2
8,5
9,2","
0,3
1,4
2,5
3,1
4,5
5,2","
0,2
1,5
2,1
3,4
4,3
5,5
6,1
7,4
8,5
9,4","
0,3
1,1
2,5
3,1
4,4
5,2","
0,5
1,1
2,5
3,1
4,5
5,1
6,5
7,5
8,4
9,5"
36,"
0,4
1,1
2,5
3,2
4,5
5,2
6,5
7,2
8,4
9,2","
0,5
1,1
2,5
3,1
4,5
5,5
6,4
7,4
8,4
9,5","
0,1
1,5
2,1
3,4
4,3
5,4
6,2
7,5
8,4
9,5","
0,2
1,5
2,4
3,1
4,5
5,2
6,4
7,1
8,5
9,4","
0,5
1,1
2,5
3,1
4,4
5,1"
37,"
0,5
1,1
2,4
3,1
4,5
5,1
6,4
7,1
8,5
9,1","
0,2
1,5
2,4
3,1
4,4
5,2
6,3
7,4
8,2
9,1","
0,2
1,4
2,1
3,5
4,4
5,5
6,2
7,5
8,4
9,4","
0,1
1,5
2,4
3,1
4,5
5,2
6,4
7,1
8,4
9,5","
0,5
1,1
2,5
3,1
4,4
5,1"
38,"
0,4
1,1
2,5
3,2
4,5
5,2
6,4
7,2
8,4
9,2","
0,5
1,1
2,4
3,2
4,4
5,1
6,4
7,4
8,2
9,1","
0,2
1,5
2,1
3,4
4,2
5,5
6,2
7,4
8,5
9,4","
0,2
1,1
2,4
3,2
4,5
5,3
6,4
7,1
8,5
9,4","
0,5
1,1
2,5
3,1
4,5
5,1"
39,"
0,4
1,1
2,5
3,2
4,5
5,2
6,4
7,2
8,4
9,1","
0,3
1,4
2,4
3,2
4,5
5,3","
0,2
1,5
2,1
3,5
4,4
5,5
6,2
7,4
8,5
9,5","
0,3
1,2
2,4
3,2
4,4
5,1
6,4
7,2
8,3
9,4","
0,5
1,1
2,5
3,1
4,5
5,1"
40,"
0,5
1,1
2,4
3,2
4,5
5,1
6,4
7,2
8,3
9,4","
0,5
1,4
2,5
3,1
4,5
5,5
6,4
7,5
8,5
9,1","
0,2
1,5
2,1
3,4
4,3
5,5
6,1
7,4
8,5
9,5","
0,4
1,1
2,5
3,2
4,5
5,2
6,4
7,1
8,5
9,5","
0,4
1,1
2,5
3,1
4,5
5,1
6,4
7,4
8,3
9,5"
41,"
0,5
1,1
2,4
3,2
4,5
5,1
6,5
7,2
8,4
9,2","
0,4
1,1
2,5
3,1
4,4
5,2","
0,2
1,5
2,1
3,4
4,1
5,5
6,1
7,4
8,5
9,5","
0,4
1,1
2,5
3,2
4,5
5,2
6,4
7,1
8,5
9,5","
0,5
1,1
2,5
3,1
4,5
5,1"
42,"
0,5
1,1
2,5
3,1
4,4
5,2
6,4
7,1
8,3
9,2","
0,5
1,1
2,5
3,1
4,5
5,5
6,4
7,4
8,5
9,4","
0,2
1,5
2,1
3,4
4,1
5,5
6,2
7,5
8,5
9,4","
0,4
1,2
2,5
3,1
4,5
5,1
6,4
7,1
8,5
9,5","
0,4
1,1
2,5
3,1
4,4
5,1"
43,"
0,5
1,1
2,5
3,1
4,4
5,2
6,4
7,1
8,3
9,2","
0,2
1,5
2,1
3,2
4,1
5,2
6,4
7,3
8,1
9,2","
0,1
1,5
2,1
3,4
4,3
5,5
6,1
7,4
8,4
9,5","
0,5
1,2
2,4
3,1
4,5
5,2
6,5
7,1
8,4
9,5","
0,5
1,1
2,5
3,1
4,5
5,1"
44,"
0,5
1,1
2,4
3,2
4,5
5,1
6,4
7,2
8,5
9,2","
0,4
1,1
2,5
3,2
4,5
5,1
6,5
7,5
8,4
9,2","
0,2
1,5
2,1
3,4
4,3
5,5
6,2
7,4
8,5
9,5","
0,3
1,4
2,5
3,1
4,5
5,2
6,4
7,1
8,5
9,4","
0,5
1,1
2,5
3,1
4,4
5,1
6,5
7,4
8,4
9,5"
45,"
0,5
1,1
2,4
3,2
4,5
5,2
6,4
7,2
8,5
9,1","
0,4
1,1
2,5
3,2
4,4
5,1
6,5
7,4
8,5
9,2","
0,2
1,5
2,1
3,4
4,2
5,5
6,2
7,4
8,5
9,5","
0,2
1,5
2,4
3,1
4,5
5,2
6,4
7,1
8,5
9,4","
0,5
1,1
2,5
3,1
4,5
5,1"
46,"
0,4
1,1
2,5
3,2
4,5
5,1
6,4
7,2
8,4
9,2","
0,4
1,1
2,5
3,2
4,5
5,2
6,5
7,4
8,5
9,1","
0,2
1,5
2,1
3,4
4,2
5,5
6,2
7,4
8,5
9,5","
0,4
1,1
2,5
3,2
4,5
5,2
6,5
7,1
8,5
9,4","
0,5
1,1
2,5
3,1
4,5
5,1"
47,"
0,4
1,1
2,5
3,2
4,5
5,2
6,4
7,1
8,3
9,2","
0,3
1,4
2,5
3,2
4,1
5,2
6,5
7,4
8,1
9,1","
0,3
1,4
2,2
3,5
4,4
5,5
6,3
7,5
8,4
9,5","
0,4
1,1
2,5
3,1
4,2
5,4","
0,4
1,1
2,5
3,1
4,5
5,1
6,4
7,4
8,3
9,5"
48,"
0,4
1,1
2,5
3,2
4,5
5,2
6,4
7,1
8,5
9,2","
0,2
1,5
2,3
3,1
4,4
5,2
6,4
7,2
8,4
9,1","
0,1
1,5
2,1
3,4
4,2
5,5
6,1
7,4
8,3
9,5","
0,3
1,1
2,4
3,1
4,5
5,2
6,4
7,1
8,5
9,4","
0,5
1,1
2,5
3,1
4,5
5,1
6,5
7,4
8,3
9,5"
49,"
0,5
1,1
2,4
3,2
4,5
5,2
6,4
7,1
8,3
9,2","
0,4
1,5
2,2
3,1
4,4
5,2
6,3
7,3
8,2
9,1","
0,2
1,5
2,1
3,4
4,2
5,5
6,1
7,5
8,4
9,5","
0,5
1,1
2,4
3,1
4,5
5,2
6,4
7,1
8,4
9,5","
0,4
1,2
2,5
3,1
4,5
5,2
6,4
7,4
8,3
9,5"
50,"
0,4
1,1
2,5
3,2
4,5
5,1
6,5
7,2
8,5
9,2","
01
15
21
32
41
52
64
73
81
92","
0,2
1,5
2,1
3,4
4,1
5,4
6,2
7,5
8,5
9,5","
0,5
1,1
2,4
3,1
4,5
5,2
6,4
7,1
8,5
9,4","
0,5
1,1
2,5
3,1
4,5
5,1"
51,"
0,4
1,1
2,5
3,1
4,5
5,1
6,4
7,1
8,4
9,2","
0,2
1,5
2,4
3,1
4,4
5,2
6,3
7,3
8,2
9,1","
0,2
1,5
2,1
3,4
4,1
5,5
6,2
7,4
8,5
9,5","
0,2
1,1
2,4
3,1
4,5
5,2
6,4
7,1
8,5
9,4","
0,5
1,1
2,5
3,1
4,5
5,1
6,4
7,5
8,4
9,5"
52,"
0,4
1,2
2,5
3,1
4,5
5,2
6,4
7,1
8,3
9,2","
0,3
1,4
2,5
3,1
4,2
5,3
6,2
7,1
8,5
9,2","
0,1
1,5
2,1
3,4
4,2
5,5
6,1
7,4
8,5
9,5","
0,3
1,1
2,4
3,2
4,5
5,2
6,4
7,1
8,5
9,4","
0,4
1,1
2,5
3,1
4,5
5,1
6,4
7,5
8,3
9,5"
53,"
0,5
1,1
2,5
3,1
4,5
5,1
6,5
7,1
8,5
9,1","
0,5
1,1
2,5
3,1
4,5
5,5
6,4
7,4
8,5
9,2","
0,1
1,5
2,1
3,4
4,2
5,5
6,1
7,4
8,5
9,4","
0,4
1,1
2,5
3,1
4,5
5,2
6,5
7,1
8,5
9,5","
0,4
1,1
2,5
3,2
4,5
5,2
6,4
7,5
8,3
9,5"
54,"
0,4
1,5
2,3
3,1
4,5
5,1
6,4
7,1
8,2
9,5","
0,4
1,4
2,5
3,2
4,5
5,1","
0,2
1,5
2,1
3,4
4,1
5,5
6,2
7,4
8,5
9,4","
0,3
1,2
2,4
3,1
4,5
5,2
6,4
7,1
8,5
9,4","
0,4
1,1
2,5
3,1
4,5
5,1
6,4
7,5
8,3
9,5"
55,"
0,4
1,5
2,4
3,2
4,5
5,2
6,5
7,2
8,4
9,2","
0,5
1,1
2,4
3,2
4,5
5,3
6,4
7,4
8,2
9,1","
0,2
1,4
2,1
3,5
4,3
5,4
6,1
7,5
8,4
9,5","
0,4
1,1
2,5
3,1
4,2
5,3
6,5
7,1
8,4
9,5","
0,4
1,1
2,5
3,1
4,5
5,1"
56,"
0,4
1,1
2,5
3,2
4,5
5,2
6,5
7,2
8,4
9,3","
0,5
1,1
2,5
3,1
4,4
5,3","
0,1
1,5
2,1
3,4
4,2
5,5
6,1
7,5
8,4
9,5","
0,4
1,1
2,5
3,1
4,5
5,2
6,4
7,1
8,5
9,5","
0,5
1,1
2,5
3,1
4,4
5,1"
57,"
0,5
1,1
2,4
3,1
4,5
5,1
6,4
7,1
8,4
9,1","
0,5
1,1
2,5
3,1
4,5
5,2","
0,1
1,5
2,1
3,4
4,3
5,5
6,1
7,5
8,5
9,4","
0,2
1,5
2,4
3,1
4,5
5,2
6,4
7,1
8,5
9,4","
0,4
1,1
2,5
3,1
4,5
5,1
6,4
7,5
8,2
9,5"
58,"
0,5
1,1
2,4
3,1
4,5
5,1
6,4
7,1
8,4
9,3","
0,3
1,1
2,5
3,2
4,4
5,1
6,4
7,5
8,3
9,2","
0,1
1,5
2,1
3,4
4,2
5,5
6,1
7,4
8,5
9,5","
0,5
1,1
2,4
3,1
4,5
5,2
6,5
7,1
8,4
9,4","
0,5
1,1
2,5
3,1
4,5
5,1
6,5
7,5
8,3
9,5"
59,"
0,5
1,1
2,4
3,2
4,5
5,1
6,4
7,2
8,5
9,2","
0,4
1,1
2,5
3,1
4,2
5,4","
0,2
1,4
2,1
3,5
4,4
5,5
6,2
7,5
8,4
9,5","
0,4
1,1
2,5
3,1
4,4
5,2
6,5
7,1
8,5
9,5","
0,5
1,1
2,5
3,1
4,5
5,1
6,4
7,4
8,4
9,5"
60,"
0,4
1,1
2,5
3,1
4,5
5,1
6,4
7,1
8,4
9,2","
0,4
1,1
2,4
3,2
4,4
5,4","

0,2
1,5
2,1
3,4
4,2
5,5
6,1
7,4
8,5
9,5","
0,4
1,2
2,5
3,1
4,5
5,2
6,4
7,1
8,5
9,5","
0,4
1,1
2,5
3,1
4,5
5,1"
61,"
0,4
1,2
2,5
3,1
4,5
5,2
6,5
7,1
8,4
9,1","
0,5
1,1
2,4
3,1
4,4
5,3
6,4
7,2
8,3
9,2","
0,1
1,5
2,1
3,4
4,3
5,5
6,1
7,5
8,4
9,5","
0,4
1,1
2,5
3,1
4,4
5,2
6,5
7,1
8,4
9,5","
0,5
1,1
2,5
3,1
4,5
5,1"
62,"
0,5
1,1
2,4
3,2
4,5
5,2
6,4
7,2
8,5
9,4","
0,3
1,4
2,5
3,2
4,5
5,3
6,4
7,5
8,4
9,1","
0,2
1,5
2,1
3,4
4,2
5,5
6,2
7,4
8,5
9,4","
0,4
1,1
2,5
3,2
4,5
5,2
6,4
7,1
8,5
9,4","
0,5
1,1
2,5
3,1
4,5
5,1"
63,"
0,4
1,1
2,5
3,2
4,5
5,2
6,4
7,2
8,4
9,1","
0,3
1,1
2,5
3,2
4,5
5,3
6,4
7,4
8,2
9,1","
0,2
1,5
2,1
3,4
4,1
5,4
6,2
7,5
8,5
9,4","
0,4
1,1
2,5
3,2
4,5
5,2
6,5
7,1
8,5
9,5","
0,4
1,2
2,5
3,1
4,5
5,1
6,4
7,5
8,3
9,5"
